[gd_scene load_steps=4 format=3]

[ext_resource type="Script" path="res://Assets/Menu Legacy/MenuSlider.gd" id="1_vhxwo"]
[ext_resource type="AudioStream" uid="uid://da7hq3d1msmud" path="res://Assets/SFX/UI_Click.wav" id="2_weawk"]
[ext_resource type="AudioStream" uid="uid://dc4rractm5dhf" path="res://Assets/SFX/UI_Hover.wav" id="3_b58yr"]

[node name="MenuSlider" type="HBoxContainer"]
anchor_right = 1.0
anchor_bottom = 1.0
script = ExtResource( "1_vhxwo" )
__meta__ = {
"_edit_use_anchors_": false
}

[node name="Label" type="Label" parent="."]
offset_top = 348.0
offset_right = 638.0
offset_bottom = 371.0
size_flags_horizontal = 3

[node name="Slider" type="HSlider" parent="."]
offset_left = 642.0
offset_right = 1280.0
offset_bottom = 16.0
rect_min_size = Vector2(200, 0)
rect_pivot_offset = Vector2(-908, 0)
size_flags_horizontal = 3

[node name="ClickSound" type="AudioStreamPlayer" parent="."]
stream = ExtResource( "2_weawk" )
volume_db = -12.0

[node name="HoverSound" type="AudioStreamPlayer" parent="."]
stream = ExtResource( "3_b58yr" )

[connection signal="mouse_entered" from="Slider" to="." method="_on_Slider_mouse_entered"]
[connection signal="value_changed" from="Slider" to="." method="on_slider_value_changed"]
