; Engine configuration file.
; It's best edited using the editor UI and not directly,
; since the parameters that go here are not all obvious.
;
; Format:
;   [section] ; section goes between []
;   param=value ; assign values to parameters

config_version=5

[application]

config/name="Liblast"
config/description="A libre multiplayer FPS game built with Godot 4 game engine and a fully open-source toolchain. https://libla.st"
run/main_scene="res://Assets/Startup.tscn"
config/features=PackedStringArray("4.2")
boot_splash/bg_color=Color(0.0705882, 0.0235294, 0.0235294, 1)
boot_splash/image="res://Assets/Effects/Logo.png"
boot_splash/fullsize=false
boot_splash/use_filter=false
config/icon="res://icon.png"

[autoload]

Globals="*res://Assets/Singletons/Globals.gd"
Settings="*res://Assets/Singletons/Settings.gd"
MultiplayerState="*res://Assets/Singletons/MultiplayerState.gd"
InfraServer="*res://Assets/Singletons/InfraServer.gd"
Badges="*res://Assets/Badges/Badges.gd"
Storage="*res://Assets/Singletons/Storage.gd"
PerformanceMonitor="*res://Assets/Singletons/PerformanceMonitor.gd"
Logger="*res://Assets/Singletons/Logger.gd"
LocalDiscovery="*res://Assets/Singletons/LocalDiscovery.gd"
Console="*res://Assets/HUD/Console.tscn"

[debug]

gdscript/warnings/unused_variable=0
gdscript/warnings/unused_parameter=0
gdscript/warnings/shadowed_variable=0
gdscript/warnings/shadowed_variable_base_class=0

[display]

window/size/resizable=false
window/size/borderless=true
window/stretch/mode="canvas_items"
window/stretch/aspect="expand"
window/vsync/vsync_mode=2
mouse_cursor/custom_image="res://Assets/Menu/Cursor.png"
window/size/width=1280
window/size/height=720

[editor]

movie_writer/mjpeg_quality=1.0
movie_writer/movie_file="/data/Projects/Games/Liblast/Videos/Menu Background/MenuBG_240FPS.avi"
movie_writer/fps=240
run/main_run_args="--mute --aut"
import/use_multiple_threads=false
scene/scene_naming=1

[file_customization]

folder_colors={
"res://AutomatedTests/": "yellow",
"res://ManualTests/": "green"
}

[filesystem]

import/fbx/use_fbx=false

[gui]

theme/custom="res://Assets/Theme.tres"
theme/default_font_multichannel_signed_distance_field=true
theme/default_font_generate_mipmaps=true

[importer_defaults]

texture={
"compress/mode": 2
}
scene={
"import_script/path": "res://Assets/Maps/MapImporter.gd",
"meshes/light_baking": 2
}
"meshes/light_baking:2}[input]move_forward"={
"deadzone": 0.5,
"events": [Object(InputEventKey,"resource_local_to_scene":false,"resource_name":"","device":0,"window_id":0,"alt_pressed":false,"shift_pressed":false,"ctrl_pressed":false,"meta_pressed":false,"pressed":false,"keycode":87,"physical_keycode":0,"key_label":0,"unicode":0,"echo":false,"script":null)
]
}
move_backward={
"deadzone": 0.5,
"events": [Object(InputEventKey,"resource_local_to_scene":false,"resource_name":"","device":0,"window_id":0,"alt_pressed":false,"shift_pressed":false,"ctrl_pressed":false,"meta_pressed":false,"pressed":false,"keycode":83,"physical_keycode":0,"key_label":0,"unicode":0,"echo":false,"script":null)
]
}
move_left={
"deadzone": 0.5,
"events": [Object(InputEventKey,"resource_local_to_scene":false,"resource_name":"","device":0,"window_id":0,"alt_pressed":false,"shift_pressed":false,"ctrl_pressed":false,"meta_pressed":false,"pressed":false,"keycode":65,"physical_keycode":0,"key_label":0,"unicode":0,"echo":false,"script":null)
]
}
move_right={
"deadzone": 0.5,
"events": [Object(InputEventKey,"resource_local_to_scene":false,"resource_name":"","device":0,"window_id":0,"alt_pressed":false,"shift_pressed":false,"ctrl_pressed":false,"meta_pressed":false,"pressed":false,"keycode":68,"physical_keycode":0,"key_label":0,"unicode":0,"echo":false,"script":null)
]
}
move_jump={
"deadzone": 0.5,
"events": [Object(InputEventKey,"resource_local_to_scene":false,"resource_name":"","device":0,"window_id":0,"alt_pressed":false,"shift_pressed":false,"ctrl_pressed":false,"meta_pressed":false,"pressed":false,"keycode":32,"physical_keycode":0,"key_label":0,"unicode":0,"echo":false,"script":null)
]
}
move_crouch={
"deadzone": 0.5,
"events": [Object(InputEventKey,"resource_local_to_scene":false,"resource_name":"","device":0,"window_id":0,"alt_pressed":false,"shift_pressed":false,"ctrl_pressed":false,"meta_pressed":false,"pressed":false,"keycode":16777238,"physical_keycode":0,"key_label":0,"unicode":0,"echo":false,"script":null)
]
}
trigger_primary={
"deadzone": 0.5,
"events": [Object(InputEventMouseButton,"resource_local_to_scene":false,"resource_name":"","device":0,"window_id":0,"alt_pressed":false,"shift_pressed":false,"ctrl_pressed":false,"meta_pressed":false,"button_mask":0,"position":Vector2(0, 0),"global_position":Vector2(0, 0),"factor":1.0,"button_index":1,"canceled":false,"pressed":false,"double_click":false,"script":null)
]
}
trigger_secondary={
"deadzone": 0.5,
"events": [Object(InputEventMouseButton,"resource_local_to_scene":false,"resource_name":"","device":0,"window_id":0,"alt_pressed":false,"shift_pressed":false,"ctrl_pressed":false,"meta_pressed":false,"button_mask":0,"position":Vector2(0, 0),"global_position":Vector2(0, 0),"factor":1.0,"button_index":2,"canceled":false,"pressed":false,"double_click":false,"script":null)
]
}
view_zoom={
"deadzone": 0.5,
"events": [Object(InputEventKey,"resource_local_to_scene":false,"resource_name":"","device":0,"window_id":0,"alt_pressed":false,"shift_pressed":false,"ctrl_pressed":false,"meta_pressed":false,"pressed":false,"keycode":90,"physical_keycode":0,"key_label":0,"unicode":0,"echo":false,"script":null)
]
}
move_special={
"deadzone": 0.5,
"events": [Object(InputEventKey,"resource_local_to_scene":false,"resource_name":"","device":0,"window_id":0,"alt_pressed":false,"shift_pressed":false,"ctrl_pressed":false,"meta_pressed":false,"pressed":false,"keycode":16777237,"physical_keycode":0,"key_label":0,"unicode":0,"echo":false,"script":null)
]
}
weapon_previous={
"deadzone": 0.5,
"events": [Object(InputEventMouseButton,"resource_local_to_scene":false,"resource_name":"","device":0,"window_id":0,"alt_pressed":false,"shift_pressed":false,"ctrl_pressed":false,"meta_pressed":false,"button_mask":0,"position":Vector2(0, 0),"global_position":Vector2(0, 0),"factor":1.0,"button_index":4,"canceled":false,"pressed":false,"double_click":false,"script":null)
]
}
weapon_next={
"deadzone": 0.5,
"events": [Object(InputEventMouseButton,"resource_local_to_scene":false,"resource_name":"","device":0,"window_id":0,"alt_pressed":false,"shift_pressed":false,"ctrl_pressed":false,"meta_pressed":false,"button_mask":0,"position":Vector2(0, 0),"global_position":Vector2(0, 0),"factor":1.0,"button_index":5,"canceled":false,"pressed":false,"double_click":false,"script":null)
]
}
weapon_reload={
"deadzone": 0.5,
"events": [Object(InputEventKey,"resource_local_to_scene":false,"resource_name":"","device":0,"window_id":0,"alt_pressed":false,"shift_pressed":false,"ctrl_pressed":false,"meta_pressed":false,"pressed":false,"keycode":82,"physical_keycode":0,"key_label":0,"unicode":0,"echo":false,"script":null)
]
}
weapon_last={
"deadzone": 0.5,
"events": [Object(InputEventKey,"resource_local_to_scene":false,"resource_name":"","device":0,"window_id":0,"alt_pressed":false,"shift_pressed":false,"ctrl_pressed":false,"meta_pressed":false,"pressed":false,"keycode":81,"physical_keycode":0,"key_label":0,"unicode":0,"echo":false,"script":null)
]
}
weapon_1={
"deadzone": 0.5,
"events": [Object(InputEventKey,"resource_local_to_scene":false,"resource_name":"","device":0,"window_id":0,"alt_pressed":false,"shift_pressed":false,"ctrl_pressed":false,"meta_pressed":false,"pressed":false,"keycode":49,"physical_keycode":0,"key_label":0,"unicode":0,"echo":false,"script":null)
]
}
weapon_2={
"deadzone": 0.5,
"events": [Object(InputEventKey,"resource_local_to_scene":false,"resource_name":"","device":0,"window_id":0,"alt_pressed":false,"shift_pressed":false,"ctrl_pressed":false,"meta_pressed":false,"pressed":false,"keycode":50,"physical_keycode":0,"key_label":0,"unicode":0,"echo":false,"script":null)
]
}
weapon_3={
"deadzone": 0.5,
"events": [Object(InputEventKey,"resource_local_to_scene":false,"resource_name":"","device":0,"window_id":0,"alt_pressed":false,"shift_pressed":false,"ctrl_pressed":false,"meta_pressed":false,"pressed":false,"keycode":51,"physical_keycode":0,"key_label":0,"unicode":0,"echo":false,"script":null)
]
}
say_all={
"deadzone": 0.5,
"events": [Object(InputEventKey,"resource_local_to_scene":false,"resource_name":"","device":0,"window_id":0,"alt_pressed":false,"shift_pressed":false,"ctrl_pressed":false,"meta_pressed":false,"pressed":false,"keycode":89,"physical_keycode":0,"key_label":0,"unicode":0,"echo":false,"script":null)
]
}
say_team={
"deadzone": 0.5,
"events": [Object(InputEventKey,"resource_local_to_scene":false,"resource_name":"","device":0,"window_id":0,"alt_pressed":false,"shift_pressed":false,"ctrl_pressed":false,"meta_pressed":false,"pressed":false,"keycode":84,"physical_keycode":0,"key_label":0,"unicode":0,"echo":false,"script":null)
]
}
say_send={
"deadzone": 0.5,
"events": [Object(InputEventKey,"resource_local_to_scene":false,"resource_name":"","device":0,"window_id":0,"alt_pressed":false,"shift_pressed":false,"ctrl_pressed":false,"meta_pressed":false,"pressed":false,"keycode":16777221,"physical_keycode":0,"key_label":0,"unicode":0,"echo":false,"script":null)
]
}
say_cancel={
"deadzone": 0.5,
"events": [Object(InputEventKey,"resource_local_to_scene":false,"resource_name":"","device":0,"window_id":0,"alt_pressed":false,"shift_pressed":false,"ctrl_pressed":false,"meta_pressed":false,"pressed":false,"keycode":16777217,"physical_keycode":0,"key_label":0,"unicode":0,"echo":false,"script":null)
]
}
show_scoretab={
"deadzone": 0.5,
"events": [Object(InputEventKey,"resource_local_to_scene":false,"resource_name":"","device":0,"window_id":0,"alt_pressed":false,"shift_pressed":false,"ctrl_pressed":false,"meta_pressed":false,"pressed":false,"keycode":16777218,"physical_keycode":0,"key_label":0,"unicode":0,"echo":false,"script":null)
]
}
screenshot={
"deadzone": 0.5,
"events": [Object(InputEventKey,"resource_local_to_scene":false,"resource_name":"","device":0,"window_id":0,"alt_pressed":false,"shift_pressed":false,"ctrl_pressed":false,"meta_pressed":false,"pressed":false,"keycode":16777253,"physical_keycode":0,"key_label":0,"unicode":0,"echo":false,"script":null)
]
}
mute_audio={
"deadzone": 0.5,
"events": [Object(InputEventKey,"resource_local_to_scene":false,"resource_name":"","device":0,"window_id":0,"alt_pressed":false,"shift_pressed":false,"ctrl_pressed":false,"meta_pressed":false,"pressed":false,"keycode":77,"physical_keycode":0,"key_label":0,"unicode":0,"echo":false,"script":null)
]
}
console={
"deadzone": 0.5,
"events": [Object(InputEventKey,"resource_local_to_scene":false,"resource_name":"","device":0,"window_id":0,"alt_pressed":false,"shift_pressed":false,"ctrl_pressed":false,"meta_pressed":false,"pressed":false,"keycode":0,"physical_keycode":96,"key_label":0,"unicode":0,"echo":false,"script":null)
]
}
clear={
"deadzone": 0.5,
"events": [Object(InputEventKey,"resource_local_to_scene":false,"resource_name":"","device":0,"window_id":0,"alt_pressed":false,"shift_pressed":false,"ctrl_pressed":false,"meta_pressed":false,"pressed":false,"keycode":0,"physical_keycode":16777224,"key_label":0,"unicode":0,"echo":false,"script":null)
]
}

[input]

move_forward={
"deadzone": 0.5,
"events": [Object(InputEventKey,"resource_local_to_scene":false,"resource_name":"","device":0,"window_id":0,"alt_pressed":false,"shift_pressed":false,"ctrl_pressed":false,"meta_pressed":false,"pressed":false,"keycode":0,"physical_keycode":87,"key_label":0,"unicode":0,"echo":false,"script":null)
, Object(InputEventKey,"resource_local_to_scene":false,"resource_name":"","device":-1,"window_id":0,"alt_pressed":false,"shift_pressed":false,"ctrl_pressed":false,"meta_pressed":false,"pressed":false,"keycode":0,"physical_keycode":4194320,"key_label":0,"unicode":0,"echo":false,"script":null)
]
}
move_backward={
"deadzone": 0.5,
"events": [Object(InputEventKey,"resource_local_to_scene":false,"resource_name":"","device":-1,"window_id":0,"alt_pressed":false,"shift_pressed":false,"ctrl_pressed":false,"meta_pressed":false,"pressed":false,"keycode":0,"physical_keycode":83,"key_label":0,"unicode":115,"echo":false,"script":null)
, Object(InputEventKey,"resource_local_to_scene":false,"resource_name":"","device":-1,"window_id":0,"alt_pressed":false,"shift_pressed":false,"ctrl_pressed":false,"meta_pressed":false,"pressed":false,"keycode":0,"physical_keycode":4194322,"key_label":0,"unicode":0,"echo":false,"script":null)
]
}
move_left={
"deadzone": 0.5,
"events": [Object(InputEventKey,"resource_local_to_scene":false,"resource_name":"","device":0,"window_id":0,"alt_pressed":false,"shift_pressed":false,"ctrl_pressed":false,"meta_pressed":false,"pressed":false,"keycode":0,"physical_keycode":65,"key_label":0,"unicode":0,"echo":false,"script":null)
, Object(InputEventKey,"resource_local_to_scene":false,"resource_name":"","device":-1,"window_id":0,"alt_pressed":false,"shift_pressed":false,"ctrl_pressed":false,"meta_pressed":false,"pressed":false,"keycode":0,"physical_keycode":4194319,"key_label":0,"unicode":0,"echo":false,"script":null)
]
}
move_right={
"deadzone": 0.5,
"events": [Object(InputEventKey,"resource_local_to_scene":false,"resource_name":"","device":0,"window_id":0,"alt_pressed":false,"shift_pressed":false,"ctrl_pressed":false,"meta_pressed":false,"pressed":false,"keycode":0,"physical_keycode":68,"key_label":0,"unicode":0,"echo":false,"script":null)
, Object(InputEventKey,"resource_local_to_scene":false,"resource_name":"","device":-1,"window_id":0,"alt_pressed":false,"shift_pressed":false,"ctrl_pressed":false,"meta_pressed":false,"pressed":false,"keycode":0,"physical_keycode":4194321,"key_label":0,"unicode":0,"echo":false,"script":null)
]
}
move_jump={
"deadzone": 0.5,
"events": [Object(InputEventKey,"resource_local_to_scene":false,"resource_name":"","device":-1,"window_id":0,"alt_pressed":false,"shift_pressed":false,"ctrl_pressed":false,"meta_pressed":false,"pressed":false,"keycode":0,"physical_keycode":32,"key_label":0,"unicode":32,"echo":false,"script":null)
, Object(InputEventKey,"resource_local_to_scene":false,"resource_name":"","device":-1,"window_id":0,"alt_pressed":false,"shift_pressed":false,"ctrl_pressed":false,"meta_pressed":false,"pressed":false,"keycode":0,"physical_keycode":4194326,"key_label":0,"unicode":0,"echo":false,"script":null)
]
}
move_crouch={
"deadzone": 0.5,
"events": [Object(InputEventKey,"resource_local_to_scene":false,"resource_name":"","device":-1,"window_id":0,"alt_pressed":false,"shift_pressed":false,"ctrl_pressed":false,"meta_pressed":false,"pressed":false,"keycode":0,"physical_keycode":4194326,"key_label":0,"unicode":0,"echo":false,"script":null)
]
}
trigger_primary={
"deadzone": 0.5,
"events": [Object(InputEventMouseButton,"resource_local_to_scene":false,"resource_name":"","device":0,"window_id":0,"alt_pressed":false,"shift_pressed":false,"ctrl_pressed":false,"meta_pressed":false,"button_mask":0,"position":Vector2(0, 0),"global_position":Vector2(0, 0),"factor":1.0,"button_index":1,"canceled":false,"pressed":false,"double_click":false,"script":null)
]
}
trigger_secondary={
"deadzone": 0.5,
"events": [Object(InputEventMouseButton,"resource_local_to_scene":false,"resource_name":"","device":0,"window_id":0,"alt_pressed":false,"shift_pressed":false,"ctrl_pressed":false,"meta_pressed":false,"button_mask":0,"position":Vector2(0, 0),"global_position":Vector2(0, 0),"factor":1.0,"button_index":2,"canceled":false,"pressed":false,"double_click":false,"script":null)
]
}
view_zoom={
"deadzone": 0.5,
"events": [Object(InputEventKey,"resource_local_to_scene":false,"resource_name":"","device":0,"window_id":0,"alt_pressed":false,"shift_pressed":false,"ctrl_pressed":false,"meta_pressed":false,"pressed":false,"keycode":0,"physical_keycode":90,"key_label":0,"unicode":122,"echo":false,"script":null)
]
}
move_special={
"deadzone": 0.5,
"events": [Object(InputEventKey,"resource_local_to_scene":false,"resource_name":"","device":0,"window_id":0,"alt_pressed":false,"shift_pressed":false,"ctrl_pressed":false,"meta_pressed":false,"pressed":false,"keycode":0,"physical_keycode":4194325,"key_label":0,"unicode":0,"echo":false,"script":null)
]
}
weapon_previous={
"deadzone": 0.5,
"events": [Object(InputEventMouseButton,"resource_local_to_scene":false,"resource_name":"","device":-1,"window_id":0,"alt_pressed":false,"shift_pressed":false,"ctrl_pressed":false,"meta_pressed":false,"button_mask":0,"position":Vector2(0, 0),"global_position":Vector2(0, 0),"factor":1.0,"button_index":4,"canceled":false,"pressed":false,"double_click":false,"script":null)
]
}
weapon_next={
"deadzone": 0.5,
"events": [Object(InputEventMouseButton,"resource_local_to_scene":false,"resource_name":"","device":-1,"window_id":0,"alt_pressed":false,"shift_pressed":false,"ctrl_pressed":false,"meta_pressed":false,"button_mask":0,"position":Vector2(0, 0),"global_position":Vector2(0, 0),"factor":1.0,"button_index":5,"canceled":false,"pressed":false,"double_click":false,"script":null)
]
}
weapon_reload={
"deadzone": 0.5,
"events": [Object(InputEventKey,"resource_local_to_scene":false,"resource_name":"","device":0,"window_id":0,"alt_pressed":false,"shift_pressed":false,"ctrl_pressed":false,"meta_pressed":false,"pressed":false,"keycode":0,"physical_keycode":82,"key_label":0,"unicode":114,"echo":false,"script":null)
]
}
weapon_last={
"deadzone": 0.5,
"events": [Object(InputEventKey,"resource_local_to_scene":false,"resource_name":"","device":0,"window_id":0,"alt_pressed":false,"shift_pressed":false,"ctrl_pressed":false,"meta_pressed":false,"pressed":false,"keycode":0,"physical_keycode":81,"key_label":0,"unicode":113,"echo":false,"script":null)
]
}
weapon_1={
"deadzone": 0.5,
"events": [Object(InputEventKey,"resource_local_to_scene":false,"resource_name":"","device":0,"window_id":0,"alt_pressed":false,"shift_pressed":false,"ctrl_pressed":false,"meta_pressed":false,"pressed":false,"keycode":0,"physical_keycode":49,"key_label":0,"unicode":49,"echo":false,"script":null)
]
}
weapon_2={
"deadzone": 0.5,
"events": [Object(InputEventKey,"resource_local_to_scene":false,"resource_name":"","device":0,"window_id":0,"alt_pressed":false,"shift_pressed":false,"ctrl_pressed":false,"meta_pressed":false,"pressed":false,"keycode":0,"physical_keycode":50,"key_label":0,"unicode":50,"echo":false,"script":null)
]
}
weapon_3={
"deadzone": 0.5,
"events": [Object(InputEventKey,"resource_local_to_scene":false,"resource_name":"","device":0,"window_id":0,"alt_pressed":false,"shift_pressed":false,"ctrl_pressed":false,"meta_pressed":false,"pressed":false,"keycode":0,"physical_keycode":51,"key_label":0,"unicode":51,"echo":false,"script":null)
]
}
say_all={
"deadzone": 0.5,
"events": [Object(InputEventKey,"resource_local_to_scene":false,"resource_name":"","device":0,"window_id":0,"alt_pressed":false,"shift_pressed":false,"ctrl_pressed":false,"meta_pressed":false,"pressed":false,"keycode":0,"physical_keycode":89,"key_label":0,"unicode":121,"echo":false,"script":null)
]
}
say_team={
"deadzone": 0.5,
"events": [Object(InputEventKey,"resource_local_to_scene":false,"resource_name":"","device":0,"window_id":0,"alt_pressed":false,"shift_pressed":false,"ctrl_pressed":false,"meta_pressed":false,"pressed":false,"keycode":0,"physical_keycode":84,"key_label":0,"unicode":116,"echo":false,"script":null)
]
}
say_send={
"deadzone": 0.5,
"events": [Object(InputEventKey,"resource_local_to_scene":false,"resource_name":"","device":0,"window_id":0,"alt_pressed":false,"shift_pressed":false,"ctrl_pressed":false,"meta_pressed":false,"pressed":false,"keycode":0,"physical_keycode":4194309,"key_label":0,"unicode":0,"echo":false,"script":null)
]
}
say_cancel={
"deadzone": 0.5,
"events": [Object(InputEventKey,"resource_local_to_scene":false,"resource_name":"","device":0,"window_id":0,"alt_pressed":false,"shift_pressed":false,"ctrl_pressed":false,"meta_pressed":false,"pressed":false,"keycode":4194312,"physical_keycode":0,"key_label":0,"unicode":0,"echo":false,"script":null)
, Object(InputEventKey,"resource_local_to_scene":false,"resource_name":"","device":0,"window_id":0,"alt_pressed":false,"shift_pressed":false,"ctrl_pressed":false,"meta_pressed":false,"pressed":false,"keycode":0,"physical_keycode":4194305,"key_label":0,"unicode":0,"echo":false,"script":null)
]
}
show_scoretab={
"deadzone": 0.5,
"events": [Object(InputEventKey,"resource_local_to_scene":false,"resource_name":"","device":0,"window_id":0,"alt_pressed":false,"shift_pressed":false,"ctrl_pressed":false,"meta_pressed":false,"pressed":false,"keycode":0,"physical_keycode":4194306,"key_label":0,"unicode":0,"echo":false,"script":null)
]
}
screenshot={
"deadzone": 0.5,
"events": [Object(InputEventKey,"resource_local_to_scene":false,"resource_name":"","device":0,"window_id":0,"alt_pressed":false,"shift_pressed":false,"ctrl_pressed":false,"meta_pressed":false,"pressed":false,"keycode":16777253,"physical_keycode":0,"key_label":0,"unicode":0,"echo":false,"script":null)
]
}
mute_audio={
"deadzone": 0.5,
"events": [Object(InputEventKey,"resource_local_to_scene":false,"resource_name":"","device":0,"window_id":0,"alt_pressed":false,"shift_pressed":false,"ctrl_pressed":false,"meta_pressed":false,"pressed":false,"keycode":0,"physical_keycode":77,"key_label":0,"unicode":109,"echo":false,"script":null)
]
}
console={
"deadzone": 0.5,
"events": [Object(InputEventKey,"resource_local_to_scene":false,"resource_name":"","device":-1,"window_id":0,"alt_pressed":false,"shift_pressed":false,"ctrl_pressed":false,"meta_pressed":false,"pressed":false,"keycode":0,"physical_keycode":167,"key_label":0,"unicode":96,"echo":false,"script":null)
, Object(InputEventKey,"resource_local_to_scene":false,"resource_name":"","device":-1,"window_id":0,"alt_pressed":false,"shift_pressed":false,"ctrl_pressed":false,"meta_pressed":false,"pressed":false,"keycode":0,"physical_keycode":96,"key_label":0,"unicode":96,"echo":false,"script":null)
]
}
clear={
"deadzone": 0.5,
"events": [Object(InputEventKey,"resource_local_to_scene":false,"resource_name":"","device":-1,"window_id":0,"alt_pressed":false,"shift_pressed":false,"ctrl_pressed":false,"meta_pressed":false,"pressed":false,"keycode":0,"physical_keycode":4194333,"key_label":0,"unicode":0,"echo":false,"script":null)
]
}
replay_capture={
"deadzone": 0.5,
"events": [Object(InputEventKey,"resource_local_to_scene":false,"resource_name":"","device":0,"window_id":0,"alt_pressed":false,"shift_pressed":false,"ctrl_pressed":false,"meta_pressed":false,"pressed":false,"keycode":0,"physical_keycode":4194334,"key_label":0,"unicode":0,"echo":false,"script":null)
]
}
replay_playback={
"deadzone": 0.5,
"events": [Object(InputEventKey,"resource_local_to_scene":false,"resource_name":"","device":0,"window_id":0,"alt_pressed":false,"shift_pressed":false,"ctrl_pressed":false,"meta_pressed":false,"pressed":false,"keycode":0,"physical_keycode":4194335,"key_label":0,"unicode":0,"echo":false,"script":null)
]
}
view_camera={
"deadzone": 0.5,
"events": [Object(InputEventKey,"resource_local_to_scene":false,"resource_name":"","device":-1,"window_id":0,"alt_pressed":false,"shift_pressed":false,"ctrl_pressed":false,"meta_pressed":false,"pressed":false,"keycode":0,"physical_keycode":67,"key_label":0,"unicode":99,"echo":false,"script":null)
]
}
quit={
"deadzone": 0.5,
"events": [Object(InputEventKey,"resource_local_to_scene":false,"resource_name":"","device":0,"window_id":0,"alt_pressed":false,"shift_pressed":false,"ctrl_pressed":false,"meta_pressed":false,"pressed":false,"keycode":0,"physical_keycode":4194341,"key_label":0,"unicode":0,"echo":false,"script":null)
]
}
fullscreen={
"deadzone": 0.5,
"events": [Object(InputEventKey,"resource_local_to_scene":false,"resource_name":"","device":-1,"window_id":0,"alt_pressed":false,"shift_pressed":false,"ctrl_pressed":false,"meta_pressed":false,"pressed":false,"keycode":0,"physical_keycode":4194342,"key_label":0,"unicode":0,"echo":false,"script":null)
]
}

[layer_names]

3d_render/layer_1="Static"
3d_render/layer_2="Dynamic"
3d_render/layer_3="Players"
3d_render/layer_4="Overlay"
3d_render/layer_5="Unlit"
3d_render/layer_6="Skybox"
3d_physics/layer_1="Solid"
3d_physics/layer_2="SemiSolid"
3d_physics/layer_3="Pickups"
3d_physics/layer_4="PlayersOnly"
3d_physics/layer_5="FireOnly"
3d_physics/layer_6="RedTeamPlayersOnly"
3d_physics/layer_7="BlueTeamPlayersOnly"
3d_physics/layer_8="RedTeamFireOnly"
3d_physics/layer_9="BlueTeamFireOnly"
3d_physics/layer_10="VisualOcclusionOnly"
3d_physics/layer_11="DeadBodiesOnly"

[physics]

common/physics_jitter_fix=0.0
common/enable_object_picking=false

[rendering]

textures/canvas_textures/default_texture_filter=2
textures/webp_compression/compression_method=4
textures/webp_compression/lossless_compression_factor=75.0
lights_and_shadows/directional_shadow/soft_shadow_filter_quality=3
lights_and_shadows/directional_shadow/16_bits=false
lights_and_shadows/positional_shadow/soft_shadow_filter_quality=3
2d/shadow_atlas/size=0
reflections/sky_reflections/texture_array_reflections=false
global_illumination/gi/use_half_resolution=true
global_illumination/voxel_gi/quality=1
textures/default_filters/anisotropic_filtering_level=3
anti_aliasing/screen_space_roughness_limiter/enabled=false
anti_aliasing/screen_space_roughness_limiter/amount=4.0
anti_aliasing/screen_space_roughness_limiter/limit=0.1
environment/screen_space_reflection/roughness_quality=2
global_illumination/sdfgi/probe_ray_count=2
global_illumination/sdfgi/frames_to_converge=2
global_illumination/sdfgi/frames_to_update_lights=1
environment/defaults/default_clear_color=Color(0.0823529, 0.0823529, 0.0823529, 1)
anti_aliasing/quality/msaa_2d=1
anti_aliasing/quality/msaa_3d=1
anti_aliasing/quality/screen_space_aa=1
anti_aliasing/quality/use_taa=true
anti_aliasing/quality/use_debanding=true
occlusion_culling/use_occlusion_culling=true
lights_and_shadows/positional_shadow/atlas_size=2048
lights_and_shadows/positional_shadow/atlas_16_bits=false
environment/defaults/default_environment="res://Assets/Environments/DefaultMedium.tres"
environment/glow/use_high_quality=true
shadows/directional_shadow/soft_shadow_quality=3
shadows/shadows/soft_shadow_quality=3
shadows/shadow_atlas/quadrant_1_subdiv=3

[shader_globals]

team_color_0={
"type": "color",
"value": Color(1, 1, 1, 1)
}
team_color_1={
"type": "color",
"value": Color(0.796078, 0.988235, 0.0627451, 1)
}
team_color_2={
"type": "color",
"value": Color(0.631373, 0, 1, 1)
}
height_mapping_enabled={
"type": "bool",
"value": true
}
height_mapping_occlusion_enabled={
"type": "bool",
"value": true
}
height_mapping_layers_range_limit={
"type": "vec2",
"value": Vector2(8, 64)
}
