[gd_resource type="ORMMaterial3D" load_steps=6 format=3]
[ext_resource path="Copper_01_Hotspot_albedo.png" type="Texture" id=1]
[ext_resource path="Copper_01_Hotspot_orm.png" type="Texture" id=2]
[ext_resource path="Copper_01_Hotspot_normal.png" type="Texture" id=3]
[resource]
albedo_color = Color(1, 1, 1, 1)
albedo_texture = ExtResource( 1 )
orm_texture = ExtResource( 2 )
normal_enabled = true
normal_scale = 1
normal_texture = ExtResource( 3 )



