[gd_scene load_steps=14 format=3 uid="uid://d0yliiiodogdi"]

[ext_resource type="PackedScene" uid="uid://hsgjfrfh10ho" path="res://Assets/Maps/_Map.tscn" id="1_hqy8u"]
[ext_resource type="PackedScene" uid="uid://n3ktc2gomi2p" path="res://Assets/MapComponents/SpawnPoint.tscn" id="2_2fxxm"]
[ext_resource type="PackedScene" uid="uid://bk8gba4r2e0jt" path="res://Assets/Maps/AbandonnedShip/scenes/Corridor000.tscn" id="3_xprjg"]
[ext_resource type="PackedScene" uid="uid://c45fbr414xvg2" path="res://Assets/Maps/AbandonnedShip/scenes/Corridor001.tscn" id="4_7jijo"]
[ext_resource type="PackedScene" uid="uid://bksgxaj1cj7qn" path="res://Assets/Maps/AbandonnedShip/scenes/Corridor003.tscn" id="5_36px0"]
[ext_resource type="PackedScene" uid="uid://cwer22ygd858w" path="res://Assets/Maps/AbandonnedShip/scenes/Corridor004.tscn" id="5_ag1cu"]
[ext_resource type="PackedScene" uid="uid://bo1sylcu38q4y" path="res://Assets/Maps/AbandonnedShip/scenes/Corridor002.tscn" id="5_x7wp8"]
[ext_resource type="PackedScene" uid="uid://unvvaeau1im5" path="res://Assets/Maps/AbandonnedShip/scenes/Room000.tscn" id="6_jo86d"]
[ext_resource type="PackedScene" uid="uid://c5vskwfhxmmeh" path="res://Assets/Maps/AbandonnedShip/scenes/Room001.tscn" id="7_llipn"]
[ext_resource type="PackedScene" uid="uid://bijjcfx46372f" path="res://Assets/Maps/AbandonnedShip/scenes/Corridor005.tscn" id="8_wa2lr"]
[ext_resource type="PackedScene" uid="uid://r6ow1r8wbhjo" path="res://Assets/Maps/AbandonnedShip/scenes/Room002.tscn" id="9_rve63"]

[sub_resource type="NavigationMesh" id="NavigationMesh_vc2nh"]
vertices = PackedVector3Array(-6.59892, 3.57443, -10.1758, -5.39892, 3.57443, -10.1758, -5.39892, 3.57443, -10.9758, -6.59892, 3.57443, -10.1758, -5.39892, 3.57443, -10.9758, -4.99892, 3.57443, -11.3758, -6.59892, 3.57443, -12.5758, -4.99892, 3.57443, -11.3758, -1.79892, 3.57443, -11.3758, -1.79892, 3.57443, -12.5758, -6.59892, 3.57443, -12.5758, 1.00108, 3.57443, -11.3758, 1.80108, 3.57443, -11.3758, 1.80108, 3.57443, -12.5758, -1.79892, 3.57443, -12.5758, -1.79892, 3.57443, -11.3758, -0.998917, 3.57443, -11.3758, -0.598915, 3.57443, -10.9758, 0.601082, 3.57443, -10.9758, 1.00108, 3.57443, -11.3758, 1.80108, 3.57443, -12.5758, -1.79892, 3.57443, -12.5758, -0.998917, 3.57443, -11.3758, -0.598915, 3.57443, -10.9758, -0.598915, 3.57443, -7.77579, 0.601082, 3.57443, -7.77579, 0.601082, 3.57443, -10.9758, 9.00108, 3.57443, -11.3758, 16.2011, 3.57443, -11.3758, 16.2011, 3.57443, -12.5758, 9.00108, 3.57443, -12.5758, 9.00108, 3.57443, -12.5758, 1.80108, 3.57443, -12.5758, 1.80108, 3.57443, -11.3758, 9.00108, 3.57443, -11.3758, 17.4011, 3.57443, -10.9758, 17.4011, 3.57443, -10.1758, 18.6011, 3.57443, -10.1758, 16.2011, 3.57443, -12.5758, 16.2011, 3.57443, -11.3758, 17.2011, 3.57443, -11.2758, 17.2011, 3.57443, -11.2758, 17.4011, 3.57443, -10.9758, 18.6011, 3.57443, -10.1758, 17.2011, 3.57443, -11.2758, 18.6011, 3.57443, -10.1758, 18.6011, 3.57443, -12.5758, 16.2011, 3.57443, -12.5758, -5.09892, 0.32443, -11.4758, -4.29892, 0.32443, -11.4758, -4.29892, 0.32443, -12.4758, -5.09892, 0.32443, -11.4758, -4.29892, 0.32443, -12.4758, -6.19892, 0.32443, -12.4758, -6.49892, 0.32443, -12.1758, -5.49892, 0.32443, -11.0758, -6.49892, 0.32443, -7.67579, -5.49892, 0.32443, -7.67579, -5.49892, 0.32443, -11.0758, -6.49892, 0.32443, -12.1758, -0.498917, 0.32443, -11.0758, -0.498917, 0.32443, -10.2758, 0.501083, 0.32443, -10.2758, 0.601082, 0.32443, -11.2758, -0.898918, 0.32443, -11.4758, 1.70108, 0.32443, -12.4758, -4.29892, 0.32443, -12.4758, -4.29892, 0.32443, -11.4758, 0.901085, 0.32443, -11.4758, 1.70108, 0.32443, -11.4758, 1.70108, 0.32443, -12.4758, -0.498917, 0.32443, -11.0758, 0.601082, 0.32443, -11.2758, 0.901085, 0.32443, -11.4758, 1.70108, 0.32443, -12.4758, -0.898918, 0.32443, -11.4758, 9.00108, 0.32443, -11.4758, 16.3011, 0.32443, -11.4758, 16.3011, 0.32443, -12.4758, 9.00108, 0.32443, -12.4758, 9.00108, 0.32443, -12.4758, 1.70108, 0.32443, -12.4758, 1.70108, 0.32443, -11.4758, 9.00108, 0.32443, -11.4758, 16.3011, 0.32443, -12.4758, 16.3011, 0.32443, -11.4758, 17.1011, 0.32443, -11.4758, 18.2011, 0.32443, -12.4758, 16.3011, 0.32443, -12.4758, 17.1011, 0.32443, -11.4758, 17.5011, 0.32443, -11.0758, 18.5011, 0.32443, -12.1758, 17.5011, 0.32443, -11.0758, 17.5011, 0.32443, -1.67579, 18.5011, 0.32443, -1.67579, 18.5011, 0.32443, -12.1758, 3.10108, 0.32443, -5.47579, 3.40108, 0.32443, -5.27579, 3.40108, 0.32443, -6.67579, 3.10108, 0.32443, -6.47579, 0.501083, 0.32443, -10.2758, -0.498917, 0.32443, -10.2758, -0.498917, 0.32443, -6.87579, 0.601082, 0.32443, -6.67579, -0.498917, 0.32443, -5.07579, -0.498917, 0.32443, -4.27579, 0.501083, 0.32443, -4.27579, 0.501083, 0.32443, -5.07579, 0.901085, 0.32443, -5.47579, 3.10108, 0.32443, -5.47579, 3.10108, 0.32443, -6.47579, 0.901085, 0.32443, -6.47579, -0.698917, 0.32443, -5.37578, -0.498917, 0.32443, -5.07579, 0.501083, 0.32443, -5.07579, -0.898918, 0.32443, -6.47579, -1.69892, 0.32443, -6.47579, -1.69892, 0.32443, -5.47579, -0.698917, 0.32443, -5.37578, 0.901085, 0.32443, -5.47579, 0.901085, 0.32443, -6.47579, 0.601082, 0.32443, -6.67579, -0.498917, 0.32443, -6.87579, -0.898918, 0.32443, -6.47579, -0.698917, 0.32443, -5.37578, 0.501083, 0.32443, -5.07579, 0.901085, 0.32443, -5.47579, 0.601082, 0.32443, -6.67579, -4.99892, 3.57443, -5.37578, -4.19892, 3.57443, -5.37578, -4.19892, 3.57443, -6.57579, -4.99892, 3.57443, -6.57579, -5.39892, 3.57443, -6.97579, -5.39892, 3.57443, -10.1758, -6.59892, 3.57443, -10.1758, -6.59892, 3.57443, -4.17579, -5.29892, 3.57443, -5.17579, -4.99892, 3.57443, -5.37578, -4.99892, 3.57443, -6.57579, -6.59892, 3.57443, -4.17579, -5.39892, 3.57443, -4.17579, -5.29892, 3.57443, -5.17579, -5.29892, 3.57443, -5.17579, -4.99892, 3.57443, -6.57579, -5.39892, 3.57443, -6.97579, -6.59892, 3.57443, -4.17579, 17.4011, 3.57443, -1.77579, 18.6011, 3.57443, -1.77579, 18.6011, 3.57443, -10.1758, 17.4011, 3.57443, -10.1758, 6.30108, 4.57443, -9.17579, 6.20108, 5.57443, -7.37579, 6.30108, 4.57443, -2.87578, 14.7011, 4.57443, -2.87578, 14.7011, 4.57443, -9.17579, 6.27608, 5.57443, -4.00078, 14.7011, 5.57443, -4.02124, 14.7011, 5.57443, -8.03033, 6.79914, 5.57443, -7.77305, 8.30108, -0.67557, -7.57579, 8.30108, -0.42557, -7.17579, 9.00108, -0.67557, -7.07579, 8.30108, -0.67557, -7.57579, 9.00108, -0.67557, -7.07579, 9.40108, -0.67557, -7.57579, 8.00108, -0.67557, -7.87579, 9.40108, -0.67557, -7.57579, 10.9011, -0.67557, -7.57579, 10.9011, -0.67557, -8.77579, 6.50108, -0.67557, -8.77579, 8.00108, -0.67557, -7.87579, 6.50108, -0.67557, -8.77579, 6.50108, -0.67557, -7.87579, 8.00108, -0.67557, -7.87579, 10.9011, -0.67557, -8.77579, 10.9011, -0.67557, -7.57579, 11.7011, -0.67557, -7.57579, 10.9011, -0.67557, -8.77579, 11.7011, -0.67557, -7.57579, 12.0011, -0.67557, -7.37579, 14.4011, -0.67557, -8.77579, 12.0011, -0.67557, -7.37579, 12.1011, -0.67557, -5.57579, 13.0011, -0.67557, -5.57579, 12.0011, -0.67557, -7.37579, 13.0011, -0.67557, -5.57579, 13.3011, -0.67557, -5.37578, 14.4011, -0.67557, -8.77579, 13.3011, -0.67557, -5.37578, 13.4011, -0.42557, -3.17579, 14.4011, -0.42557, -3.17579, 14.4011, -0.67557, -8.77579, -0.598915, 3.57443, -4.97579, -0.598915, 3.57443, -4.17579, 0.601082, 3.57443, -4.17579, 0.601082, 3.57443, -4.97579, -0.998917, 3.57443, -6.57579, -4.19892, 3.57443, -6.57579, -4.19892, 3.57443, -5.37578, -0.998917, 3.57443, -5.37578, 0.601082, 3.57443, -6.97579, 0.601082, 3.57443, -7.77579, -0.598915, 3.57443, -7.77579, -0.598915, 3.57443, -6.97579, 0.601082, 3.57443, -4.97579, 1.10108, 3.57443, -5.37578, 1.10108, 3.57443, -6.57579, 0.601082, 3.57443, -6.97579, -0.998917, 3.57443, -6.57579, -0.998917, 3.57443, -5.37578, -0.998917, 3.57443, -5.37578, -0.598915, 3.57443, -4.97579, 0.601082, 3.57443, -4.97579, 0.601082, 3.57443, -6.97579, -0.598915, 3.57443, -6.97579, -0.998917, 3.57443, -6.57579, -6.49892, 0.32443, -4.27579, -5.49892, 0.32443, -4.27579, -5.49892, 0.32443, -5.07579, -5.49892, 0.32443, -6.87579, -5.49892, 0.32443, -7.67579, -6.49892, 0.32443, -7.67579, -6.49892, 0.32443, -7.67579, -6.49892, 0.32443, -4.27579, -5.49892, 0.32443, -5.07579, -5.09892, 0.32443, -5.47579, -5.09892, 0.32443, -6.47579, -5.49892, 0.32443, -6.87579, -5.09892, 0.32443, -5.47579, -1.69892, 0.32443, -5.47579, -1.69892, 0.32443, -6.47579, -5.09892, 0.32443, -6.47579, 9.00108, -0.67557, -7.07579, 8.30108, -0.42557, -7.17579, 8.00108, -0.17557, -6.87579, 8.40108, -0.42557, -5.47579, 9.00108, -0.67557, -5.57579, 8.20108, -0.42557, -5.07579, 8.40108, -0.42557, -5.47579, 8.00108, -0.17557, -6.87579, 4.60108, 0.32443, -6.77579, 4.60108, 0.32443, -5.27579, 6.14394, 0.32443, -5.19007, 6.30108, 0.32443, -6.82579, 1.10108, 3.57443, -6.57579, 1.10108, 3.57443, -5.37578, 5.20108, 3.57443, -5.27579, 5.20108, 3.57443, -6.67579, 9.20108, 1.32443, -4.57579, 9.20108, 1.32443, -3.47579, 9.40108, 1.32443, -3.47579, 9.40108, 1.32443, -4.57579, -6.49892, 0.32443, 0.924214, -6.49892, 0.32443, 1.72421, -5.49892, 0.32443, 1.72421, -6.89892, 0.32443, 0.524215, -6.49892, 0.32443, 0.924214, -5.49892, 0.32443, 1.72421, -6.49892, 0.32443, -0.875785, -6.69892, 0.32443, -0.575786, -5.49892, 0.32443, -4.27579, -6.49892, 0.32443, -4.27579, -6.49892, 0.32443, -0.875785, -5.49892, 0.32443, 1.72421, -11.1989, 0.32443, -0.475785, -11.1989, 0.32443, 0.524215, -6.89892, 0.32443, 0.524215, -6.69892, 0.32443, -0.575786, -0.498917, 0.32443, 4.32421, 0.501083, 0.32443, 4.32421, 0.501083, 0.32443, -4.27579, -0.498917, 0.32443, -4.27579, -6.59892, 3.57443, 1.02421, -6.59892, 3.57443, 1.82421, -5.39892, 3.57443, 1.82421, -6.99892, 3.57443, -0.575786, -7.79892, 3.57443, -0.575786, -7.79892, 3.57443, 0.624215, -6.79892, 3.57443, 0.724215, -5.39892, 3.57443, -4.17579, -6.59892, 3.57443, -4.17579, -6.59892, 3.57443, -0.975785, -5.39892, 3.57443, 1.82421, -6.99892, 3.57443, -0.575786, -6.79892, 3.57443, 0.724215, -6.59892, 3.57443, 1.02421, -5.39892, 3.57443, 1.82421, -6.59892, 3.57443, -0.975785, -0.598915, 3.57443, 4.22421, 0.601082, 3.57443, 4.22421, 0.601082, 3.57443, -4.17579, -0.598915, 3.57443, -4.17579, 6.50108, -0.67557, -4.07579, 6.50108, -0.42557, -3.17579, 8.20108, -0.42557, -3.17579, 8.20108, -0.67557, -4.17579, 17.4011, 3.57443, 1.02421, 17.4011, 3.57443, 1.82421, 18.6011, 3.57443, 1.82421, 18.6011, 3.57443, -1.77579, 17.4011, 3.57443, -1.77579, 17.4011, 3.57443, -0.975785, 17.2011, 3.57443, -0.675785, 16.2011, 3.57443, -0.575786, 16.2011, 3.57443, 0.624215, 17.2011, 3.57443, 0.724215, 17.4011, 3.57443, -0.975785, 17.2011, 3.57443, -0.675785, 17.2011, 3.57443, 0.724215, 17.4011, 3.57443, 1.02421, 18.6011, 3.57443, 1.82421, 18.6011, 3.57443, -1.77579, 17.5011, 0.32443, 0.924214, 17.5011, 0.32443, 1.72421, 18.5011, 0.32443, 1.72421, 18.5011, 0.32443, -1.67579, 17.5011, 0.32443, -1.67579, 17.5011, 0.32443, -0.875785, 17.1011, 0.32443, -0.475785, 17.1011, 0.32443, 0.524215, 17.5011, 0.32443, 0.924214, 18.5011, 0.32443, 1.72421, 18.5011, 0.32443, -1.67579, 17.5011, 0.32443, -0.875785, 17.1011, 0.32443, -0.475785, 13.7011, 0.32443, -0.475785, 13.7011, 0.32443, 0.524215, 17.1011, 0.32443, 0.524215, -7.79892, 3.57443, 0.624215, -7.79892, 3.57443, -0.575786, -11.6989, 3.57443, -0.575786, -11.6989, 3.57443, 0.624215, 11.4011, 3.57443, 1.82421, 12.6011, 3.57443, 1.82421, 12.6011, 3.57443, 1.02421, 11.4011, 3.57443, 1.82421, 12.6011, 3.57443, 1.02421, 13.0011, 3.57443, 0.624215, 11.4011, 3.57443, -0.575786, 13.0011, 3.57443, 0.624215, 16.2011, 3.57443, 0.624215, 16.2011, 3.57443, -0.575786, 11.4011, 3.57443, -0.575786, 12.9011, 0.32443, 0.524215, 13.7011, 0.32443, 0.524215, 13.7011, 0.32443, -0.475785, 12.9011, 0.32443, 0.524215, 13.7011, 0.32443, -0.475785, 11.8011, 0.32443, -0.475785, 11.5011, 0.32443, -0.175785, 12.5011, 0.32443, 0.924214, 11.5011, 0.32443, 4.32421, 12.5011, 0.32443, 4.32421, 12.5011, 0.32443, 0.924214, 11.5011, 0.32443, -0.175785, -4.29892, 0.32443, 6.52422, -4.29892, 0.32443, 5.52422, -5.09892, 0.32443, 5.52422, -6.09892, 0.32443, 6.52422, -4.29892, 0.32443, 6.52422, -5.09892, 0.32443, 5.52422, -5.49892, 0.32443, 5.12421, -6.49892, 0.32443, 6.12421, -5.49892, 0.32443, 5.12421, -5.49892, 0.32443, 1.72421, -6.49892, 0.32443, 1.72421, -6.49892, 0.32443, 6.12421, 17.5011, 0.32443, 10.3242, 18.5011, 0.32443, 10.3242, 18.5011, 0.32443, 1.72421, 17.5011, 0.32443, 1.72421, -4.19892, 3.57443, 6.62421, -4.19892, 3.57443, 5.42422, -4.99892, 3.57443, 5.42422, -4.19892, 3.57443, 6.62421, -4.99892, 3.57443, 5.42422, -5.39892, 3.57443, 5.02422, -6.59892, 3.57443, 6.62421, -5.39892, 3.57443, 5.02422, -5.39892, 3.57443, 1.82421, -6.59892, 3.57443, 1.82421, -6.59892, 3.57443, 6.62421, 11.4011, 3.57443, 7.02422, 11.4011, 3.57443, 7.82421, 12.6011, 3.57443, 7.82421, 10.9011, 3.57443, 5.42422, 10.9011, 3.57443, 6.62421, 11.4011, 3.57443, 7.02422, 12.6011, 3.57443, 7.82421, 11.4011, 3.57443, 5.02422, 12.6011, 3.57443, 1.82421, 11.4011, 3.57443, 1.82421, 11.4011, 3.57443, 5.02422, 12.6011, 3.57443, 7.82421, 17.4011, 3.57443, 10.2242, 18.6011, 3.57443, 10.2242, 18.6011, 3.57443, 1.82421, 17.4011, 3.57443, 1.82421, -31.9989, -1.17557, 19.7242, -26.9989, 0.57443, 19.7242, -27.7989, 1.32443, 17.6242, -29.3739, 1.07443, 18.4117, -27.7989, 1.32443, 5.42422, -26.9989, 0.32443, 3.22421, -31.9989, -1.17557, 3.22421, -31.9989, -1.17557, 19.7242, -27.7989, 1.32443, 17.6242, -27.6989, 1.57443, 17.0242, -37.6989, -1.17557, 14.3242, -29.3739, 1.07443, 18.4117, -33.2545, 1.57443, 15.5242, -30.4068, 1.07443, 18.0153, -31.6029, 1.57443, 16.8338, -27.6989, 1.57443, 6.02422, -27.7989, 1.32443, 5.42422, -31.9989, -1.17557, 3.22421, -37.6989, -1.17557, 8.62421, -33.2545, 1.57443, 7.46866, -31.6028, 1.57443, 6.01772, -27.2989, 1.82443, 6.12421, -27.6989, 1.57443, 6.02422, -37.6989, -1.17557, 8.62421, -37.6989, -1.17557, 14.3242, -27.6989, 1.57443, 17.0242, -27.2989, 1.82443, 16.9242, -33.2545, 1.57443, 7.46866, -33.2545, 1.57443, 15.5242, -34.0069, 1.57443, 8.43135, -34.6021, 1.32443, 14.4169, -9.79892, 2.32443, 19.7242, -9.19892, 2.32443, 19.1242, -9.29892, 2.32443, 11.5242, -17.8989, 2.57443, 19.7242, -9.29892, 2.32443, 11.5242, -9.19892, 2.07443, 3.92422, -9.89892, 2.32443, 3.22421, -17.8989, 2.57443, 3.22421, -25.8989, 2.82443, 3.22421, -26.6989, 2.32443, 5.62421, -26.1489, 2.82443, 5.47421, -26.8989, 2.07443, 17.0242, -25.8989, 2.82443, 19.7242, -17.8989, 2.57443, 19.7242, -25.7739, 2.82443, 17.3617, -17.8989, 2.57443, 3.22421, -26.6989, 2.32443, 5.62421, -26.8989, 2.07443, 6.02422, -25.7739, 2.82443, 5.67422, -26.1489, 2.82443, 5.47421, -27.2989, 1.82443, 6.12421, -27.2989, 1.82443, 16.9242, -26.8989, 2.07443, 17.0242, -26.8989, 2.07443, 6.02422, -9.29892, 2.32443, 11.5242, -9.89892, 2.32443, 3.22421, -17.8989, 2.57443, 3.22421, -26.8989, 2.07443, 6.02422, -26.8989, 2.07443, 17.0242, -17.8989, 2.57443, 19.7242, -25.7739, 2.82443, 5.67422, -25.7739, 2.82443, 17.3617, -26.2087, 2.82443, 15.6266, -26.2025, 2.82443, 6.62141, -31.1989, -4.17557, 3.52422, -31.0989, -4.42557, 3.92422, -30.4989, -4.92557, 4.42422, -27.8989, -4.92557, 4.22421, -26.5989, -4.17557, 3.52422, -27.8989, -4.92557, 4.22421, -26.5989, -4.92557, 4.22421, -26.5989, -4.17557, 3.52422, -30.4989, -4.92557, 4.42422, -30.2989, -4.92557, 4.92422, -28.2989, -4.67557, 4.72421, -27.8989, -4.92557, 4.22421, -26.8989, -3.92557, 5.22421, -26.8989, -3.92557, 7.02422, -25.9989, -3.67557, 7.02422, -25.9989, -3.67557, 5.22421, -17.4989, -3.67557, 9.92422, -16.6989, -3.67557, 9.92422, -16.6989, -3.67557, 3.52422, -25.6989, -3.67557, 5.02422, -25.9989, -3.67557, 5.22421, -25.9989, -3.67557, 7.02422, -25.5989, -3.67557, 7.42422, -25.5989, -3.67557, 3.52422, -25.5989, -3.67557, 7.42422, -25.2989, -3.42557, 10.4242, -17.8989, -3.67557, 10.4242, -17.4989, -3.67557, 9.92422, -16.6989, -3.67557, 3.52422, -25.5989, -3.67557, 7.42422, -25.5989, -3.67557, 10.0242, -25.3989, -3.67557, 10.0242, -25.5989, -3.67557, 7.42422, -25.3989, -3.67557, 10.0242, -25.2989, -3.42557, 10.4242, -25.5989, -3.67557, 3.52422, -25.6989, -3.67557, 5.02422, -25.5989, -3.67557, 7.42422, -9.49892, -3.67557, 5.02422, -9.59892, -3.67557, 4.02422, -10.0989, -3.67557, 3.52422, -9.09892, -3.67557, 6.72421, -9.09892, -3.67557, 5.22421, -9.49892, -3.67557, 5.02422, -9.59892, -3.67557, 7.12421, -9.09892, -3.67557, 6.72421, -9.49892, -3.67557, 5.02422, -10.0989, -3.67557, 3.52422, -9.59892, -3.67557, 9.92422, -9.59892, -3.67557, 7.12421, -10.0989, -3.67557, 3.52422, -16.6989, -3.67557, 3.52422, -16.6989, -3.67557, 9.92422, 0.601082, 3.57443, 4.22421, -0.598915, 3.57443, 4.22421, -0.598915, 3.57443, 5.02422, 0.601082, 3.57443, 6.62421, 0.601082, 3.57443, 4.22421, -0.598915, 3.57443, 5.02422, -0.998917, 3.57443, 5.42422, -0.998917, 3.57443, 5.42422, -4.19892, 3.57443, 5.42422, -4.19892, 3.57443, 6.62421, 0.601082, 3.57443, 6.62421, 0.501083, 0.32443, 4.32421, -0.498917, 0.32443, 4.32421, -0.498917, 0.32443, 5.12421, 0.501083, 0.32443, 6.12421, 0.501083, 0.32443, 4.32421, -0.498917, 0.32443, 5.12421, -0.898918, 0.32443, 5.52422, 0.101082, 0.32443, 6.52422, -0.898918, 0.32443, 5.52422, -4.29892, 0.32443, 5.52422, -4.29892, 0.32443, 6.52422, 0.101082, 0.32443, 6.52422, 11.5011, 0.32443, 6.92422, 11.5011, 0.32443, 7.72421, 12.5011, 0.32443, 7.72421, 12.5011, 0.32443, 4.32421, 11.5011, 0.32443, 4.32421, 11.5011, 0.32443, 5.12421, 11.3011, 0.32443, 5.42422, 11.3011, 0.32443, 6.62421, 11.5011, 0.32443, 6.92422, 12.5011, 0.32443, 7.72421, 12.5011, 0.32443, 4.32421, 11.5011, 0.32443, 5.12421, 11.3011, 0.32443, 5.42422, 9.60108, 0.32443, 5.52422, 9.60108, 0.32443, 6.52422, 11.3011, 0.32443, 6.62421, -36.5989, -3.67557, 10.5242, -35.9989, -3.92557, 10.5242, -35.8989, -3.92557, 9.52422, -36.5989, -3.42557, 8.92422, -31.2989, -3.92557, 5.22421, -31.7989, -3.67557, 4.52422, -33.1989, -3.42557, 5.62421, -36.5989, -3.42557, 8.92422, -35.8989, -3.92557, 9.52422, -26.8989, -4.92557, 8.32421, -26.5989, -4.92557, 8.52422, -26.5989, -4.92557, 8.02422, -26.8989, -4.92557, 8.32421, -26.5989, -4.92557, 8.02422, -27.8989, -4.92557, 8.02422, -29.2989, -4.92557, 8.32421, -30.3989, -4.92557, 5.72421, -31.3989, -4.92557, 6.62421, -30.8989, -4.92557, 6.82421, -30.6989, -4.92557, 8.12421, -29.6989, -4.92557, 8.62421, -29.2989, -4.92557, 8.32421, -30.5989, -4.92557, 7.22421, -28.2989, -4.67557, 7.22421, -27.9989, -4.67557, 5.32421, -28.2989, -4.67557, 5.02422, -30.3989, -4.92557, 5.72421, -30.5989, -4.92557, 7.22421, -29.2989, -4.92557, 8.32421, -29.2989, -4.92557, 8.32421, -27.8989, -4.92557, 8.02422, -28.2989, -4.92557, 7.62421, -29.2989, -4.92557, 8.32421, -28.2989, -4.92557, 7.62421, -28.2989, -4.67557, 7.22421, -30.3989, -4.92557, 5.72421, -30.8989, -4.92557, 6.82421, -30.5989, -4.92557, 7.22421, -28.2989, -4.67557, 7.22421, -27.9989, -4.67557, 6.92422, -27.9989, -4.67557, 5.32421, -28.2989, -4.67557, 5.02422, -28.2989, -4.67557, 4.72421, -30.2989, -4.92557, 4.92422, -30.3989, -4.92557, 5.72421, -27.9989, -4.67557, 6.92422, -26.8989, -3.92557, 7.02422, -26.8989, -3.92557, 5.22421, -27.9989, -4.67557, 5.32421, -2.69892, -3.67557, 5.52422, -2.69892, -3.67557, 6.52422, -1.89892, -3.67557, 6.52422, -1.89892, -3.67557, 5.52422, -1.59892, -3.67557, 5.22421, -1.89892, -3.67557, 6.52422, -0.998917, -3.67557, 6.82421, 7.50108, 0.32443, 6.82421, 6.90108, 0.0744295, 5.12421, 0.201084, -3.67557, 5.12421, 1.26775, -3.17557, 6.82421, 9.60108, 0.32443, 6.52422, 9.60108, 0.32443, 5.52422, 8.80108, 0.32443, 5.52422, -1.59892, -3.67557, 5.22421, -1.89892, -3.67557, 5.52422, -1.89892, -3.67557, 6.52422, 9.60108, 0.32443, 6.52422, 8.80108, 0.32443, 5.52422, 8.50108, 0.32443, 5.22421, 6.90108, 0.0744295, 5.12421, 7.50108, 0.32443, 6.82421, 10.9011, 3.57443, 6.62421, 10.9011, 3.57443, 5.42422, 2.30108, 1.32443, 5.32421, 2.30108, 1.32443, 6.72421, 6.31442, 3.57443, 6.67755, 6.31442, 3.57443, 5.37088, -5.49892, -3.67557, 7.72421, -4.49892, -3.67557, 7.72421, -4.49892, -3.67557, 6.92422, -5.49892, -3.67557, 6.92422, -7.79892, -3.67557, 5.52422, -7.89892, -3.67557, 6.52422, -5.89892, -3.67557, 6.52422, -5.49892, -3.67557, 6.92422, -4.49892, -3.67557, 6.92422, -4.29892, -3.67557, 6.62421, -5.89892, -3.67557, 6.52422, -4.29892, -3.67557, 6.62421, -2.69892, -3.67557, 6.52422, -2.69892, -3.67557, 5.52422, -7.79892, -3.67557, 5.52422, -5.89892, -3.67557, 6.52422, -32.2989, -4.92557, 8.32421, -32.4989, -4.92557, 7.62421, -33.4989, -4.92557, 8.62421, -32.5989, -4.92557, 9.12421, -31.9989, -4.92557, 8.52422, -32.5989, -4.92557, 9.12421, -32.5989, -4.92557, 9.82421, -30.7989, -4.92557, 10.1242, -29.6989, -4.92557, 8.62421, -30.9989, -4.92557, 8.42422, -31.9989, -4.92557, 8.52422, -32.2989, -4.92557, 8.32421, -32.5989, -4.92557, 9.12421, -29.6989, -4.92557, 8.62421, -30.6989, -4.92557, 8.12421, -30.9989, -4.92557, 8.42422, -5.49892, -3.67557, 22.3242, -4.49892, -3.67557, 22.3242, -4.49892, -3.67557, 15.0242, -5.49892, -3.67557, 15.0242, -5.49892, -3.67557, 7.72421, -5.49892, -3.67557, 15.0242, -4.49892, -3.67557, 15.0242, -4.49892, -3.67557, 7.72421, 13.7011, 0.32443, 12.5242, 13.7011, 0.32443, 11.5242, 12.9011, 0.32443, 11.5242, 11.1011, 0.32443, 11.5242, 10.3011, 0.32443, 11.5242, 10.3011, 0.32443, 12.5242, 10.3011, 0.32443, 12.5242, 13.7011, 0.32443, 12.5242, 12.9011, 0.32443, 11.5242, 12.5011, 0.32443, 11.1242, 11.5011, 0.32443, 11.1242, 11.1011, 0.32443, 11.5242, 12.5011, 0.32443, 11.1242, 12.5011, 0.32443, 7.72421, 11.5011, 0.32443, 7.72421, 11.5011, 0.32443, 11.1242, 11.0011, 3.57443, 11.4242, 10.2011, 3.57443, 11.4242, 10.2011, 3.57443, 12.6242, 11.4011, 3.57443, 11.0242, 11.0011, 3.57443, 11.4242, 10.2011, 3.57443, 12.6242, 13.0011, 3.57443, 11.4242, 12.7011, 3.57443, 11.2242, 16.2011, 3.57443, 12.6242, 16.2011, 3.57443, 11.4242, 13.0011, 3.57443, 11.4242, 10.2011, 3.57443, 12.6242, 11.4011, 3.57443, 11.0242, 12.7011, 3.57443, 11.2242, 12.6011, 3.57443, 7.82421, 11.4011, 3.57443, 7.82421, -5.59892, -0.42557, 17.5242, -4.79892, -0.42557, 17.5242, -4.79892, -0.42557, 16.7242, -5.59892, -0.42557, 8.32421, -4.39892, -0.42557, 16.4242, -4.39892, -0.42557, 8.32421, -5.59892, -0.42557, 8.32421, -4.79892, -0.42557, 16.7242, -27.5989, -4.92557, 12.3242, -27.1989, -4.92557, 12.0242, -27.1989, -4.92557, 10.9242, -27.5989, -4.92557, 10.6242, -29.7989, -4.92557, 10.6242, -29.7989, -4.92557, 12.3242, -28.8989, -4.92557, 13.5242, -27.5989, -4.92557, 12.3242, -27.5989, -4.92557, 10.6242, -28.8989, -4.92557, 9.42422, -28.8989, -4.92557, 13.5242, -27.5989, -4.92557, 13.5242, -27.5989, -4.92557, 12.3242, -27.5989, -4.92557, 10.6242, -27.5989, -4.92557, 9.42422, -28.8989, -4.92557, 9.42422, -34.4989, -4.92557, 10.0242, -34.3989, -4.92557, 9.52422, -34.9989, -4.92557, 10.0242, -34.2989, -4.92557, 10.3242, -34.4989, -4.92557, 10.0242, -34.9989, -4.92557, 10.0242, -34.9989, -4.92557, 13.0242, -34.4989, -4.92557, 13.5242, -34.2989, -4.92557, 13.5242, -34.9989, -4.92557, 13.0242, -34.2989, -4.92557, 13.5242, -33.7989, -4.92557, 12.9242, -33.6989, -4.92557, 10.6242, -34.2989, -4.92557, 10.3242, -34.9989, -4.92557, 10.0242, -33.6989, -4.92557, 10.6242, -33.7989, -4.92557, 12.9242, -33.2989, -4.92557, 12.9242, -33.1989, -4.92557, 10.6242, -30.7989, -4.92557, 10.1242, -32.5989, -4.92557, 9.82421, -32.7989, -4.92557, 10.3242, -30.7989, -4.92557, 10.1242, -32.7989, -4.92557, 10.3242, -33.1989, -4.92557, 10.6242, -33.2989, -4.92557, 12.9242, -32.7989, -4.92557, 13.3242, -30.7989, -4.92557, 12.8242, -27.7989, -2.67557, 9.72421, -27.4989, -2.67557, 10.0242, -27.4989, -2.67557, 9.72421, 16.2011, 3.57443, 11.4242, 16.2011, 3.57443, 12.6242, 17.0011, 3.57443, 12.6242, 17.2011, 3.57443, 11.3242, 17.4011, 3.57443, 13.0242, 17.3011, 3.57443, 16.2242, 18.7011, 3.57443, 16.2242, 18.6011, 3.57443, 10.2242, 18.6011, 3.57443, 10.2242, 17.4011, 3.57443, 10.2242, 17.4011, 3.57443, 11.0242, 17.4011, 3.57443, 11.0242, 17.2011, 3.57443, 11.3242, 17.0011, 3.57443, 12.6242, 17.4011, 3.57443, 13.0242, 18.6011, 3.57443, 10.2242, 17.5011, 0.32443, 15.1242, 17.3011, 0.32443, 15.4242, 18.7011, 0.32443, 15.4242, 18.5011, 0.32443, 15.1242, 17.1011, 0.32443, 11.5242, 13.7011, 0.32443, 11.5242, 13.7011, 0.32443, 12.5242, 17.3011, 0.32443, 12.6242, 18.5011, 0.32443, 10.3242, 17.5011, 0.32443, 10.3242, 17.5011, 0.32443, 11.1242, 18.5011, 0.32443, 10.3242, 17.5011, 0.32443, 11.1242, 17.1011, 0.32443, 11.5242, 17.5011, 0.32443, 12.9242, 18.5011, 0.32443, 15.1242, 17.5011, 0.32443, 12.9242, 17.5011, 0.32443, 15.1242, 18.5011, 0.32443, 15.1242, 17.3011, 0.32443, 12.6242, 17.5011, 0.32443, 12.9242, 17.1011, 0.32443, 11.5242, -27.0989, -2.67557, 10.9242, -27.4989, -2.67557, 10.5242, -27.4989, -2.67557, 10.7242, -27.0989, -2.67557, 10.9242, -27.4989, -2.67557, 10.7242, -28.1989, -2.67557, 11.3242, -27.4989, -2.67557, 12.2242, -27.0989, -2.67557, 12.0242, -25.5989, -3.42557, 10.9242, -27.0989, -2.67557, 10.9242, -27.0989, -2.67557, 12.0242, -25.5989, -3.42557, 12.0242, -25.5989, -3.42557, 12.0242, -25.2989, -3.42557, 12.5242, -17.8989, -3.67557, 12.5242, -17.8989, -3.67557, 10.4242, -25.2989, -3.42557, 10.4242, -25.5989, -3.42557, 10.9242, -31.9989, -3.42557, 18.5242, -31.7989, -3.67557, 18.5242, -31.2989, -3.92557, 17.8242, -35.8989, -3.92557, 13.5242, -36.5989, -3.42557, 14.1242, -35.8989, -3.92557, 13.5242, -35.9989, -3.92557, 10.5242, -36.5989, -3.67557, 10.5242, -36.5989, -3.42557, 14.1242, -29.4989, -2.67557, 10.7242, -29.4989, -2.67557, 12.0242, -28.6989, -2.67557, 11.4242, -16.7989, -3.67557, 11.0242, -16.7989, -3.67557, 11.5242, -9.59892, -3.67557, 11.5242, -9.59892, -3.67557, 11.0242, 1.00108, 3.57443, 12.6242, 1.80108, 3.57443, 12.6242, 1.80108, 3.57443, 11.4242, 0.601082, 3.57443, 13.0242, 1.00108, 3.57443, 12.6242, 1.80108, 3.57443, 11.4242, -0.598915, 3.57443, 11.4242, -0.698917, 3.57443, 16.3242, 0.701084, 3.57443, 16.3242, 0.601082, 3.57443, 13.0242, -0.598915, 3.57443, 11.4242, 1.80108, 3.57443, 12.6242, 10.2011, 3.57443, 12.6242, 10.2011, 3.57443, 11.4242, 1.80108, 3.57443, 11.4242, -0.498917, 0.32443, 15.1242, -0.698917, 0.32443, 15.4242, 0.701084, 0.32443, 15.4242, 0.501083, 0.32443, 15.1242, -0.498917, 0.32443, 15.1242, 0.501083, 0.32443, 15.1242, 0.501083, 0.32443, 12.9242, -0.498917, 0.32443, 11.8242, 0.901085, 0.32443, 12.5242, 1.70108, 0.32443, 12.5242, 1.70108, 0.32443, 11.5242, 0.901085, 0.32443, 12.5242, 1.70108, 0.32443, 11.5242, -0.198917, 0.32443, 11.5242, -0.498917, 0.32443, 11.8242, 0.501083, 0.32443, 12.9242, 1.70108, 0.32443, 12.5242, 10.3011, 0.32443, 12.5242, 10.3011, 0.32443, 11.5242, 1.70108, 0.32443, 11.5242, -16.9989, -3.67557, 14.4242, -16.8989, -3.67557, 13.7242, -17.3989, -3.67557, 13.7242, -16.4989, -3.67557, 16.0242, -16.0989, -3.67557, 15.9242, -16.0989, -3.67557, 15.1242, -16.7989, -3.67557, 14.9242, -25.3989, -3.67557, 12.9242, -25.5989, -3.67557, 12.9242, -25.5989, -3.67557, 19.4242, -16.9989, -3.67557, 14.4242, -17.3989, -3.67557, 13.7242, -17.7989, -3.67557, 13.4242, -16.9989, -3.67557, 16.5242, -16.4989, -3.67557, 16.0242, -16.7989, -3.67557, 14.9242, -16.9989, -3.67557, 14.4242, -17.7989, -3.67557, 13.4242, -19.5989, -3.67557, 17.3242, -25.5989, -3.67557, 19.4242, -24.1989, -3.67557, 19.4242, -20.0989, -3.67557, 17.5242, -17.8989, -3.67557, 12.5242, -25.2989, -3.42557, 12.5242, -25.3989, -3.67557, 12.9242, -24.1989, -3.67557, 19.4242, -23.7989, -3.67557, 19.9242, -22.1989, -3.67557, 19.9242, -21.7989, -3.67557, 19.4242, -21.7989, -3.67557, 19.4242, -20.2989, -3.67557, 19.4242, -20.2989, -3.67557, 17.8242, -20.0989, -3.67557, 17.5242, -19.5989, -3.67557, 17.3242, -17.7989, -3.67557, 13.4242, -17.8989, -3.67557, 12.5242, -21.7989, -3.67557, 19.4242, -20.2989, -3.67557, 17.8242, -20.0989, -3.67557, 17.5242, -24.1989, -3.67557, 19.4242, -19.5989, -3.67557, 17.3242, -16.9989, -3.67557, 17.3242, -16.9989, -3.67557, 16.5242, -28.0989, -2.67557, 13.1242, -27.4989, -2.67557, 13.2242, -27.4989, -2.67557, 12.7242, -32.5989, -4.92557, 15.3242, -32.0989, -4.92557, 15.6242, -31.8989, -4.92557, 15.1242, -32.9989, -4.92557, 14.9242, -32.5989, -4.92557, 15.3242, -31.8989, -4.92557, 15.1242, -31.4989, -4.92557, 14.8242, -32.4989, -4.92557, 14.1242, -32.4989, -4.92557, 13.6242, -32.4989, -4.92557, 14.1242, -31.4989, -4.92557, 14.8242, -31.0989, -4.92557, 14.8242, -31.0989, -4.92557, 14.8242, -30.3989, -4.92557, 15.3242, -29.4989, -4.92557, 14.5242, -30.7989, -4.92557, 12.8242, -32.7989, -4.92557, 13.3242, -32.4989, -4.92557, 13.6242, -11.5989, -3.67557, 13.7242, -11.5989, -3.67557, 13.9242, -11.3989, -3.67557, 13.9242, -11.3989, -3.67557, 13.7242, -9.59892, -3.67557, 13.7242, -9.79892, -3.67557, 13.7242, -9.69892, -3.67557, 14.3242, -11.8989, -3.67557, 16.0242, -11.6989, -3.67557, 16.4242, -11.1989, -3.67557, 16.0242, -11.2989, -3.67557, 14.9242, -11.4989, -3.67557, 14.5242, -11.9989, -3.67557, 15.0242, -9.69892, -3.67557, 14.3242, -9.89892, -3.67557, 14.8242, -10.1989, -3.67557, 16.0242, -9.69892, -3.67557, 16.6242, -13.1989, -3.67557, 14.8242, -13.2989, -3.67557, 14.4242, -13.8989, -3.67557, 15.1242, -15.5989, -3.67557, 16.0242, -15.1989, -3.67557, 16.5242, -14.5989, -3.67557, 15.9242, -14.3989, -3.67557, 15.1242, -15.2989, -3.67557, 14.7242, -15.5989, -3.67557, 15.0242, -14.0989, -3.67557, 15.9242, -13.3989, -3.67557, 16.5242, -13.0989, -3.67557, 16.1242, -16.0989, -3.67557, 15.1242, -16.0989, -3.67557, 15.9242, -15.5989, -3.67557, 16.0242, -15.5989, -3.67557, 15.0242, -11.9989, -3.67557, 15.0242, -12.7989, -3.67557, 15.1242, -12.5989, -3.67557, 15.9242, -11.8989, -3.67557, 16.0242, -12.7989, -3.67557, 15.1242, -13.1989, -3.67557, 14.8242, -13.8989, -3.67557, 15.1242, -14.0989, -3.67557, 15.9242, -13.0989, -3.67557, 16.1242, -12.5989, -3.67557, 15.9242, -9.89892, -3.67557, 14.8242, -10.2989, -3.67557, 15.2242, -10.1989, -3.67557, 16.0242, -11.1989, -3.67557, 16.0242, -10.1989, -3.67557, 16.0242, -10.2989, -3.67557, 15.2242, -11.2989, -3.67557, 14.9242, -9.69892, -3.67557, 16.6242, -9.59892, -3.67557, 17.3242, -9.59892, -3.67557, 13.7242, -9.69892, -3.67557, 14.3242, -14.3989, -3.67557, 15.1242, -14.5989, -3.67557, 15.9242, -14.0989, -3.67557, 15.9242, -13.8989, -3.67557, 15.1242, -30.2989, -4.92557, 16.0242, -30.8989, -4.92557, 16.9242, -30.5989, -4.92557, 17.0242, -30.2989, -4.92557, 18.2242, -31.0989, -4.42557, 19.1242, -31.0989, -4.17557, 19.4242, -26.5989, -4.17557, 19.4242, -28.7132, -4.92557, 18.7385, -30.2989, -4.92557, 16.0242, -30.5989, -4.92557, 17.0242, -30.2989, -4.92557, 17.5242, -29.4989, -4.92557, 14.5242, -29.4989, -4.92557, 14.5242, -30.3989, -4.92557, 15.3242, -30.2989, -4.92557, 16.0242, -26.5989, -4.17557, 19.4242, -26.5989, -4.92557, 14.4242, -26.8989, -4.92557, 14.6242, -26.6656, -4.92557, 18.3575, -26.5989, -4.92557, 18.3131, -29.4989, -4.92557, 14.5242, -30.2989, -4.92557, 17.5242, -30.2989, -4.92557, 18.2242, -26.5989, -4.17557, 19.4242, -26.8989, -4.92557, 14.6242, -28.7132, -4.92557, 18.7385, -26.6656, -4.92557, 18.3575, 0.801083, 0.32443, 17.2242, 0.801083, 0.32443, 16.6242, -0.798916, 0.32443, 16.6242, -0.798916, 0.32443, 17.2242, -1.19892, 0.32443, 17.6242, -3.49892, 0.32443, 17.6242, -3.49892, 0.32443, 19.4242, 0.801083, 0.32443, 17.2242, -0.798916, 0.32443, 17.2242, -1.19892, 0.32443, 17.6242, 1.30108, 0.32443, 19.4242, 1.30108, 0.32443, 17.6242, 0.801083, 0.32443, 17.2242, -1.19892, 0.32443, 17.6242, -3.49892, 0.32443, 19.4242, 18.8011, 0.32443, 17.2242, 18.8011, 0.32443, 16.6242, 17.2011, 0.32443, 16.6242, 17.2011, 0.32443, 17.2242, 17.0011, 0.32443, 17.5242, 16.0011, 0.32443, 17.6242, 16.0011, 0.32443, 19.6242, 19.3011, 0.32443, 19.6242, 19.3011, 0.32443, 17.6242, 18.8011, 0.32443, 17.2242, 17.2011, 0.32443, 17.2242, 17.0011, 0.32443, 17.5242, 19.3011, 0.32443, 17.6242, 13.4011, 4.82443, 17.3242, 13.4011, 5.07443, 19.3242, 17.6011, 4.82443, 19.4242, 22.3011, 4.57443, 19.2242, 22.3011, 4.57443, 17.2242, 22.3011, 4.57443, 17.2242, 22.3011, 4.57443, 19.2242, 22.6011, 4.57443, 19.3242, 23.3011, 4.57443, 17.2242, 22.3011, 4.57443, 17.2242, 22.6011, 4.57443, 19.3242, 28.6011, 4.57443, 25.3242, 30.7011, 4.57443, 24.6242, 28.6011, 4.57443, 25.3242, 28.7011, 4.57443, 26.3242, 30.7011, 4.57443, 26.3242, 30.7011, 4.57443, 24.6242, 12.7011, 5.32443, 19.6242, 13.4011, 5.07443, 19.3242, 13.4011, 4.82443, 17.3242, 4.80108, 4.57443, 17.3242, 2.80108, 4.82443, 19.7242, 9.50108, 5.07443, 19.7242, -3.79892, 4.57443, 17.3242, -3.79892, 4.57443, 19.7242, 2.80108, 4.82443, 19.7242, 4.80108, 4.57443, 17.3242, -4.39892, -0.42557, 22.2242, -4.39892, -0.42557, 20.6242, -4.79892, -0.42557, 20.3242, -5.59892, -0.42557, 22.2242, -4.79892, -0.42557, 20.3242, -4.79892, -0.42557, 17.5242, -5.59892, -0.42557, 17.5242, -5.59892, -0.42557, 22.2242, 14.0011, 0.32443, 19.4242, 14.3011, 0.32443, 19.6242, 16.0011, 0.32443, 19.6242, 16.0011, 0.32443, 17.6242, 7.60108, 0.32443, 19.4242, 8.60108, 0.32443, 17.6242, 1.30108, 0.32443, 17.6242, 1.30108, 0.32443, 19.4242, 14.0011, 0.32443, 19.4242, 16.0011, 0.32443, 17.6242, 8.60108, 0.32443, 17.6242, 7.60108, 0.32443, 19.4242, 28.6011, 0.32443, 25.8242, 28.6011, 0.32443, 26.6242, 30.4011, 0.32443, 26.6242, 28.6011, 0.32443, 25.8242, 30.4011, 0.32443, 26.6242, 30.4011, 0.32443, 24.8242, 28.4011, 0.32443, 25.4242, 23.2011, 0.32443, 17.6242, 22.3011, 0.32443, 19.5242, 22.7011, 0.32443, 19.7242, 19.3011, 0.32443, 17.6242, 19.3011, 0.32443, 19.6242, 22.3011, 0.32443, 19.5242, 23.2011, 0.32443, 17.6242, 22.7011, 0.32443, 19.7242, 28.4011, 0.32443, 25.4242, 30.4011, 0.32443, 24.8242, 23.2011, 0.32443, 17.6242, 5.50108, 20.5744, 28.8242, 5.50108, 20.5744, 31.1242, 7.90108, 20.5744, 31.1242, 7.90108, 20.5744, 28.8242, 27.7011, 20.5744, 25.8242, 22.1011, 20.5744, 20.2242, 13.9011, 20.5744, 20.2242, 8.20108, 20.5744, 28.6242, 7.90108, 20.5744, 28.8242, 7.90108, 20.5744, 31.1242, 8.20108, 20.5744, 31.3242, 8.30108, 20.5744, 34.1242, 13.9011, 20.5744, 39.7242, 22.1011, 20.5744, 39.7242, 8.30108, 20.5744, 25.8242, 8.20108, 20.5744, 28.6242, 8.20108, 20.5744, 31.3242, 8.30108, 20.5744, 34.1242, 8.30108, 20.5744, 34.1242, 22.1011, 20.5744, 39.7242, 27.7011, 20.5744, 34.1242, 27.7011, 20.5744, 25.8242, 13.9011, 20.5744, 20.2242, 8.30108, 20.5744, 25.8242, -21.1989, -0.42557, 24.6242, -21.1989, -0.42557, 23.4242, -21.9989, -0.42557, 23.4242, -21.1989, -0.42557, 24.6242, -21.9989, -0.42557, 23.4242, -22.3989, -0.42557, 23.0242, -23.5989, -0.42557, 24.6242, -22.3989, -0.42557, 23.0242, -22.2989, -0.42557, 20.7242, -23.6989, -0.42557, 20.7242, -23.5989, -0.42557, 24.6242, 15.6011, 0.32443, 24.6242, 16.6011, 0.32443, 24.5242, 16.6011, 0.32443, 20.7242, 8.60108, 0.32443, 28.2242, 12.5011, 0.32443, 28.3242, 12.6011, 0.32443, 27.6242, 15.6011, 0.32443, 24.6242, 16.6011, 0.32443, 20.7242, 13.9011, 0.32443, 20.7242, 8.60108, 0.32443, 26.0242, 8.60108, 0.32443, 28.2242, 12.6011, 0.32443, 27.6242, 20.5011, 4.32443, 22.3242, 21.1011, 4.32443, 20.9242, 21.1011, 4.32443, 20.7242, 14.9011, 4.32443, 20.7242, 15.5011, 4.32443, 22.3242, 20.5011, 9.32443, 22.3242, 21.1011, 9.32443, 20.9242, 21.1011, 9.32443, 20.7242, 14.9011, 9.32443, 20.7242, 15.5011, 9.32443, 22.3242, 20.5011, 14.3244, 22.3242, 21.1011, 14.3244, 20.9242, 21.1011, 14.3244, 20.7242, 14.9011, 14.3244, 20.7242, 15.5011, 14.3244, 22.3242, 16.6011, 0.32443, 24.5242, 19.4011, 0.32443, 24.5242, 19.4011, 0.32443, 20.7242, 16.6011, 0.32443, 20.7242, 19.4011, 0.32443, 20.7242, 19.4011, 0.32443, 24.5242, 20.4011, 0.32443, 24.6242, 23.4011, 0.32443, 27.6242, 23.5011, 0.32443, 28.4242, 27.4011, 0.32443, 28.3242, 22.0011, 0.32443, 20.7242, 19.4011, 0.32443, 20.7242, 20.4011, 0.32443, 24.6242, 23.4011, 0.32443, 27.6242, 27.4011, 0.32443, 28.3242, 27.4011, 0.32443, 26.1242, -21.2989, -3.67557, 24.5242, -21.2989, -3.67557, 23.5242, -22.0989, -3.67557, 23.5242, -23.0989, -3.67557, 24.5242, -21.2989, -3.67557, 24.5242, -22.0989, -3.67557, 23.5242, -22.3989, -3.67557, 23.3242, -23.4989, -3.67557, 24.1242, -22.3989, -3.67557, 23.3242, -22.4989, -3.67557, 21.2242, -23.4989, -3.67557, 21.2242, -23.4989, -3.67557, 24.1242, 14.3011, 4.32443, 22.9242, 13.8011, 4.32443, 21.4242, 13.6011, 4.32443, 21.3242, 9.30108, 4.32443, 25.6242, 10.9011, 4.32443, 26.3242, 14.3011, 9.32443, 22.9242, 13.8011, 9.32443, 21.4242, 13.6011, 9.32443, 21.3242, 9.30108, 9.32443, 25.6242, 10.9011, 9.32443, 26.3242, 14.3011, 14.3244, 22.9242, 13.8011, 14.3244, 21.4242, 13.6011, 14.3244, 21.3242, 9.30108, 14.3244, 25.6242, 10.9011, 14.3244, 26.3242, 22.4011, 4.32443, 21.3242, 22.2011, 4.32443, 21.4242, 21.6011, 4.32443, 22.9242, 21.6011, 4.32443, 23.2242, 24.8011, 4.32443, 26.4242, 26.7011, 4.32443, 25.7242, 22.4011, 9.32443, 21.3242, 22.2011, 9.32443, 21.4242, 21.6011, 9.32443, 22.9242, 21.6011, 9.32443, 23.2242, 24.8011, 9.32443, 26.4242, 26.7011, 9.32443, 25.7242, 22.4011, 14.3244, 21.3242, 22.2011, 14.3244, 21.4242, 21.6011, 14.3244, 22.9242, 21.6011, 14.3244, 23.2242, 24.8011, 14.3244, 26.4242, 26.7011, 14.3244, 25.7242, -4.39892, -0.42557, 22.2242, -5.59892, -0.42557, 22.2242, -5.59892, -0.42557, 23.0242, -4.39892, -0.42557, 24.6242, -4.39892, -0.42557, 22.2242, -5.59892, -0.42557, 23.0242, -5.99892, -0.42557, 23.4242, -5.99892, -0.42557, 23.4242, -9.19892, -0.42557, 23.4242, -9.19892, -0.42557, 24.6242, -4.39892, -0.42557, 24.6242, -4.49892, -3.67557, 22.3242, -5.49892, -3.67557, 22.3242, -5.49892, -3.67557, 23.1242, -4.49892, -3.67557, 24.1242, -4.49892, -3.67557, 22.3242, -5.49892, -3.67557, 23.1242, -5.89892, -3.67557, 23.5242, -4.89892, -3.67557, 24.5242, -5.89892, -3.67557, 23.5242, -9.29892, -3.67557, 23.5242, -9.29892, -3.67557, 24.5242, -4.89892, -3.67557, 24.5242, -21.1989, -0.42557, 24.6242, -12.7989, -0.42557, 24.6242, -12.7989, -0.42557, 23.4242, -21.1989, -0.42557, 23.4242, -9.99892, -0.42557, 24.6242, -9.19892, -0.42557, 24.6242, -9.19892, -0.42557, 23.4242, -12.7989, -0.42557, 23.4242, -12.7989, -0.42557, 24.6242, -11.9989, -0.42557, 24.6242, -11.9989, -0.42557, 24.6242, -11.5989, -0.42557, 25.1242, -10.3989, -0.42557, 25.1242, -9.99892, -0.42557, 24.6242, -9.19892, -0.42557, 23.4242, -12.7989, -0.42557, 23.4242, -21.2989, -3.67557, 24.5242, -12.6989, -3.67557, 24.5242, -12.6989, -3.67557, 23.5242, -21.2989, -3.67557, 23.5242, -10.0989, -3.67557, 24.5242, -9.29892, -3.67557, 24.5242, -9.29892, -3.67557, 23.5242, -12.6989, -3.67557, 23.5242, -12.6989, -3.67557, 24.5242, -11.8989, -3.67557, 24.5242, -11.5989, -3.67557, 24.7242, -10.3989, -3.67557, 24.7242, -10.0989, -3.67557, 24.5242, -9.29892, -3.67557, 23.5242, -12.6989, -3.67557, 23.5242, -11.8989, -3.67557, 24.5242, -11.5989, -3.67557, 24.7242, -11.4989, -3.67557, 26.3242, -10.4989, -3.67557, 26.3242, -10.3989, -3.67557, 24.7242, -11.6989, 3.57443, 35.5242, -11.5989, 3.57443, 45.9242, -10.3989, 3.57443, 45.9242, -10.2989, 3.57443, 35.5242, -10.3989, -0.42557, 25.1242, -11.5989, -0.42557, 25.1242, -11.6322, -0.42557, 28.5909, -10.3656, -0.42557, 28.5909, 20.5011, -9.17557, 26.6242, 20.5011, -9.17557, 26.1242, 20.0011, -9.17557, 26.1242, 20.0011, -9.17557, 26.1242, 19.8011, -9.42557, 25.9242, 18.3011, -9.67557, 25.6242, 19.4344, -9.67557, 25.9575, 20.5011, -9.17557, 26.6242, 20.0011, -9.17557, 26.1242, 18.3011, -9.67557, 25.6242, 17.2011, -9.67557, 25.7242, 18.3011, -9.17557, 29.1242, 19.4344, -9.67557, 25.9575, 18.1177, -9.67557, 28.5576, 16.3011, -9.17557, 26.1242, 15.4011, -9.42557, 26.2242, 15.3011, -9.42557, 26.6242, 15.3011, -9.42557, 26.6242, 14.3011, -9.67557, 27.6242, 13.9011, -9.67557, 28.5242, 17.3011, -9.17557, 29.2242, 16.3011, -9.17557, 26.1242, 16.7344, -9.67557, 29.1075, -11.4989, 0.32443, 37.8242, -11.4989, 0.32443, 38.6242, -10.4989, 0.32443, 38.6242, -10.4989, 0.32443, 37.8242, -10.0989, -3.67557, 29.3242, -10.1989, -3.67557, 27.4242, -11.7989, -3.67557, 27.4242, -11.8989, -3.67557, 29.3242, -11.8989, -0.17557, 35.5242, -10.0989, -0.17557, 35.5242, -10.4989, -3.67557, 27.1242, -10.4989, -3.67557, 26.3242, -11.4989, -3.67557, 26.3242, -11.4989, -3.67557, 27.1242, -10.1989, -3.67557, 27.4242, -10.4989, -3.67557, 27.1242, -11.4989, -3.67557, 27.1242, -11.7989, -3.67557, 27.4242, -11.7989, 0.32443, 37.5242, -11.4989, 0.32443, 37.8242, -10.4989, 0.32443, 37.8242, -10.1989, 0.32443, 37.5242, -10.0989, -0.17557, 35.5242, -11.8989, -0.17557, 35.5242, -11.8739, 0.32443, 36.0242, -10.1239, 0.32443, 36.0242, 28.7011, 4.57443, 33.6242, 30.7011, 4.57443, 33.6242, 30.7011, 4.57443, 26.3242, 28.7011, 4.57443, 26.3242, 28.6011, 0.32443, 33.3242, 30.4011, 0.32443, 33.3242, 30.4011, 0.32443, 26.6242, 28.6011, 0.32443, 26.6242, 8.70108, 4.32443, 26.9242, 8.70108, 4.32443, 33.1242, 10.6011, 4.32443, 32.4242, 10.6011, 4.32443, 27.6242, 8.70108, 9.32443, 26.9242, 8.70108, 9.32443, 33.1242, 10.6011, 9.32443, 32.4242, 10.6011, 9.32443, 27.6242, 8.70108, 14.3244, 26.9242, 8.70108, 14.3244, 33.1242, 10.6011, 14.3244, 32.4242, 10.6011, 14.3244, 27.6242, 25.4011, 4.32443, 27.6242, 25.4011, 4.32443, 32.4242, 27.3011, 4.32443, 33.1242, 27.3011, 4.32443, 26.9242, 25.4011, 9.32443, 27.6242, 25.4011, 9.32443, 32.4242, 27.3011, 9.32443, 33.1242, 27.3011, 9.32443, 26.9242, 25.4011, 14.3244, 27.6242, 25.4011, 14.3244, 32.4242, 27.3011, 14.3244, 33.1242, 27.3011, 14.3244, 26.9242, 22.1011, -9.17557, 30.4242, 22.3011, -9.17557, 30.4242, 22.4011, -9.42557, 29.7242, 22.0011, -9.67557, 28.2242, 21.4011, -9.67557, 27.2242, 21.2011, -9.67557, 27.2242, 22.1011, -9.17557, 30.4242, 22.4011, -9.42557, 29.7242, 22.0011, -9.67557, 28.2242, 21.2011, -9.67557, 27.2242, 19.1011, -9.42557, 29.7242, 19.3011, -9.17557, 29.9242, 20.6051, -9.67557, 28.8186, 8.20108, 0.32443, 29.1242, 5.80108, 0.57443, 29.1242, 5.80108, 0.57443, 30.8242, 8.20108, 0.32443, 30.8242, 8.20108, 0.32443, 30.8242, 8.60108, 0.32443, 31.2242, 12.5011, 0.32443, 31.6242, 12.5011, 0.32443, 28.3242, 8.60108, 0.32443, 28.7242, 8.20108, 0.32443, 29.1242, 12.5011, 0.32443, 28.3242, 8.60108, 0.32443, 28.2242, 8.60108, 0.32443, 28.7242, 8.60108, 0.32443, 31.2242, 8.60108, 0.32443, 31.7242, 12.5011, 0.32443, 31.6242, 23.5011, 0.32443, 28.4242, 23.5011, 0.32443, 31.6242, 27.4011, 0.32443, 31.7242, 27.4011, 0.32443, 28.3242, 17.5011, -9.17557, 29.9242, 17.5011, -9.17557, 30.2242, 17.7011, -9.17557, 30.2242, 17.6011, -9.17557, 29.5242, 18.5011, -9.17557, 30.1242, 18.5011, -9.17557, 29.8242, 18.3011, -9.17557, 29.8242, 18.4011, -9.17557, 30.5242, 17.7011, -9.17557, 30.2242, 17.8011, -9.17557, 30.5242, 18.4011, -9.17557, 30.5242, 18.3011, -9.17557, 29.8242, 18.2011, -9.17557, 29.5242, 17.6011, -9.17557, 29.5242, 13.6011, -9.17557, 29.6242, 13.8011, -9.67557, 31.3242, 14.7011, -9.67557, 32.8242, 17.0011, -9.17557, 30.2242, 15.7991, -9.67557, 30.623, 20.1011, -9.17557, 34.1242, 20.6011, -9.42557, 33.8242, 20.7011, -9.42557, 33.3242, 19.6011, -9.17557, 33.6242, 19.6011, -9.17557, 33.6242, 20.7011, -9.42557, 33.3242, 21.2011, -9.67557, 33.0242, 22.1011, -9.67557, 31.5242, 21.9011, -9.67557, 31.3242, 18.7011, -9.17557, 30.8242, 19.2344, -9.67557, 30.9075, 15.3011, -9.17557, 33.6242, 15.7011, -9.17557, 34.1242, 16.5011, -9.42557, 34.0242, 16.5011, -9.42557, 34.0242, 17.3011, -9.67557, 34.3242, 18.8011, -9.67557, 34.2242, 17.4011, -9.17557, 31.1242, 15.3011, -9.17557, 33.6242, 16.5011, -9.42557, 34.0242, 18.8011, -9.67557, 34.2242, 17.7011, -9.17557, 31.0242, 17.5911, -9.67557, 32.4142, 16.3011, 0.32443, 39.4242, 16.4011, 0.32443, 35.5242, 15.6011, 0.32443, 35.4242, 12.6011, 0.32443, 32.4242, 12.5011, 0.32443, 31.6242, 8.60108, 0.32443, 31.7242, 8.60108, 0.32443, 33.9242, 14.1011, 0.32443, 39.4242, 16.3011, 0.32443, 39.4242, 15.6011, 0.32443, 35.4242, 12.6011, 0.32443, 32.4242, 8.60108, 0.32443, 31.7242, 27.4011, 0.32443, 31.7242, 23.5011, 0.32443, 31.6242, 23.4011, 0.32443, 32.4242, 23.4011, 0.32443, 32.4242, 20.4011, 0.32443, 35.4242, 24.9011, 0.32443, 36.3242, 27.4011, 0.32443, 33.9242, 27.4011, 0.32443, 31.7242, 30.4011, 0.32443, 33.3242, 28.6011, 0.32443, 33.3242, 28.4011, 0.32443, 34.6242, 30.4011, 0.32443, 35.2242, 28.4011, 0.32443, 34.6242, 25.4011, 0.32443, 37.5242, 26.2011, 0.32443, 39.3242, 30.4011, 0.32443, 35.2242, 30.7011, 4.57443, 33.6242, 28.7011, 4.57443, 33.6242, 28.6011, 4.57443, 34.6242, 30.7011, 4.57443, 35.4242, 22.7011, 4.57443, 40.4242, 23.4011, 4.57443, 42.5242, 30.7011, 4.57443, 35.4242, 28.6011, 4.57443, 34.6242, 11.2011, 4.32443, 33.6242, 10.8011, 4.32443, 33.6242, 9.30108, 4.32443, 34.3242, 13.6011, 4.32443, 38.7242, 14.4011, 4.32443, 37.1242, 14.4011, 4.32443, 36.8242, 11.2011, 9.32443, 33.6242, 10.8011, 9.32443, 33.6242, 9.30108, 9.32443, 34.3242, 13.6011, 9.32443, 38.7242, 14.4011, 9.32443, 37.1242, 14.4011, 9.32443, 36.8242, 11.2011, 14.3244, 33.6242, 10.8011, 14.3244, 33.6242, 9.30108, 14.3244, 34.3242, 13.6011, 14.3244, 38.7242, 14.4011, 14.3244, 37.1242, 14.4011, 14.3244, 36.8242, 26.7011, 4.32443, 34.4242, 26.4011, 4.32443, 34.1242, 24.8011, 4.32443, 33.6242, 21.6011, 4.32443, 36.8242, 22.4011, 4.32443, 38.7242, 26.7011, 9.32443, 34.4242, 26.4011, 9.32443, 34.1242, 24.8011, 9.32443, 33.6242, 21.6011, 9.32443, 36.8242, 22.4011, 9.32443, 38.7242, 26.7011, 14.3244, 34.4242, 26.4011, 14.3244, 34.1242, 24.8011, 14.3244, 33.6242, 21.6011, 14.3244, 36.8242, 22.4011, 14.3244, 38.7242, 22.4011, 0.32443, 39.5242, 24.6011, 0.32443, 37.3242, 24.5011, 0.32443, 36.8242, 20.4011, 0.32443, 35.4242, 20.2011, 0.32443, 35.5242, 20.3011, 0.32443, 39.4242, 24.5011, 0.32443, 36.8242, 24.9011, 0.32443, 36.3242, 20.4011, 0.32443, 35.4242, 18.2011, 0.32443, 42.3242, 19.8011, 0.32443, 42.3242, 19.8011, 0.32443, 39.8242, 18.1011, 0.32443, 39.6242, 19.8011, 0.32443, 39.8242, 20.3011, 0.32443, 39.4242, 20.2011, 0.32443, 35.5242, 16.4011, 0.32443, 35.5242, 17.8011, 0.32443, 39.4242, 18.1011, 0.32443, 39.6242, 16.4011, 0.32443, 35.5242, 16.3011, 0.32443, 39.4242, 17.8011, 0.32443, 39.4242, 22.9011, 0.32443, 40.2242, 23.5011, 0.32443, 41.9242, 23.7011, 0.32443, 41.9242, 26.2011, 0.32443, 39.3242, 24.9011, 0.32443, 37.6242, 24.6011, 0.32443, 37.3242, 26.2011, 0.32443, 39.3242, 25.4011, 0.32443, 37.5242, 24.9011, 0.32443, 37.6242, 24.6011, 0.32443, 37.3242, 22.4011, 0.32443, 39.5242, 22.9011, 0.32443, 40.2242, 14.9011, 4.32443, 39.1242, 21.1011, 4.32443, 39.2242, 20.4011, 4.32443, 37.4242, 15.6011, 4.32443, 37.4242, 14.9011, 9.32443, 39.1242, 21.1011, 9.32443, 39.2242, 20.4011, 9.32443, 37.4242, 15.6011, 9.32443, 37.4242, 14.9011, 14.3244, 39.1242, 21.1011, 14.3244, 39.2242, 20.4011, 14.3244, 37.4242, 15.6011, 14.3244, 37.4242, -9.29892, 0.32443, 47.5242, -9.29892, 0.32443, 46.5242, -10.0989, 0.32443, 46.5242, -11.0989, 0.32443, 47.5242, -9.29892, 0.32443, 47.5242, -10.0989, 0.32443, 46.5242, -10.4989, 0.32443, 46.1242, -11.4989, 0.32443, 47.1242, -10.4989, 0.32443, 46.1242, -10.4989, 0.32443, 38.6242, -11.4989, 0.32443, 38.6242, -11.4989, 0.32443, 47.1242, 18.0011, 3.57443, 46.4242, 17.2011, 3.57443, 46.4242, 17.2011, 3.57443, 47.6242, 18.4011, 3.57443, 46.0242, 18.0011, 3.57443, 46.4242, 17.2011, 3.57443, 47.6242, 19.6011, 3.57443, 47.6242, 19.7011, 3.57443, 40.8242, 18.3011, 3.57443, 40.7242, 18.4011, 3.57443, 46.0242, 19.6011, 3.57443, 47.6242, 6.40108, 3.57443, 45.2242, 7.60108, 3.57443, 45.2242, 7.60108, 3.57443, 41.2242, 6.40108, 3.57443, 41.2242, 8.70108, 0.32443, 47.5242, 8.70108, 0.32443, 46.5242, 7.90108, 0.32443, 46.5242, 6.10108, 0.32443, 46.5242, 5.30108, 0.32443, 46.5242, 5.30108, 0.32443, 47.5242, 5.30108, 0.32443, 47.5242, 8.70108, 0.32443, 47.5242, 7.90108, 0.32443, 46.5242, 7.50108, 0.32443, 46.1242, 6.50108, 0.32443, 46.1242, 6.10108, 0.32443, 46.5242, 7.50108, 0.32443, 46.1242, 7.50108, 0.32443, 41.8242, 6.50108, 0.32443, 41.8242, 6.50108, 0.32443, 46.1242, 19.5011, 0.32443, 43.8242, 19.7011, 0.32443, 43.5242, 18.3011, 0.32443, 43.5242, 18.5011, 0.32443, 43.8242, 19.5011, 0.32443, 43.8242, 18.5011, 0.32443, 43.8242, 18.5011, 0.32443, 46.1242, 19.5011, 0.32443, 47.1242, 18.1011, 0.32443, 46.5242, 17.3011, 0.32443, 46.5242, 17.3011, 0.32443, 47.5242, 18.1011, 0.32443, 46.5242, 17.3011, 0.32443, 47.5242, 19.1011, 0.32443, 47.5242, 19.5011, 0.32443, 47.1242, 18.5011, 0.32443, 46.1242, 8.80108, 3.57443, 47.6242, 8.80108, 3.57443, 46.4242, 8.00108, 3.57443, 46.4242, 7.60108, 3.57443, 45.2242, 6.40108, 3.57443, 45.2242, 6.40108, 3.57443, 46.0242, 7.70108, 3.57443, 46.2242, 6.20108, 3.57443, 46.3242, 5.20108, 3.57443, 46.4242, 5.20108, 3.57443, 47.6242, 8.80108, 3.57443, 47.6242, 8.00108, 3.57443, 46.4242, 7.70108, 3.57443, 46.2242, 7.70108, 3.57443, 46.2242, 6.40108, 3.57443, 46.0242, 6.20108, 3.57443, 46.3242, -9.99892, 3.57443, 46.4242, -10.3989, 3.57443, 45.9242, -11.5989, 3.57443, 45.9242, -11.5989, 3.57443, 47.6242, 5.20108, 3.57443, 47.6242, 5.20108, 3.57443, 46.4242, -2.39892, 3.57443, 46.4242, -3.19892, 3.57443, 47.6242, -9.99892, 3.57443, 46.4242, -11.5989, 3.57443, 47.6242, -3.19892, 3.57443, 47.6242, -2.39892, 3.57443, 46.4242, 8.80108, 3.57443, 47.6242, 17.2011, 3.57443, 47.6242, 17.2011, 3.57443, 46.4242, 8.80108, 3.57443, 46.4242, -1.99892, 0.32443, 47.5242, 5.30108, 0.32443, 47.5242, 5.30108, 0.32443, 46.5242, -1.99892, 0.32443, 46.5242, -1.99892, 0.32443, 46.5242, -9.29892, 0.32443, 46.5242, -9.29892, 0.32443, 47.5242, -1.99892, 0.32443, 47.5242, 8.70108, 0.32443, 47.5242, 17.3011, 0.32443, 47.5242, 17.3011, 0.32443, 46.5242, 8.70108, 0.32443, 46.5242)
polygons = [PackedInt32Array(2, 1, 0), PackedInt32Array(4, 3, 5), PackedInt32Array(5, 3, 6), PackedInt32Array(8, 7, 9), PackedInt32Array(9, 7, 10), PackedInt32Array(13, 12, 11), PackedInt32Array(16, 15, 14), PackedInt32Array(17, 22, 18), PackedInt32Array(18, 22, 19), PackedInt32Array(19, 22, 21), PackedInt32Array(19, 21, 20), PackedInt32Array(26, 25, 23), PackedInt32Array(23, 25, 24), PackedInt32Array(30, 29, 27), PackedInt32Array(27, 29, 28), PackedInt32Array(34, 33, 31), PackedInt32Array(31, 33, 32), PackedInt32Array(37, 36, 35), PackedInt32Array(38, 40, 39), PackedInt32Array(43, 42, 41), PackedInt32Array(47, 46, 44), PackedInt32Array(44, 46, 45), PackedInt32Array(50, 49, 48), PackedInt32Array(54, 53, 55), PackedInt32Array(55, 53, 51), PackedInt32Array(51, 53, 52), PackedInt32Array(57, 56, 58), PackedInt32Array(58, 56, 59), PackedInt32Array(61, 60, 62), PackedInt32Array(62, 60, 63), PackedInt32Array(67, 66, 64), PackedInt32Array(64, 66, 65), PackedInt32Array(70, 69, 68), PackedInt32Array(72, 71, 73), PackedInt32Array(73, 71, 75), PackedInt32Array(73, 75, 74), PackedInt32Array(79, 78, 76), PackedInt32Array(76, 78, 77), PackedInt32Array(83, 82, 80), PackedInt32Array(80, 82, 81), PackedInt32Array(84, 86, 85), PackedInt32Array(91, 90, 87), PackedInt32Array(87, 90, 89), PackedInt32Array(87, 89, 88), PackedInt32Array(93, 92, 94), PackedInt32Array(94, 92, 95), PackedInt32Array(96, 99, 97), PackedInt32Array(97, 99, 98), PackedInt32Array(101, 100, 102), PackedInt32Array(102, 100, 103), PackedInt32Array(107, 106, 104), PackedInt32Array(104, 106, 105), PackedInt32Array(111, 110, 108), PackedInt32Array(108, 110, 109), PackedInt32Array(114, 113, 112), PackedInt32Array(116, 115, 117), PackedInt32Array(117, 115, 118), PackedInt32Array(121, 120, 119), PackedInt32Array(122, 127, 123), PackedInt32Array(123, 127, 124), PackedInt32Array(124, 127, 125), PackedInt32Array(125, 127, 126), PackedInt32Array(131, 130, 128), PackedInt32Array(128, 130, 129), PackedInt32Array(133, 132, 134), PackedInt32Array(134, 132, 135), PackedInt32Array(138, 137, 136), PackedInt32Array(141, 140, 139), PackedInt32Array(143, 142, 144), PackedInt32Array(144, 142, 145), PackedInt32Array(149, 148, 146), PackedInt32Array(146, 148, 147), PackedInt32Array(157, 158, 154), PackedInt32Array(154, 158, 150), PackedInt32Array(150, 158, 151), PackedInt32Array(151, 158, 155), PackedInt32Array(155, 156, 152), PackedInt32Array(152, 156, 153), PackedInt32Array(156, 158, 157), PackedInt32Array(158, 156, 155), PackedInt32Array(159, 161, 160), PackedInt32Array(162, 165, 163), PackedInt32Array(163, 165, 164), PackedInt32Array(167, 166, 168), PackedInt32Array(168, 166, 170), PackedInt32Array(168, 170, 169), PackedInt32Array(173, 172, 171), PackedInt32Array(176, 175, 174), PackedInt32Array(178, 177, 179), PackedInt32Array(179, 177, 180), PackedInt32Array(183, 182, 181), PackedInt32Array(185, 184, 186), PackedInt32Array(186, 184, 187), PackedInt32Array(189, 188, 190), PackedInt32Array(190, 188, 191), PackedInt32Array(195, 194, 192), PackedInt32Array(192, 194, 193), PackedInt32Array(199, 198, 196), PackedInt32Array(196, 198, 197), PackedInt32Array(203, 202, 200), PackedInt32Array(200, 202, 201), PackedInt32Array(205, 204, 206), PackedInt32Array(206, 204, 207), PackedInt32Array(207, 204, 209), PackedInt32Array(207, 209, 208), PackedInt32Array(212, 211, 210), PackedInt32Array(215, 214, 213), PackedInt32Array(218, 217, 216), PackedInt32Array(221, 220, 219), PackedInt32Array(225, 224, 226), PackedInt32Array(226, 224, 227), PackedInt32Array(227, 224, 223), PackedInt32Array(227, 223, 222), PackedInt32Array(231, 230, 228), PackedInt32Array(228, 230, 229), PackedInt32Array(233, 232, 234), PackedInt32Array(234, 232, 236), PackedInt32Array(234, 236, 235), PackedInt32Array(238, 237, 239), PackedInt32Array(239, 237, 243), PackedInt32Array(243, 237, 242), PackedInt32Array(243, 242, 241), PackedInt32Array(243, 241, 240), PackedInt32Array(244, 247, 245), PackedInt32Array(245, 247, 246), PackedInt32Array(251, 250, 248), PackedInt32Array(248, 250, 249), PackedInt32Array(254, 253, 252), PackedInt32Array(259, 258, 255), PackedInt32Array(255, 258, 256), PackedInt32Array(256, 258, 257), PackedInt32Array(261, 260, 262), PackedInt32Array(262, 260, 263), PackedInt32Array(265, 264, 266), PackedInt32Array(266, 264, 267), PackedInt32Array(271, 270, 268), PackedInt32Array(268, 270, 269), PackedInt32Array(274, 273, 272), PackedInt32Array(276, 275, 277), PackedInt32Array(277, 275, 278), PackedInt32Array(280, 279, 281), PackedInt32Array(281, 279, 282), PackedInt32Array(284, 283, 285), PackedInt32Array(285, 283, 287), PackedInt32Array(285, 287, 286), PackedInt32Array(291, 290, 288), PackedInt32Array(288, 290, 289), PackedInt32Array(293, 292, 294), PackedInt32Array(294, 292, 295), PackedInt32Array(298, 297, 296), PackedInt32Array(301, 300, 299), PackedInt32Array(303, 302, 304), PackedInt32Array(304, 302, 305), PackedInt32Array(307, 306, 308), PackedInt32Array(308, 306, 309), PackedInt32Array(309, 306, 311), PackedInt32Array(309, 311, 310), PackedInt32Array(314, 313, 312), PackedInt32Array(317, 316, 315), PackedInt32Array(318, 323, 319), PackedInt32Array(319, 323, 320), PackedInt32Array(320, 323, 322), PackedInt32Array(320, 322, 321), PackedInt32Array(327, 326, 324), PackedInt32Array(324, 326, 325), PackedInt32Array(331, 330, 328), PackedInt32Array(328, 330, 329), PackedInt32Array(334, 333, 332), PackedInt32Array(336, 335, 337), PackedInt32Array(337, 335, 338), PackedInt32Array(340, 339, 341), PackedInt32Array(341, 339, 342), PackedInt32Array(345, 344, 343), PackedInt32Array(349, 348, 350), PackedInt32Array(350, 348, 346), PackedInt32Array(346, 348, 347), PackedInt32Array(352, 351, 353), PackedInt32Array(353, 351, 354), PackedInt32Array(357, 356, 355), PackedInt32Array(362, 361, 358), PackedInt32Array(358, 361, 360), PackedInt32Array(358, 360, 359), PackedInt32Array(364, 363, 365), PackedInt32Array(365, 363, 366), PackedInt32Array(370, 369, 367), PackedInt32Array(367, 369, 368), PackedInt32Array(373, 372, 371), PackedInt32Array(375, 374, 376), PackedInt32Array(376, 374, 377), PackedInt32Array(379, 378, 380), PackedInt32Array(380, 378, 381), PackedInt32Array(384, 383, 382), PackedInt32Array(385, 389, 386), PackedInt32Array(386, 389, 387), PackedInt32Array(387, 389, 388), PackedInt32Array(391, 390, 392), PackedInt32Array(392, 390, 393), PackedInt32Array(397, 396, 394), PackedInt32Array(394, 396, 395), PackedInt32Array(400, 399, 401), PackedInt32Array(401, 399, 398), PackedInt32Array(404, 403, 402), PackedInt32Array(410, 405, 408), PackedInt32Array(405, 411, 409), PackedInt32Array(409, 407, 406), PackedInt32Array(407, 412, 410), PackedInt32Array(410, 412, 405), PackedInt32Array(411, 407, 409), PackedInt32Array(405, 412, 411), PackedInt32Array(407, 411, 412), PackedInt32Array(415, 417, 416), PackedInt32Array(417, 418, 413), PackedInt32Array(413, 418, 414), PackedInt32Array(414, 418, 415), PackedInt32Array(415, 418, 417), PackedInt32Array(423, 420, 424), PackedInt32Array(424, 420, 419), PackedInt32Array(420, 427, 425), PackedInt32Array(425, 427, 421), PackedInt32Array(421, 428, 422), PackedInt32Array(422, 428, 426), PackedInt32Array(426, 420, 423), PackedInt32Array(420, 426, 427), PackedInt32Array(427, 428, 421), PackedInt32Array(428, 427, 426), PackedInt32Array(430, 429, 431), PackedInt32Array(431, 429, 432), PackedInt32Array(433, 435, 434), PackedInt32Array(438, 437, 439), PackedInt32Array(439, 437, 436), PackedInt32Array(440, 443, 441), PackedInt32Array(441, 443, 442), PackedInt32Array(445, 448, 446), PackedInt32Array(446, 448, 447), PackedInt32Array(447, 448, 444), PackedInt32Array(449, 452, 450), PackedInt32Array(450, 452, 451), PackedInt32Array(460, 461, 458), PackedInt32Array(458, 455, 453), PackedInt32Array(453, 455, 454), PackedInt32Array(455, 462, 459), PackedInt32Array(459, 462, 456), PackedInt32Array(456, 461, 457), PackedInt32Array(457, 461, 460), PackedInt32Array(461, 455, 458), PackedInt32Array(455, 461, 462), PackedInt32Array(462, 461, 456), PackedInt32Array(464, 463, 465), PackedInt32Array(465, 463, 466), PackedInt32Array(466, 463, 467), PackedInt32Array(470, 469, 468), PackedInt32Array(472, 471, 473), PackedInt32Array(473, 471, 474), PackedInt32Array(478, 477, 475), PackedInt32Array(475, 477, 476), PackedInt32Array(481, 480, 479), PackedInt32Array(483, 482, 484), PackedInt32Array(484, 482, 485), PackedInt32Array(487, 486, 488), PackedInt32Array(488, 486, 489), PackedInt32Array(489, 486, 490), PackedInt32Array(490, 486, 491), PackedInt32Array(494, 493, 492), PackedInt32Array(497, 496, 495), PackedInt32Array(498, 500, 499), PackedInt32Array(503, 502, 501), PackedInt32Array(506, 505, 504), PackedInt32Array(508, 507, 509), PackedInt32Array(509, 507, 510), PackedInt32Array(512, 511, 513), PackedInt32Array(513, 511, 514), PackedInt32Array(514, 511, 515), PackedInt32Array(518, 517, 516), PackedInt32Array(521, 520, 522), PackedInt32Array(522, 520, 519), PackedInt32Array(524, 523, 525), PackedInt32Array(525, 523, 526), PackedInt32Array(529, 528, 527), PackedInt32Array(534, 533, 530), PackedInt32Array(530, 533, 532), PackedInt32Array(530, 532, 531), PackedInt32Array(536, 535, 537), PackedInt32Array(537, 535, 538), PackedInt32Array(541, 540, 539), PackedInt32Array(544, 543, 542), PackedInt32Array(545, 550, 546), PackedInt32Array(546, 550, 547), PackedInt32Array(547, 550, 549), PackedInt32Array(547, 549, 548), PackedInt32Array(553, 552, 554), PackedInt32Array(554, 552, 551), PackedInt32Array(556, 555, 557), PackedInt32Array(557, 555, 558), PackedInt32Array(560, 559, 561), PackedInt32Array(561, 559, 563), PackedInt32Array(561, 563, 562), PackedInt32Array(566, 565, 564), PackedInt32Array(568, 567, 569), PackedInt32Array(569, 567, 570), PackedInt32Array(573, 572, 571), PackedInt32Array(575, 574, 576), PackedInt32Array(576, 574, 577), PackedInt32Array(579, 578, 580), PackedInt32Array(580, 578, 581), PackedInt32Array(581, 578, 582), PackedInt32Array(582, 578, 583), PackedInt32Array(586, 585, 584), PackedInt32Array(589, 588, 587), PackedInt32Array(592, 591, 590), PackedInt32Array(595, 594, 593), PackedInt32Array(597, 596, 598), PackedInt32Array(598, 596, 599), PackedInt32Array(603, 602, 600), PackedInt32Array(600, 602, 601), PackedInt32Array(607, 606, 604), PackedInt32Array(604, 606, 605), PackedInt32Array(609, 608, 610), PackedInt32Array(610, 608, 613), PackedInt32Array(610, 613, 614), PackedInt32Array(614, 613, 612), PackedInt32Array(614, 612, 611), PackedInt32Array(617, 616, 615), PackedInt32Array(620, 619, 618), PackedInt32Array(622, 621, 623), PackedInt32Array(623, 621, 625), PackedInt32Array(623, 625, 624), PackedInt32Array(629, 628, 630), PackedInt32Array(630, 628, 631), PackedInt32Array(630, 631, 627), PackedInt32Array(630, 627, 626), PackedInt32Array(635, 634, 632), PackedInt32Array(632, 634, 633), PackedInt32Array(636, 638, 637), PackedInt32Array(640, 639, 641), PackedInt32Array(641, 639, 642), PackedInt32Array(644, 643, 645), PackedInt32Array(645, 643, 647), PackedInt32Array(645, 647, 646), PackedInt32Array(648, 651, 649), PackedInt32Array(649, 651, 650), PackedInt32Array(653, 652, 654), PackedInt32Array(654, 652, 657), PackedInt32Array(654, 657, 655), PackedInt32Array(655, 657, 656), PackedInt32Array(660, 659, 658), PackedInt32Array(663, 662, 661), PackedInt32Array(667, 666, 664), PackedInt32Array(664, 666, 665), PackedInt32Array(671, 670, 668), PackedInt32Array(668, 670, 669), PackedInt32Array(674, 673, 672), PackedInt32Array(677, 676, 675), PackedInt32Array(681, 680, 682), PackedInt32Array(682, 680, 683), PackedInt32Array(683, 680, 679), PackedInt32Array(683, 679, 678), PackedInt32Array(687, 686, 684), PackedInt32Array(684, 686, 685), PackedInt32Array(690, 689, 688), PackedInt32Array(695, 694, 691), PackedInt32Array(691, 694, 692), PackedInt32Array(692, 694, 693), PackedInt32Array(697, 696, 698), PackedInt32Array(698, 696, 699), PackedInt32Array(703, 702, 700), PackedInt32Array(700, 702, 701), PackedInt32Array(705, 704, 706), PackedInt32Array(706, 704, 707), PackedInt32Array(708, 711, 709), PackedInt32Array(709, 711, 710), PackedInt32Array(713, 712, 714), PackedInt32Array(714, 712, 715), PackedInt32Array(721, 720, 716), PackedInt32Array(716, 720, 719), PackedInt32Array(716, 719, 717), PackedInt32Array(717, 719, 718), PackedInt32Array(724, 723, 722), PackedInt32Array(727, 726, 725), PackedInt32Array(729, 728, 730), PackedInt32Array(733, 732, 731), PackedInt32Array(736, 735, 734), PackedInt32Array(738, 737, 739), PackedInt32Array(739, 737, 740), PackedInt32Array(740, 737, 741), PackedInt32Array(741, 737, 742), PackedInt32Array(746, 745, 743), PackedInt32Array(743, 745, 744), PackedInt32Array(749, 748, 747), PackedInt32Array(751, 750, 752), PackedInt32Array(752, 750, 755), PackedInt32Array(752, 755, 754), PackedInt32Array(752, 754, 753), PackedInt32Array(758, 757, 756), PackedInt32Array(760, 759, 761), PackedInt32Array(761, 759, 762), PackedInt32Array(764, 763, 765), PackedInt32Array(765, 763, 766), PackedInt32Array(769, 768, 767), PackedInt32Array(771, 770, 772), PackedInt32Array(772, 770, 773), PackedInt32Array(773, 770, 774), PackedInt32Array(778, 777, 775), PackedInt32Array(775, 777, 776), PackedInt32Array(780, 779, 781), PackedInt32Array(781, 779, 782), PackedInt32Array(785, 784, 783), PackedInt32Array(787, 786, 788), PackedInt32Array(788, 786, 789), PackedInt32Array(789, 786, 790), PackedInt32Array(793, 792, 791), PackedInt32Array(796, 795, 794), PackedInt32Array(797, 799, 798), PackedInt32Array(801, 800, 802), PackedInt32Array(802, 800, 804), PackedInt32Array(802, 804, 803), PackedInt32Array(808, 807, 805), PackedInt32Array(805, 807, 806), PackedInt32Array(814, 813, 809), PackedInt32Array(809, 813, 810), PackedInt32Array(810, 813, 812), PackedInt32Array(810, 812, 811), PackedInt32Array(816, 815, 817), PackedInt32Array(817, 815, 818), PackedInt32Array(818, 815, 819), PackedInt32Array(821, 820, 822), PackedInt32Array(822, 820, 823), PackedInt32Array(826, 825, 824), PackedInt32Array(830, 829, 827), PackedInt32Array(827, 829, 828), PackedInt32Array(833, 832, 831), PackedInt32Array(835, 834, 836), PackedInt32Array(836, 834, 837), PackedInt32Array(839, 838, 840), PackedInt32Array(840, 838, 841), PackedInt32Array(845, 844, 842), PackedInt32Array(842, 844, 843), PackedInt32Array(849, 848, 846), PackedInt32Array(846, 848, 847), PackedInt32Array(851, 850, 852), PackedInt32Array(852, 850, 853), PackedInt32Array(856, 855, 854), PackedInt32Array(860, 859, 861), PackedInt32Array(861, 859, 857), PackedInt32Array(857, 859, 858), PackedInt32Array(865, 864, 862), PackedInt32Array(862, 864, 863), PackedInt32Array(868, 867, 866), PackedInt32Array(870, 869, 871), PackedInt32Array(871, 869, 872), PackedInt32Array(873, 875, 874), PackedInt32Array(878, 877, 876), PackedInt32Array(881, 880, 882), PackedInt32Array(882, 880, 879), PackedInt32Array(882, 879, 883), PackedInt32Array(883, 879, 884), PackedInt32Array(886, 885, 887), PackedInt32Array(887, 885, 890), PackedInt32Array(887, 890, 889), PackedInt32Array(887, 889, 888), PackedInt32Array(893, 892, 894), PackedInt32Array(894, 892, 891), PackedInt32Array(897, 896, 895), PackedInt32Array(899, 898, 900), PackedInt32Array(900, 898, 901), PackedInt32Array(903, 902, 904), PackedInt32Array(904, 902, 905), PackedInt32Array(908, 907, 906), PackedInt32Array(909, 911, 910), PackedInt32Array(913, 912, 914), PackedInt32Array(916, 915, 917), PackedInt32Array(917, 915, 918), PackedInt32Array(918, 915, 919), PackedInt32Array(922, 921, 923), PackedInt32Array(923, 921, 920), PackedInt32Array(925, 924, 926), PackedInt32Array(926, 924, 927), PackedInt32Array(927, 924, 929), PackedInt32Array(927, 929, 928), PackedInt32Array(933, 932, 930), PackedInt32Array(930, 932, 931), PackedInt32Array(936, 935, 934), PackedInt32Array(938, 937, 939), PackedInt32Array(939, 937, 942), PackedInt32Array(939, 942, 940), PackedInt32Array(940, 942, 941), PackedInt32Array(944, 943, 945), PackedInt32Array(945, 943, 946), PackedInt32Array(948, 947, 949), PackedInt32Array(951, 950, 952), PackedInt32Array(952, 950, 953), PackedInt32Array(953, 950, 955), PackedInt32Array(953, 955, 954), PackedInt32Array(956, 958, 957), PackedInt32Array(959, 962, 960), PackedInt32Array(960, 962, 961), PackedInt32Array(964, 963, 965), PackedInt32Array(965, 963, 966), PackedInt32Array(968, 967, 969), PackedInt32Array(969, 967, 972), PackedInt32Array(969, 972, 971), PackedInt32Array(969, 971, 970), PackedInt32Array(975, 974, 973), PackedInt32Array(977, 976, 978), PackedInt32Array(978, 976, 979), PackedInt32Array(983, 982, 980), PackedInt32Array(980, 982, 981), PackedInt32Array(987, 986, 984), PackedInt32Array(984, 986, 985), PackedInt32Array(990, 989, 988), PackedInt32Array(992, 991, 993), PackedInt32Array(993, 991, 995), PackedInt32Array(993, 995, 994), PackedInt32Array(997, 996, 998), PackedInt32Array(998, 996, 999), PackedInt32Array(1002, 1001, 1000), PackedInt32Array(1003, 1006, 1007), PackedInt32Array(1007, 1006, 1005), PackedInt32Array(1007, 1005, 1004), PackedInt32Array(1010, 1009, 1013), PackedInt32Array(1013, 1009, 1011), PackedInt32Array(1011, 1009, 1014), PackedInt32Array(1014, 1009, 1008), PackedInt32Array(1014, 1008, 1012), PackedInt32Array(1018, 1017, 1015), PackedInt32Array(1015, 1017, 1016), PackedInt32Array(1021, 1020, 1019), PackedInt32Array(1024, 1023, 1022), PackedInt32Array(1026, 1025, 1027), PackedInt32Array(1027, 1025, 1028), PackedInt32Array(1028, 1025, 1029), PackedInt32Array(1033, 1032, 1030), PackedInt32Array(1030, 1032, 1031), PackedInt32Array(1035, 1034, 1036), PackedInt32Array(1036, 1034, 1038), PackedInt32Array(1036, 1038, 1037), PackedInt32Array(1040, 1039, 1041), PackedInt32Array(1041, 1039, 1042), PackedInt32Array(1044, 1043, 1045), PackedInt32Array(1045, 1043, 1046), PackedInt32Array(1046, 1043, 1047), PackedInt32Array(1050, 1049, 1048), PackedInt32Array(1052, 1051, 1053), PackedInt32Array(1053, 1051, 1054), PackedInt32Array(1054, 1051, 1055), PackedInt32Array(1057, 1056, 1058), PackedInt32Array(1058, 1056, 1059), PackedInt32Array(1061, 1060, 1062), PackedInt32Array(1062, 1060, 1065), PackedInt32Array(1062, 1065, 1063), PackedInt32Array(1063, 1065, 1064), PackedInt32Array(1067, 1066, 1068), PackedInt32Array(1068, 1066, 1069), PackedInt32Array(1071, 1070, 1072), PackedInt32Array(1072, 1070, 1073), PackedInt32Array(1075, 1074, 1076), PackedInt32Array(1076, 1074, 1077), PackedInt32Array(1079, 1078, 1080), PackedInt32Array(1080, 1078, 1081), PackedInt32Array(1085, 1084, 1082), PackedInt32Array(1082, 1084, 1083), PackedInt32Array(1089, 1088, 1086), PackedInt32Array(1086, 1088, 1087), PackedInt32Array(1092, 1091, 1090), PackedInt32Array(1096, 1095, 1093), PackedInt32Array(1093, 1095, 1094), PackedInt32Array(1099, 1098, 1097), PackedInt32Array(1101, 1100, 1102), PackedInt32Array(1102, 1100, 1103), PackedInt32Array(1105, 1104, 1106), PackedInt32Array(1106, 1104, 1107), PackedInt32Array(1111, 1110, 1108), PackedInt32Array(1108, 1110, 1109), PackedInt32Array(1112, 1114, 1113), PackedInt32Array(1116, 1115, 1117), PackedInt32Array(1117, 1115, 1118), PackedInt32Array(1121, 1120, 1119), PackedInt32Array(1123, 1122, 1124), PackedInt32Array(1124, 1122, 1125), PackedInt32Array(1128, 1127, 1129), PackedInt32Array(1129, 1127, 1126), PackedInt32Array(1129, 1126, 1131), PackedInt32Array(1129, 1131, 1130), PackedInt32Array(1134, 1133, 1132), PackedInt32Array(1136, 1135, 1137), PackedInt32Array(1137, 1135, 1138), PackedInt32Array(1140, 1139, 1141), PackedInt32Array(1141, 1139, 1142), PackedInt32Array(1145, 1144, 1143), PackedInt32Array(1148, 1147, 1146), PackedInt32Array(1153, 1152, 1154), PackedInt32Array(1154, 1152, 1149), PackedInt32Array(1149, 1152, 1151), PackedInt32Array(1149, 1151, 1150), PackedInt32Array(1156, 1155, 1157), PackedInt32Array(1157, 1155, 1159), PackedInt32Array(1157, 1159, 1158), PackedInt32Array(1161, 1160, 1162), PackedInt32Array(1162, 1160, 1164), PackedInt32Array(1162, 1164, 1163), PackedInt32Array(1166, 1165, 1167), PackedInt32Array(1167, 1165, 1169), PackedInt32Array(1167, 1169, 1168), PackedInt32Array(1173, 1172, 1170), PackedInt32Array(1170, 1172, 1171), PackedInt32Array(1176, 1175, 1174), PackedInt32Array(1179, 1178, 1177), PackedInt32Array(1184, 1183, 1185), PackedInt32Array(1185, 1183, 1182), PackedInt32Array(1185, 1182, 1180), PackedInt32Array(1180, 1182, 1181), PackedInt32Array(1188, 1187, 1186), PackedInt32Array(1192, 1191, 1193), PackedInt32Array(1193, 1191, 1189), PackedInt32Array(1189, 1191, 1190), PackedInt32Array(1195, 1194, 1196), PackedInt32Array(1196, 1194, 1197), PackedInt32Array(1199, 1198, 1200), PackedInt32Array(1200, 1198, 1202), PackedInt32Array(1200, 1202, 1201), PackedInt32Array(1204, 1203, 1205), PackedInt32Array(1205, 1203, 1207), PackedInt32Array(1205, 1207, 1206), PackedInt32Array(1209, 1208, 1210), PackedInt32Array(1210, 1208, 1212), PackedInt32Array(1210, 1212, 1211), PackedInt32Array(1214, 1213, 1215), PackedInt32Array(1215, 1213, 1216), PackedInt32Array(1216, 1213, 1217), PackedInt32Array(1217, 1213, 1218), PackedInt32Array(1220, 1219, 1221), PackedInt32Array(1221, 1219, 1222), PackedInt32Array(1222, 1219, 1223), PackedInt32Array(1223, 1219, 1224), PackedInt32Array(1226, 1225, 1227), PackedInt32Array(1227, 1225, 1228), PackedInt32Array(1228, 1225, 1229), PackedInt32Array(1229, 1225, 1230), PackedInt32Array(1233, 1232, 1231), PackedInt32Array(1236, 1235, 1237), PackedInt32Array(1237, 1235, 1234), PackedInt32Array(1239, 1238, 1240), PackedInt32Array(1240, 1238, 1241), PackedInt32Array(1244, 1243, 1242), PackedInt32Array(1248, 1247, 1249), PackedInt32Array(1249, 1247, 1245), PackedInt32Array(1245, 1247, 1246), PackedInt32Array(1251, 1250, 1252), PackedInt32Array(1252, 1250, 1253), PackedInt32Array(1257, 1256, 1254), PackedInt32Array(1254, 1256, 1255), PackedInt32Array(1260, 1259, 1258), PackedInt32Array(1263, 1262, 1261), PackedInt32Array(1265, 1264, 1266), PackedInt32Array(1266, 1264, 1267), PackedInt32Array(1267, 1264, 1268), PackedInt32Array(1268, 1264, 1269), PackedInt32Array(1273, 1272, 1270), PackedInt32Array(1270, 1272, 1271), PackedInt32Array(1276, 1275, 1274), PackedInt32Array(1279, 1278, 1277), PackedInt32Array(1280, 1285, 1281), PackedInt32Array(1281, 1285, 1282), PackedInt32Array(1282, 1285, 1283), PackedInt32Array(1283, 1285, 1284), PackedInt32Array(1287, 1286, 1288), PackedInt32Array(1288, 1286, 1289), PackedInt32Array(1295, 1294, 1296), PackedInt32Array(1296, 1294, 1297), PackedInt32Array(1296, 1297, 1293), PackedInt32Array(1296, 1293, 1290), PackedInt32Array(1290, 1293, 1291), PackedInt32Array(1291, 1293, 1292), PackedInt32Array(1300, 1299, 1298), PackedInt32Array(1301, 1304, 1302), PackedInt32Array(1302, 1304, 1303), PackedInt32Array(1306, 1305, 1310), PackedInt32Array(1310, 1305, 1307), PackedInt32Array(1307, 1305, 1308), PackedInt32Array(1308, 1305, 1311), PackedInt32Array(1311, 1305, 1309), PackedInt32Array(1314, 1313, 1312), PackedInt32Array(1316, 1315, 1317), PackedInt32Array(1317, 1315, 1319), PackedInt32Array(1317, 1319, 1320), PackedInt32Array(1320, 1319, 1318), PackedInt32Array(1324, 1323, 1321), PackedInt32Array(1321, 1323, 1322), PackedInt32Array(1327, 1326, 1328), PackedInt32Array(1328, 1326, 1325), PackedInt32Array(1328, 1325, 1330), PackedInt32Array(1328, 1330, 1329), PackedInt32Array(1334, 1333, 1331), PackedInt32Array(1331, 1333, 1332), PackedInt32Array(1336, 1335, 1337), PackedInt32Array(1337, 1335, 1338), PackedInt32Array(1341, 1340, 1342), PackedInt32Array(1342, 1340, 1339), PackedInt32Array(1342, 1339, 1345), PackedInt32Array(1342, 1345, 1344), PackedInt32Array(1342, 1344, 1346), PackedInt32Array(1346, 1344, 1343), PackedInt32Array(1350, 1349, 1347), PackedInt32Array(1347, 1349, 1348), PackedInt32Array(1354, 1353, 1351), PackedInt32Array(1351, 1353, 1352), PackedInt32Array(1358, 1357, 1355), PackedInt32Array(1355, 1357, 1356), PackedInt32Array(1362, 1361, 1359), PackedInt32Array(1359, 1361, 1360), PackedInt32Array(1366, 1365, 1363), PackedInt32Array(1363, 1365, 1364), PackedInt32Array(1367, 1370, 1368), PackedInt32Array(1368, 1370, 1369), PackedInt32Array(1371, 1374, 1372), PackedInt32Array(1372, 1374, 1373), PackedInt32Array(1375, 1378, 1376), PackedInt32Array(1376, 1378, 1377), PackedInt32Array(1381, 1380, 1379), PackedInt32Array(1384, 1383, 1382), PackedInt32Array(1389, 1391, 1390), PackedInt32Array(1390, 1391, 1385), PackedInt32Array(1385, 1391, 1386), PackedInt32Array(1386, 1391, 1387), PackedInt32Array(1387, 1391, 1388), PackedInt32Array(1388, 1391, 1389), PackedInt32Array(1395, 1394, 1392), PackedInt32Array(1392, 1394, 1393), PackedInt32Array(1396, 1401, 1397), PackedInt32Array(1397, 1401, 1400), PackedInt32Array(1397, 1400, 1399), PackedInt32Array(1397, 1399, 1398), PackedInt32Array(1404, 1403, 1402), PackedInt32Array(1407, 1406, 1405), PackedInt32Array(1408, 1411, 1409), PackedInt32Array(1409, 1411, 1410), PackedInt32Array(1413, 1412, 1414), PackedInt32Array(1414, 1412, 1415), PackedInt32Array(1417, 1416, 1418), PackedInt32Array(1418, 1416, 1419), PackedInt32Array(1421, 1420, 1422), PackedInt32Array(1422, 1420, 1423), PackedInt32Array(1423, 1420, 1424), PackedInt32Array(1424, 1420, 1425), PackedInt32Array(1428, 1430, 1429), PackedInt32Array(1429, 1430, 1426), PackedInt32Array(1426, 1430, 1427), PackedInt32Array(1427, 1430, 1428), PackedInt32Array(1432, 1431, 1433), PackedInt32Array(1433, 1431, 1434), PackedInt32Array(1436, 1435, 1437), PackedInt32Array(1437, 1435, 1438), PackedInt32Array(1438, 1435, 1439), PackedInt32Array(1439, 1435, 1441), PackedInt32Array(1441, 1435, 1440), PackedInt32Array(1442, 1444, 1443), PackedInt32Array(1447, 1446, 1445), PackedInt32Array(1451, 1453, 1452), PackedInt32Array(1452, 1453, 1448), PackedInt32Array(1448, 1453, 1449), PackedInt32Array(1449, 1453, 1450), PackedInt32Array(1450, 1453, 1451), PackedInt32Array(1456, 1455, 1454), PackedInt32Array(1459, 1458, 1457), PackedInt32Array(1465, 1464, 1460), PackedInt32Array(1460, 1464, 1463), PackedInt32Array(1460, 1463, 1461), PackedInt32Array(1461, 1463, 1462), PackedInt32Array(1468, 1467, 1466), PackedInt32Array(1473, 1472, 1469), PackedInt32Array(1469, 1472, 1471), PackedInt32Array(1469, 1471, 1470), PackedInt32Array(1475, 1474, 1476), PackedInt32Array(1476, 1474, 1477), PackedInt32Array(1479, 1478, 1480), PackedInt32Array(1480, 1478, 1481), PackedInt32Array(1483, 1482, 1484), PackedInt32Array(1484, 1482, 1485), PackedInt32Array(1486, 1489, 1487), PackedInt32Array(1487, 1489, 1488), PackedInt32Array(1491, 1490, 1492), PackedInt32Array(1492, 1490, 1495), PackedInt32Array(1492, 1495, 1494), PackedInt32Array(1492, 1494, 1493), PackedInt32Array(1497, 1496, 1498), PackedInt32Array(1498, 1496, 1501), PackedInt32Array(1498, 1501, 1500), PackedInt32Array(1498, 1500, 1499), PackedInt32Array(1503, 1502, 1504), PackedInt32Array(1504, 1502, 1507), PackedInt32Array(1504, 1507, 1506), PackedInt32Array(1504, 1506, 1505), PackedInt32Array(1509, 1508, 1510), PackedInt32Array(1510, 1508, 1511), PackedInt32Array(1511, 1508, 1512), PackedInt32Array(1514, 1513, 1515), PackedInt32Array(1515, 1513, 1516), PackedInt32Array(1516, 1513, 1517), PackedInt32Array(1519, 1518, 1520), PackedInt32Array(1520, 1518, 1521), PackedInt32Array(1521, 1518, 1522), PackedInt32Array(1524, 1523, 1525), PackedInt32Array(1525, 1523, 1528), PackedInt32Array(1525, 1528, 1526), PackedInt32Array(1526, 1528, 1527), PackedInt32Array(1531, 1530, 1529), PackedInt32Array(1533, 1532, 1534), PackedInt32Array(1534, 1532, 1535), PackedInt32Array(1541, 1540, 1536), PackedInt32Array(1536, 1540, 1537), PackedInt32Array(1537, 1540, 1538), PackedInt32Array(1538, 1540, 1539), PackedInt32Array(1544, 1543, 1542), PackedInt32Array(1546, 1545, 1547), PackedInt32Array(1547, 1545, 1548), PackedInt32Array(1548, 1545, 1549), PackedInt32Array(1549, 1545, 1550), PackedInt32Array(1553, 1552, 1551), PackedInt32Array(1555, 1554, 1556), PackedInt32Array(1560, 1559, 1557), PackedInt32Array(1557, 1559, 1558), PackedInt32Array(1564, 1563, 1561), PackedInt32Array(1561, 1563, 1562), PackedInt32Array(1568, 1567, 1565), PackedInt32Array(1565, 1567, 1566), PackedInt32Array(1571, 1570, 1569), PackedInt32Array(1576, 1575, 1572), PackedInt32Array(1572, 1575, 1574), PackedInt32Array(1572, 1574, 1573), PackedInt32Array(1578, 1577, 1579), PackedInt32Array(1579, 1577, 1580), PackedInt32Array(1583, 1582, 1581), PackedInt32Array(1585, 1584, 1586), PackedInt32Array(1586, 1584, 1587), PackedInt32Array(1589, 1588, 1590), PackedInt32Array(1590, 1588, 1591), PackedInt32Array(1595, 1594, 1592), PackedInt32Array(1592, 1594, 1593), PackedInt32Array(1598, 1597, 1596), PackedInt32Array(1601, 1600, 1599), PackedInt32Array(1605, 1604, 1606), PackedInt32Array(1606, 1604, 1607), PackedInt32Array(1607, 1604, 1603), PackedInt32Array(1607, 1603, 1602), PackedInt32Array(1611, 1610, 1608), PackedInt32Array(1608, 1610, 1609), PackedInt32Array(1615, 1614, 1612), PackedInt32Array(1612, 1614, 1613), PackedInt32Array(1617, 1616, 1618), PackedInt32Array(1618, 1616, 1619), PackedInt32Array(1622, 1621, 1620), PackedInt32Array(1626, 1625, 1627), PackedInt32Array(1627, 1625, 1623), PackedInt32Array(1623, 1625, 1624), PackedInt32Array(1630, 1629, 1628), PackedInt32Array(1632, 1631, 1633), PackedInt32Array(1633, 1631, 1634), PackedInt32Array(1639, 1638, 1640), PackedInt32Array(1640, 1638, 1635), PackedInt32Array(1635, 1638, 1636), PackedInt32Array(1636, 1638, 1637), PackedInt32Array(1643, 1642, 1641), PackedInt32Array(1645, 1644, 1646), PackedInt32Array(1646, 1644, 1647), PackedInt32Array(1649, 1648, 1650), PackedInt32Array(1650, 1648, 1651), PackedInt32Array(1655, 1654, 1652), PackedInt32Array(1652, 1654, 1653), PackedInt32Array(1659, 1658, 1656), PackedInt32Array(1656, 1658, 1657), PackedInt32Array(1663, 1662, 1660), PackedInt32Array(1660, 1662, 1661), PackedInt32Array(1667, 1666, 1664), PackedInt32Array(1664, 1666, 1665), PackedInt32Array(1671, 1670, 1668), PackedInt32Array(1668, 1670, 1669)]
geometry_source_geometry_mode = 1
geometry_source_group_name = &"Navmesh"
cell_size = 0.1
agent_height = 1.8
agent_max_slope = 60.0

[sub_resource type="PlaceholderTexture3D" id="PlaceholderTexture3D_a5ikv"]

[node name="Map" instance=ExtResource("1_hqy8u")]

[node name="Prototype" parent="Geometry" index="1"]
use_collision = false

[node name="CSGBox3D" parent="Geometry/Prototype" index="0"]
visible = false

[node name="Corridor012" parent="Geometry" index="2" instance=ExtResource("3_xprjg")]
transform = Transform3D(1, 0, 0, 0, 1, 0, 0, 0, 1, 18, 0, -6)

[node name="Corridor013" parent="Geometry" index="3" instance=ExtResource("3_xprjg")]
transform = Transform3D(1, 0, 0, 0, 1, 0, 0, 0, 1, 18, 0, 6)

[node name="Corridor022" parent="Geometry" index="4" instance=ExtResource("3_xprjg")]

[node name="Corridor034" parent="Geometry" index="5" instance=ExtResource("3_xprjg")]
transform = Transform3D(1, 0, 0, 0, 1, 0, 0, 0, 1, -11, 0, 41)

[node name="Corridor024" parent="Geometry" index="6" instance=ExtResource("3_xprjg")]
transform = Transform3D(1, 0, 0, 0, 1, 0, 0, 0, 1, -5, -4, 12)

[node name="Corridor025" parent="Geometry" index="7" instance=ExtResource("3_xprjg")]
transform = Transform3D(1, 0, 0, 0, 1, 0, 0, 0, 1, -5, -4, 18)

[node name="Corridor037" parent="Geometry" index="8" instance=ExtResource("3_xprjg")]
transform = Transform3D(-4.37114e-08, 0, -1, 0, 1, 0, 1, 0, -4.37114e-08, -17, -4, 24)

[node name="Corridor006" parent="Geometry" index="9" instance=ExtResource("3_xprjg")]
transform = Transform3D(-4.37114e-08, 0, 1, 0, 1, 0, -1, 0, -4.37114e-08, 6, 0, -12)

[node name="Corridor008" parent="Geometry" index="10" instance=ExtResource("3_xprjg")]
transform = Transform3D(-4.37114e-08, 0, 1, 0, 1, 0, -1, 0, -4.37114e-08, 12, 0, -12)

[node name="Corridor017" parent="Geometry" index="11" instance=ExtResource("3_xprjg")]
transform = Transform3D(-4.37114e-08, 0, 1, 0, 1, 0, -1, 0, -4.37114e-08, 6, 0, 12)

[node name="Corridor031" parent="Geometry" index="12" instance=ExtResource("3_xprjg")]
transform = Transform3D(-4.37114e-08, 0, 1, 0, 1, 0, -1, 0, -4.37114e-08, -5, 0, 47)

[node name="Corridor032" parent="Geometry" index="13" instance=ExtResource("3_xprjg")]
transform = Transform3D(-4.37114e-08, 0, 1, 0, 1, 0, -1, 0, -4.37114e-08, 1, 0, 47)

[node name="Corridor035" parent="Geometry" index="14" instance=ExtResource("3_xprjg")]
transform = Transform3D(-4.37114e-08, 0, 1, 0, 1, 0, -1, 0, -4.37114e-08, 13, 0, 47)

[node name="Corridor001" parent="Geometry" index="15" instance=ExtResource("4_7jijo")]
transform = Transform3D(-4.37114e-08, 0, 1, 0, 1, 0, -1, 0, -4.37114e-08, -6, 0, 0)

[node name="Corridor016" parent="Geometry" index="16" instance=ExtResource("4_7jijo")]
transform = Transform3D(-4.37114e-08, 0, 1, 0, 1, 0, -1, 0, -4.37114e-08, 18, 0, 12)

[node name="Corridor019" parent="Geometry" index="17" instance=ExtResource("4_7jijo")]
transform = Transform3D(1, 0, 1.06581e-14, 0, 1, 0, -1.06581e-14, 0, 1, 12, 0, 12)

[node name="Corridor033" parent="Geometry" index="18" instance=ExtResource("4_7jijo")]
transform = Transform3D(1, 0, 1.06581e-14, 0, 1, 0, -1.06581e-14, 0, 1, 7, 0, 47)

[node name="Corridor014" parent="Geometry" index="19" instance=ExtResource("4_7jijo")]
transform = Transform3D(-4.37114e-08, 0, 1, 0, 1, 0, -1, 0, -4.37114e-08, 18, 0, 0)

[node name="Corridor020" parent="Geometry" index="20" instance=ExtResource("4_7jijo")]
transform = Transform3D(-4.37114e-08, 0, 1, 0, 1, 0, -1, 0, -4.37114e-08, 12, 0, 6)

[node name="Corridor002" parent="Geometry" index="21" instance=ExtResource("4_7jijo")]
transform = Transform3D(1.31134e-07, 0, -1, 0, 1, 0, 1, 0, 1.31134e-07, -6, 0, -6)

[node name="Corridor005" parent="Geometry" index="22" instance=ExtResource("4_7jijo")]
transform = Transform3D(-1, 0, -8.74228e-08, 0, 1, 0, 8.74228e-08, 0, -1, 0, 0, -12)

[node name="Corridor021" parent="Geometry" index="23" instance=ExtResource("4_7jijo")]
transform = Transform3D(-1, 0, -8.74228e-08, 0, 1, 0, 8.74228e-08, 0, -1, -5, -4, 6)

[node name="Corridor027" parent="Geometry" index="24" instance=ExtResource("4_7jijo")]
transform = Transform3D(-1, 0, -8.74228e-08, 0, 1, 0, 8.74228e-08, 0, -1, -11, -4, 24)

[node name="Corridor003" parent="Geometry" index="25" instance=ExtResource("5_36px0")]
transform = Transform3D(1, 0, 0, 0, 1, 0, 0, 0, 1, -6, 0, 6)

[node name="Corridor030" parent="Geometry" index="26" instance=ExtResource("5_36px0")]
transform = Transform3D(1, 0, 0, 0, 1, 0, 0, 0, 1, -11, 0, 47)

[node name="Corridor036" parent="Geometry" index="27" instance=ExtResource("5_36px0")]
transform = Transform3D(-4.37114e-08, 0, 1, 0, 1, 0, -1, 0, -4.37114e-08, 19, 0, 47)

[node name="Corridor018" parent="Geometry" index="28" instance=ExtResource("5_36px0")]
transform = Transform3D(-4.37114e-08, 0, -1, 0, 1, 0, 1, 0, -4.37114e-08, 0, 0, 12)

[node name="Corridor004" parent="Geometry" index="29" instance=ExtResource("5_36px0")]
transform = Transform3D(-4.37114e-08, 0, 1, 0, 1, 0, -1, 0, -4.37114e-08, 0, 0, 6)

[node name="Corridor026" parent="Geometry" index="30" instance=ExtResource("5_36px0")]
transform = Transform3D(-4.37114e-08, 0, 1, 0, 1, 0, -1, 0, -4.37114e-08, -5, -4, 24)

[node name="Corridor028" parent="Geometry" index="31" instance=ExtResource("5_36px0")]
transform = Transform3D(1, 0, 1.06581e-14, 0, 1, 0, -1.06581e-14, 0, 1, -23, -4, 24)

[node name="Corridor011" parent="Geometry" index="32" instance=ExtResource("5_36px0")]
transform = Transform3D(-1, 0, -8.74228e-08, 0, 1, 0, 8.74228e-08, 0, -1, 18, 0, -12)

[node name="Corridor007" parent="Geometry" index="33" instance=ExtResource("5_36px0")]
transform = Transform3D(1.31134e-07, 0, -1, 0, 1, 0, 1, 0, 1.31134e-07, -6, 0, -12)

[node name="Corridor015" parent="Geometry" index="34" instance=ExtResource("5_36px0")]
transform = Transform3D(1.31134e-07, 0, -1, 0, 1, 0, 1, 0, 1.31134e-07, 12, 0, 0)

[node name="Corridor010" parent="Geometry" index="35" instance=ExtResource("5_x7wp8")]
transform = Transform3D(1, 0, 0, 0, 1, 0, 0, 0, 1, 0, 0, -6)

[node name="Corridor023" parent="Geometry" index="36" instance=ExtResource("5_ag1cu")]
transform = Transform3D(-4.37114e-08, 0, -1, 0, 1, 0, 1, 0, -4.37114e-08, -12, 0, 0)

[node name="Corridor038" parent="Geometry" index="37" instance=ExtResource("5_ag1cu")]
transform = Transform3D(-1, 0, 8.74228e-08, 0, 1, 0, -8.74228e-08, 0, -1, 7, 0, 41)

[node name="Room000" parent="Geometry" index="38" instance=ExtResource("6_jo86d")]
transform = Transform3D(-4.37114e-08, 0, 1, 0, 1, 0, -1, 0, -4.37114e-08, 4, 0, -6)

[node name="Room001" parent="Geometry" index="39" instance=ExtResource("7_llipn")]
transform = Transform3D(-4.37114e-08, 0, 1, 0, 1, 0, -1, 0, -4.37114e-08, 18, 0, 30)

[node name="Corridor009" parent="Geometry" index="40" instance=ExtResource("8_wa2lr")]
transform = Transform3D(-4.37114e-08, 0, -1, 0, 1, 0, 1, 0, -4.37114e-08, 9, 0, 6)

[node name="Corridor029" parent="Geometry" index="41" instance=ExtResource("8_wa2lr")]
transform = Transform3D(-1, 0, 8.74228e-08, 0, 1, 0, -8.74228e-08, 0, -1, -11, 0, 38)

[node name="Room002" parent="Geometry" index="42" instance=ExtResource("9_rve63")]
transform = Transform3D(-4.37114e-08, 0, 1, 0, 1, 0, -1, 0, -4.37114e-08, -10, -4, 6)

[node name="NavigationRegion3D" parent="Navigation" index="0"]
navigation_mesh = SubResource("NavigationMesh_vc2nh")

[node name="SpawnPoint3" parent="SpawnPoints" index="1" instance=ExtResource("2_2fxxm")]
transform = Transform3D(-0.126372, 0, 0.991983, 0, 1, 0, -0.991983, 0, -0.126372, 13.7623, -0.952835, -8.18012)

[node name="SpawnPoint4" parent="SpawnPoints" index="2" instance=ExtResource("2_2fxxm")]
transform = Transform3D(0.999726, 0, 0.0233853, 0, 1, 0, -0.0233853, 0, 0.999726, 29.5009, 0.00107157, 28.7863)

[node name="GpuParticlesCollisionSdf3d" parent="ParticlesCollision" index="0"]
transform = Transform3D(1, 0, 0, 0, 1, 0, 0, 0, 1, -2.93312, 5.10296, 17.736)
visible = false
size = Vector3(70.983, 31.3814, 62.922)
texture = SubResource("PlaceholderTexture3D_a5ikv")

[node name="DirectionalLight3D" parent="Lighting" index="0"]
visible = false

[node name="ReflectionProbe" parent="ReflectionProbes" index="0"]
visible = false

[editable path="SpecialCollision/KillFloor"]
