[gd_resource type="StandardMaterial3D" format=3 uid="uid://bt1i6omr5rhty"]

[resource]
shading_mode = 2
diffuse_mode = 1
specular_mode = 1
albedo_color = Color(0, 0, 0, 1)
emission_enabled = true
emission = Color(1, 1, 1, 1)
emission_energy_multiplier = 8.0
