[gd_resource type="ShaderMaterial" load_steps=8 format=3 uid="uid://d3yxscs8wuxnp"]

[ext_resource type="Shader" uid="uid://bfyy10hs04n2c" path="res://Assets/Shaders/Environment/Ubershader.tres" id="1_muh45"]
[ext_resource type="Texture2D" uid="uid://b5s2kusyspwj0" path="res://Assets/Materials/Generic/Rock_01_Tileable/RedRock_albedo.png" id="2_2rw2y"]
[ext_resource type="Texture2D" uid="uid://byug55pet3wx8" path="res://Assets/Materials/Generic/Rock_01_Tileable/RedRock_macro.png" id="3_gge3t"]
[ext_resource type="Texture2D" uid="uid://bjdd22315lqcf" path="res://Assets/Materials/Generic/Rock_01_Tileable/RedRock_height.png" id="3_k50m0"]
[ext_resource type="Texture2D" uid="uid://ksuoqr3qltxu" path="res://Assets/Materials/Generic/Rock_01_Tileable/RedRock_ORMD.png" id="4_dqgsp"]
[ext_resource type="Texture2D" uid="uid://b7ibf1586wdj" path="res://Assets/Materials/Generic/Rock_01_Tileable/RedRock_normal.png" id="4_lmawu"]
[ext_resource type="Texture2D" uid="uid://c2f6fur2ula0l" path="res://Assets/Materials/Generic/Rock_01_Tileable/RedRock_warp.png" id="5_rs2xt"]

[resource]
render_priority = 0
shader = ExtResource("1_muh45")
shader_parameter/HeightMappingEnabled = true
shader_parameter/HeightScale = 0.15
shader_parameter/HeightOcclusionLayersRange = Vector2(4, 16)
shader_parameter/HeightMappingOcclusion = true
shader_parameter/Scale = 32.0
shader_parameter/WarpScale = 0.5
shader_parameter/WarpAmount = 0.0
shader_parameter/BaseColorOver = Color(0.60933, 0.60933, 0.60933, 1)
shader_parameter/MacroWarpAmount = 0.025
shader_parameter/MacroRotation = 1.25
shader_parameter/ScaleMacro1 = 2.3
shader_parameter/ScaleMacro2 = 3.22
shader_parameter/BaseColorMacro = 0.75
shader_parameter/OverlayWarpAmount = 0.01
shader_parameter/OverlayScale = 0.5
shader_parameter/Overlay_Macro_Mask = 1.0
shader_parameter/Overlay_Mask_Input_Remap = Vector2(0, 1)
shader_parameter/OverlayAmount = 0.0
shader_parameter/RoughnessMacro = 0.25
shader_parameter/NormalMacro = 0.5
shader_parameter/NormalDepth = 1.0
shader_parameter/AlphaScissor = false
shader_parameter/AlphaScissorThreshold = 0.5
shader_parameter/Height = ExtResource("3_k50m0")
shader_parameter/Warp = ExtResource("5_rs2xt")
shader_parameter/BaseColor = ExtResource("2_2rw2y")
shader_parameter/Macro = ExtResource("3_gge3t")
shader_parameter/ORMD = ExtResource("4_dqgsp")
shader_parameter/Normal = ExtResource("4_lmawu")
