[gd_scene load_steps=2 format=3 uid="uid://djb02qng4cqsf"]

[ext_resource type="Script" path="res://Assets/Weapons/WeaponTypes/Generic/Weapon.gd" id="1_onxmk"]

[node name="Weapon" type="Node3D"]
script = ExtResource("1_onxmk")
