<?xml version="1.0" encoding="UTF-8" standalone="no"?>
<!-- Created with Inkscape (http://www.inkscape.org/) -->

<svg
   width="1920"
   height="1080"
   viewBox="0 0 507.99999 285.75"
   version="1.1"
   id="svg5"
   inkscape:version="1.2 (dc2aedaf03, 2022-05-15)"
   sodipodi:docname="Damage.svg"
   inkscape:export-filename="Damage.png"
   inkscape:export-xdpi="96"
   inkscape:export-ydpi="96"
   xmlns:inkscape="http://www.inkscape.org/namespaces/inkscape"
   xmlns:sodipodi="http://sodipodi.sourceforge.net/DTD/sodipodi-0.dtd"
   xmlns:xlink="http://www.w3.org/1999/xlink"
   xmlns="http://www.w3.org/2000/svg"
   xmlns:svg="http://www.w3.org/2000/svg">
  <sodipodi:namedview
     id="namedview7"
     pagecolor="#505050"
     bordercolor="#eeeeee"
     borderopacity="1"
     inkscape:showpageshadow="0"
     inkscape:pageopacity="0"
     inkscape:pagecheckerboard="0"
     inkscape:deskcolor="#505050"
     inkscape:document-units="mm"
     showgrid="false"
     inkscape:zoom="0.2973261"
     inkscape:cx="1045.9896"
     inkscape:cy="632.30238"
     inkscape:window-width="1920"
     inkscape:window-height="1003"
     inkscape:window-x="0"
     inkscape:window-y="0"
     inkscape:window-maximized="1"
     inkscape:current-layer="g468" />
  <defs
     id="defs2">
    <linearGradient
       inkscape:collect="always"
       id="linearGradient129">
      <stop
         style="stop-color:#ff0000;stop-opacity:0;"
         offset="0.61258173"
         id="stop125" />
      <stop
         style="stop-color:#ff0000;stop-opacity:1;"
         offset="1"
         id="stop127" />
    </linearGradient>
    <radialGradient
       inkscape:collect="always"
       xlink:href="#linearGradient129"
       id="radialGradient133"
       cx="211.44904"
       cy="119.05843"
       fx="211.44904"
       fy="119.05843"
       r="254"
       gradientTransform="matrix(0,-1.0044316,1.0044316,-1.1861476e-5,131.70027,351.83194)"
       gradientUnits="userSpaceOnUse" />
    <filter
       inkscape:collect="always"
       style="color-interpolation-filters:sRGB"
       id="filter1148"
       x="-0.088267975"
       y="-0.1338906"
       width="1.176536"
       height="1.2677812">
      <feGaussianBlur
         inkscape:collect="always"
         stdDeviation="27.447974"
         id="feGaussianBlur1150" />
    </filter>
  </defs>
  <g
     inkscape:label="Layer 1"
     inkscape:groupmode="layer"
     id="layer1">
    <g
       id="g468"
       style="filter:url(#filter1148)">
      <rect
         style="fill:url(#radialGradient133);fill-opacity:1;stroke-width:1.565;stroke-linecap:square;stroke-linejoin:round;paint-order:markers stroke fill"
         id="rect63"
         width="620.80725"
         height="376.7851"
         x="-57.946651"
         y="-38.855896" />
      <path
         id="rect357"
         style="fill:#ff0000;stroke-width:1.565;stroke-linecap:square;stroke-linejoin:round;paint-order:markers stroke fill"
         d="M -117.89875 -84.913163 L -117.89875 407.09401 L 628.4097 407.09401 L 628.4097 -84.913163 L -117.89875 -84.913163 z M 0 0 L 508 0 L 508 285.75 L 0 285.75 L 0 0 z " />
    </g>
  </g>
</svg>
