<?xml version="1.0" encoding="UTF-8" standalone="no"?>
<!-- Created with Inkscape (http://www.inkscape.org/) -->

<svg
   width="320.01593mm"
   height="78.047668mm"
   viewBox="0 0 320.01592 78.047668"
   version="1.1"
   id="svg75015"
   xmlns:xlink="http://www.w3.org/1999/xlink"
   xmlns="http://www.w3.org/2000/svg"
   xmlns:svg="http://www.w3.org/2000/svg">
  <defs
     id="defs75012">
    <filter
       style="color-interpolation-filters:sRGB"
       id="filter37534"
       x="-0.13928667"
       y="-0.17551914"
       width="1.2785733"
       height="1.3510383">
      <feGaussianBlur
         stdDeviation="0.32395641"
         id="feGaussianBlur37532" />
    </filter>
    <filter
       style="color-interpolation-filters:sRGB"
       id="filter37560"
       x="-0.044385616"
       y="-0.055931594"
       width="1.0887712"
       height="1.1118633">
      <feGaussianBlur
         stdDeviation="0.10323317"
         id="feGaussianBlur37558" />
    </filter>
    <linearGradient
       id="linearGradient54861">
      <stop
         style="stop-color:#ff9419;stop-opacity:1;"
         offset="0"
         id="stop54859" />
      <stop
         style="stop-color:#da2800;stop-opacity:1;"
         offset="1"
         id="stop54857" />
    </linearGradient>
    <radialGradient
       xlink:href="#linearGradient54861"
       id="radialGradient54863"
       cx="-615.20447"
       cy="936.90228"
       fx="-615.20447"
       fy="936.90228"
       r="21.425779"
       gradientTransform="matrix(1,0,0,0.38638965,0,559.2271)"
       gradientUnits="userSpaceOnUse" />
    <radialGradient
       xlink:href="#linearGradient54861"
       id="radialGradient60539"
       gradientUnits="userSpaceOnUse"
       gradientTransform="matrix(1,0,0,0.38638965,0,558.34807)"
       cx="-615.20447"
       cy="936.90228"
       fx="-615.20447"
       fy="936.90228"
       r="21.425779" />
  </defs>
  <g
     id="layer3"
     style="display:inline">
    <rect
       style="fill:#120606;fill-opacity:1;stroke:none;stroke-width:2.02898;stroke-linecap:round;stroke-dasharray:none;stop-color:#000000"
       id="rect49625"
       width="320.01593"
       height="78.047668"
       x="4.9121095e-06"
       y="6.6870115e-07" />
  </g>
  <g
     id="layer1"
     transform="translate(160.00797,44.057758)"
     style="display:inline">
    <g
       id="g75704">
      <g
         id="g49647"
         style="opacity:0.501708;fill:#ff5a06;fill-opacity:1;filter:url(#filter37534)"
         transform="matrix(6.0199175,0,0,6.0199175,3735.0538,-5539.9096)">
        <path
           id="path49627"
           style="color:#000000;fill:#ff5a06;fill-opacity:1;stroke-linecap:round;-inkscape-stroke:none"
           d="m -616.03526,917.18747 -2.79108,4.18757 0.0488,0.24216 0.24216,-0.0488 2.49999,-3.74995 2.50008,3.74995 0.24216,0.0488 0.0488,-0.24216 z m 9.25974,0.14053 -2.91015,8e-5 c -0.2756,10e-6 -0.57621,0.0196 -0.82615,0.18954 -0.24994,0.16999 -0.40629,0.48987 -0.40629,0.96479 0,0.51796 0.15511,0.84413 0.41213,1.00392 0.25701,0.15979 0.55493,0.1504 0.82031,0.1504 h 1.85154 c 0.26514,0 0.4995,0.0104 0.63866,0.0957 0.13917,0.0853 0.24731,0.24814 0.24611,0.70898 -0.001,0.45677 -0.11077,0.62063 -0.24997,0.70699 -0.1392,0.0863 -0.37057,0.0976 -0.6348,0.0976 h -2.91015 l -0.17383,0.1758 0.17383,0.17581 h 2.91015 c 0.26495,0 0.56339,0.009 0.82031,-0.1504 0.25693,-0.15939 0.4125,-0.48429 0.4141,-1.00393 0.001,-0.52384 -0.15574,-0.85139 -0.4141,-1.00976 -0.25835,-0.15836 -0.55627,-0.14645 -0.82031,-0.14645 h -1.85154 c -0.26377,0 -0.49494,-0.0108 -0.6348,-0.0978 -0.13985,-0.087 -0.248,-0.25253 -0.248,-0.707 0,-0.40474 0.10699,-0.57384 0.25392,-0.67378 0.14694,-0.0999 0.37533,-0.13091 0.62888,-0.13091 h 2.91015 l 0.1758,-0.17383 z m -34.92379,8e-5 -0.17581,0.17581 v 4.14258 h 4.14456 l 0.17383,-0.17383 -0.17383,-0.1758 h -3.79492 v -3.79295 z m 6.61321,0 -0.17383,0.17581 v 3.96875 l 0.17383,0.17383 0.17581,-0.17383 v -3.96875 z m 3.17583,0 -0.17581,0.17581 0.17581,0.17383 h 2.64643 c 0.26393,0 0.57054,0.009 0.7852,0.10936 0.21466,0.0999 0.36195,0.25613 0.36131,0.69533 -4.5e-4,0.4435 -0.14739,0.60037 -0.36131,0.69927 -0.21392,0.0989 -0.52044,0.10541 -0.7852,0.10541 h -2.64643 l -0.17581,0.17581 0.17581,0.17383 h 2.64643 0.0506 c 0.25515,5.7e-4 0.53738,0.008 0.73653,0.0977 0.21244,0.0954 0.35933,0.24863 0.35933,0.70708 0,0.26193 -0.0466,0.43298 -0.10936,0.54296 -0.0628,0.10997 -0.13961,0.16874 -0.24216,0.20894 -0.20511,0.0804 -0.51386,0.0527 -0.79499,0.0527 h -2.64643 l -0.17581,0.17581 0.17581,0.1758 h 2.64643 c 0.24805,0 0.59978,0.0469 0.92384,-0.0801 0.16203,-0.0635 0.31541,-0.1798 0.41797,-0.35942 0.10256,-0.17962 0.15632,-0.41386 0.15632,-0.71678 0,-0.5273 -0.24519,-0.83257 -0.54304,-0.98436 0.29617,-0.15463 0.54252,-0.45949 0.54304,-0.97465 7.8e-4,-0.53448 -0.24964,-0.8671 -0.5645,-1.01363 -0.31487,-0.14653 -0.66838,-0.1407 -0.93363,-0.1407 z m 7.14449,0 -0.17572,0.17581 v 4.14258 h 4.14447 l 0.17383,-0.17383 -0.17383,-0.1758 h -3.79492 v -3.79295 z m 20.46878,0 -0.1758,0.17581 0.1758,0.17383 h 2.37501 v 3.79492 l 0.17383,0.17383 0.1758,-0.17383 v -3.79492 h 2.375 l 0.17384,-0.17383 -0.17384,-0.17581 z" />
        <path
           id="circle49645"
           style="stroke-width:0.35;stroke-linecap:round;stop-color:#000000"
           d="m -615.75069,921.23645 a 0.33280912,0.33280912 0 0 1 -0.33281,0.33281 0.33280912,0.33280912 0 0 1 -0.33281,-0.33281 0.33280912,0.33280912 0 0 1 0.33281,-0.33281 0.33280912,0.33280912 0 0 1 0.33281,0.33281 z" />
      </g>
      <g
         id="g58823"
         style="mix-blend-mode:normal;fill:#030100;fill-opacity:1;filter:url(#filter37560)"
         transform="matrix(6.0199175,0,0,6.0199175,3729.7621,-5545.2013)">
        <path
           id="path58803"
           style="color:#000000;fill:#030100;fill-opacity:1;stroke-linecap:round;-inkscape-stroke:none"
           d="m -615.15623,918.0665 -2.79108,4.18757 0.0489,0.24216 0.24216,-0.0488 2.49999,-3.74995 2.49999,3.74995 0.24224,0.0488 0.0488,-0.24216 z m -25.66405,0.14061 -0.1758,0.17581 v 4.14258 h 4.14455 l 0.17384,-0.17383 -0.17384,-0.1758 h -3.79492 v -3.79295 z m 6.61322,0 -0.17383,0.17581 v 3.96875 l 0.17383,0.17383 0.1758,-0.17383 v -3.96875 z m 3.17582,0 -0.1758,0.17581 0.1758,0.17383 h 2.64644 c 0.26393,0 0.57054,0.009 0.7852,0.10936 0.21466,0.0999 0.36195,0.25613 0.36131,0.69533 -4.5e-4,0.4435 -0.14739,0.60037 -0.36131,0.69927 -0.21392,0.0989 -0.52044,0.10541 -0.7852,0.10541 h -2.64644 l -0.1758,0.17581 0.1758,0.17383 h 2.69709 c 0.25514,5.7e-4 0.53737,0.008 0.73652,0.0977 0.21244,0.0954 0.35934,0.24863 0.35934,0.70708 0,0.26193 -0.0466,0.43298 -0.10936,0.54296 -0.0628,0.10998 -0.13961,0.16874 -0.24216,0.20894 -0.20511,0.0804 -0.51386,0.0527 -0.79499,0.0527 h -2.64644 l -0.1758,0.17581 0.1758,0.1758 h 2.64644 c 0.24805,0 0.59978,0.0469 0.92384,-0.0801 0.16203,-0.0635 0.3154,-0.1798 0.41796,-0.35942 0.10256,-0.17962 0.15632,-0.41386 0.15632,-0.71678 0,-0.5273 -0.24519,-0.83257 -0.54304,-0.98436 0.29617,-0.15463 0.54252,-0.45949 0.54304,-0.97465 7.8e-4,-0.53448 -0.24964,-0.8671 -0.5645,-1.01363 -0.31487,-0.14653 -0.66837,-0.1407 -0.93362,-0.1407 z m 7.1445,0 -0.17572,0.17581 v 4.14258 h 4.14447 l 0.17383,-0.17383 -0.17383,-0.1758 h -3.79492 v -3.79295 z m 20.46878,0 -0.17581,0.17581 0.17581,0.17383 h 2.375 v 3.79492 l 0.17383,0.17383 0.17581,-0.17383 v -3.79492 h 2.375 l 0.17383,-0.17383 -0.17383,-0.17581 h -2.55081 z" />
        <path
           style="color:#000000;fill:#030100;fill-opacity:1;stroke-linecap:round;-inkscape-stroke:none"
           d="m -608.80664,918.20715 c -0.2756,1e-5 -0.57623,0.0195 -0.82617,0.18946 -0.24994,0.16999 -0.40625,0.48992 -0.40625,0.96484 0,0.51796 0.15509,0.84412 0.41211,1.00391 0.25701,0.15979 0.55493,0.15039 0.82031,0.15039 h 1.85156 c 0.26514,0 0.49951,0.0104 0.63867,0.0957 0.13917,0.0853 0.2473,0.24815 0.2461,0.70899 -0.001,0.45677 -0.1108,0.62067 -0.25,0.70703 -0.1392,0.0863 -0.37054,0.0976 -0.63477,0.0976 h -2.91015 l -0.17383,0.17578 0.17383,0.17579 h 2.91015 c 0.26495,0 0.56339,0.009 0.82031,-0.15039 0.25693,-0.15939 0.41247,-0.48427 0.41407,-1.00391 10e-4,-0.52384 -0.15571,-0.8514 -0.41407,-1.00977 -0.25835,-0.15836 -0.55627,-0.14648 -0.82031,-0.14648 h -1.85156 c -0.26377,0 -0.49491,-0.0107 -0.63477,-0.0977 -0.13985,-0.087 -0.24804,-0.25256 -0.24804,-0.70703 0,-0.40474 0.10697,-0.57389 0.2539,-0.67383 0.14694,-0.0999 0.37536,-0.13086 0.62891,-0.13086 h 2.91016 l 0.17578,-0.17382 -0.17578,-0.17579 z"
           id="path58815" />
        <circle
           style="fill:#030100;fill-opacity:1;stroke:none;stroke-width:0.35;stroke-linecap:round;stroke-dasharray:none;stop-color:#000000"
           id="circle58821"
           cx="-615.20447"
           cy="922.11548"
           r="0.33280912" />
      </g>
      <g
         id="g58845"
         style="fill:url(#radialGradient54863);fill-opacity:1;stroke:none"
         transform="matrix(6.0199175,0,0,6.0199175,3729.7621,-5534.6179)">
        <path
           id="path58995"
           style="color:#000000;fill:url(#radialGradient60539);fill-opacity:1;stroke:none;stroke-linecap:round;-inkscape-stroke:none"
           d="m -615.15631,916.30844 -2.791,4.18748 0.0489,0.24216 0.24217,-0.0487 2.49998,-3.75003 2.49999,3.75003 0.24216,0.0487 0.0488,-0.24216 z m -25.66405,0.14061 -0.17572,0.17581 v 4.14258 h 4.14447 l 0.17383,-0.17383 -0.17383,-0.17572 h -3.79492 v -3.79303 z m 6.6133,0 -0.17383,0.17581 v 3.96875 l 0.17383,0.17383 0.1758,-0.17383 v -3.96875 z m 3.17574,0 -0.17572,0.17581 0.17572,0.17383 h 2.64652 c 0.26393,0 0.57054,0.009 0.7852,0.10936 0.21466,0.0999 0.36195,0.25621 0.36131,0.69541 -4.5e-4,0.4435 -0.14739,0.6002 -0.36131,0.6991 -0.21392,0.0989 -0.52044,0.1055 -0.7852,0.1055 h -2.64652 l -0.17572,0.17572 0.17572,0.17383 h 2.64652 c 0.26779,0 0.57466,0.002 0.78709,0.0979 0.21244,0.0954 0.35942,0.24855 0.35942,0.707 0,0.26193 -0.0466,0.43298 -0.10936,0.54296 -0.0628,0.10998 -0.1397,0.16882 -0.24225,0.20902 -0.20511,0.0804 -0.51377,0.0527 -0.7949,0.0527 h -2.64652 l -0.17572,0.17572 0.17572,0.1758 h 2.64652 c 0.24805,0 0.59978,0.0469 0.92384,-0.0801 0.16203,-0.0635 0.3154,-0.17971 0.41796,-0.35933 0.10256,-0.17962 0.15624,-0.41395 0.15624,-0.71687 0,-0.5273 -0.29719,-0.89171 -0.64296,-0.98436 0.38073,-0.10202 0.64244,-0.45941 0.64296,-0.97457 7.8e-4,-0.53448 -0.24956,-0.86718 -0.56442,-1.01371 -0.31487,-0.14653 -0.66837,-0.14061 -0.93362,-0.14061 z m 7.14458,0 -0.17581,0.17581 v 4.14258 h 4.14456 l 0.17383,-0.17383 -0.17383,-0.17572 h -3.79492 v -3.79303 z m 15.08011,0 c -0.2756,10e-6 -0.5763,0.0196 -0.82624,0.18954 -0.24994,0.16999 -0.4062,0.48995 -0.4062,0.96487 0,0.51796 0.15511,0.84405 0.41213,1.00384 0.25701,0.15979 0.55493,0.15031 0.82031,0.15031 h 1.85153 c 0.26514,0 0.49951,0.0104 0.63867,0.0957 0.13917,0.0853 0.24731,0.24813 0.24611,0.70897 -10e-4,0.45677 -0.11086,0.62072 -0.25006,0.70708 -0.1392,0.0863 -0.37049,0.0976 -0.63472,0.0976 h -2.91014 l -0.17383,0.1758 0.17383,0.17572 h 2.91014 c 0.26495,0 0.56339,0.009 0.82031,-0.15039 0.25693,-0.15939 0.41242,-0.48421 0.41402,-1.00385 10e-4,-0.52384 -0.15566,-0.85139 -0.41402,-1.00976 -0.25835,-0.15836 -0.55627,-0.14653 -0.82031,-0.14653 h -1.85153 c -0.26377,0 -0.49495,-0.0107 -0.63481,-0.0977 -0.13985,-0.087 -0.24808,-0.25253 -0.24808,-0.707 0,-0.40474 0.10699,-0.57392 0.25392,-0.67386 0.14694,-0.0999 0.37542,-0.13083 0.62897,-0.13083 h 2.91014 l 0.17572,-0.17383 -0.17572,-0.17572 z m 5.38867,0 -0.17581,0.17581 0.17581,0.17383 h 2.375 v 3.79492 l 0.17383,0.17383 0.17572,-0.17383 v -3.79492 h 2.375 l 0.17384,-0.17383 -0.17384,-0.17581 z m -11.78651,3.57551 a 0.33280912,0.33280912 0 0 0 -0.33281,0.33281 0.33280912,0.33280912 0 0 0 0.33281,0.33281 0.33280912,0.33280912 0 0 0 0.33281,-0.33281 0.33280912,0.33280912 0 0 0 -0.33281,-0.33281 z" />
      </g>
    </g>
  </g>
</svg>
