<?xml version="1.0" encoding="UTF-8" standalone="no"?>
<!-- Created with Inkscape (http://www.inkscape.org/) -->

<svg
   width="1024"
   height="512"
   viewBox="0 0 270.93334 135.46667"
   version="1.1"
   id="svg5"
   inkscape:version="1.2.1 (9c6d41e410, 2022-07-14, custom)"
   sodipodi:docname="FaceExpressions.svg"
   inkscape:export-filename="../../../Game/Assets/Characters/Faces/FaceExpressions.png"
   inkscape:export-xdpi="192"
   inkscape:export-ydpi="192"
   xml:space="preserve"
   xmlns:inkscape="http://www.inkscape.org/namespaces/inkscape"
   xmlns:sodipodi="http://sodipodi.sourceforge.net/DTD/sodipodi-0.dtd"
   xmlns:xlink="http://www.w3.org/1999/xlink"
   xmlns="http://www.w3.org/2000/svg"
   xmlns:svg="http://www.w3.org/2000/svg"><sodipodi:namedview
     id="namedview7"
     pagecolor="#505050"
     bordercolor="#eeeeee"
     borderopacity="1"
     inkscape:showpageshadow="0"
     inkscape:pageopacity="0"
     inkscape:pagecheckerboard="0"
     inkscape:deskcolor="#505050"
     inkscape:document-units="px"
     showgrid="true"
     inkscape:zoom="1"
     inkscape:cx="541.99999"
     inkscape:cy="290.99999"
     inkscape:window-width="2560"
     inkscape:window-height="1361"
     inkscape:window-x="0"
     inkscape:window-y="0"
     inkscape:window-maximized="1"
     inkscape:current-layer="layer5"
     showguides="false"><inkscape:grid
       type="xygrid"
       id="grid3589"
       spacingx="16.933333"
       spacingy="16.933333"
       empspacing="4"
       originx="0"
       originy="0" /><sodipodi:guide
       position="101.38769,108.3571"
       orientation="0,-1"
       id="guide3839"
       inkscape:locked="false" /><sodipodi:guide
       position="18.945425,108.03556"
       orientation="1,0"
       id="guide18751"
       inkscape:locked="false" /><sodipodi:guide
       position="86.678758,108.03556"
       orientation="1,0"
       id="guide18753"
       inkscape:locked="false" /><sodipodi:guide
       position="154.41205,108.03556"
       orientation="1,0"
       id="guide18755"
       inkscape:locked="false" /><sodipodi:guide
       position="222.14543,108.35369"
       orientation="1,0"
       id="guide18757"
       inkscape:locked="false" /><sodipodi:guide
       position="18.945425,40.30222"
       orientation="0,-1"
       id="guide18759"
       inkscape:locked="false" /><sodipodi:guide
       position="48.787905,108.03556"
       orientation="1,0"
       id="guide18761"
       inkscape:locked="false" /><sodipodi:guide
       position="116.52124,108.03556"
       orientation="1,0"
       id="guide18763"
       inkscape:locked="false" /><sodipodi:guide
       position="184.2757,35.852227"
       orientation="1,0"
       id="guide18765"
       inkscape:locked="false" /><sodipodi:guide
       position="251.98791,108.35368"
       orientation="1,0"
       id="guide18767"
       inkscape:locked="false" /></sodipodi:namedview><defs
     id="defs2"><inkscape:path-effect
       effect="powerstroke"
       id="path-effect949"
       is_visible="true"
       lpeversion="1"
       offset_points="0.23137332,0.49065233 | 0.48346029,0.41623607 | 0.8,0.1322915"
       not_jump="false"
       sort_points="true"
       interpolator_type="CentripetalCatmullRom"
       interpolator_beta="0.2"
       start_linecap_type="zerowidth"
       linejoin_type="round"
       miter_limit="4"
       scale_width="1"
       end_linecap_type="zerowidth" /><inkscape:path-effect
       effect="powerstroke"
       id="path-effect775"
       is_visible="true"
       lpeversion="1"
       offset_points="0.061870198,0.21183472 | 3.082527,0.30308208 | 7.8649931,0.045399691"
       not_jump="false"
       sort_points="true"
       interpolator_type="CubicBezierFit"
       interpolator_beta="0.23333333"
       start_linecap_type="zerowidth"
       linejoin_type="round"
       miter_limit="4"
       scale_width="1"
       end_linecap_type="zerowidth" /><inkscape:path-effect
       effect="powerstroke"
       id="path-effect18992"
       is_visible="true"
       lpeversion="1"
       offset_points="0.17795613,0.083961361 | 1.0140494,0.26454895 | 1.7312139,0.25380263"
       not_jump="false"
       sort_points="true"
       interpolator_type="CentripetalCatmullRom"
       interpolator_beta="0.2"
       start_linecap_type="zerowidth"
       linejoin_type="round"
       miter_limit="4"
       scale_width="1"
       end_linecap_type="zerowidth" /><inkscape:path-effect
       effect="powerstroke"
       id="path-effect18986"
       is_visible="true"
       lpeversion="1"
       offset_points="0.2186966,0.13854452 | 1.0365735,0.52257519 | 1.7270856,0.37009105"
       not_jump="false"
       sort_points="true"
       interpolator_type="CentripetalCatmullRom"
       interpolator_beta="0.2"
       start_linecap_type="zerowidth"
       linejoin_type="round"
       miter_limit="4"
       scale_width="1"
       end_linecap_type="zerowidth" /><inkscape:path-effect
       effect="powerstroke"
       id="path-effect18972"
       is_visible="true"
       lpeversion="1"
       offset_points="0.23137332,0.49065233 | 0.48346029,0.41623607 | 0.8,0.1322915"
       not_jump="false"
       sort_points="true"
       interpolator_type="CentripetalCatmullRom"
       interpolator_beta="0.2"
       start_linecap_type="zerowidth"
       linejoin_type="round"
       miter_limit="4"
       scale_width="1"
       end_linecap_type="zerowidth" /><inkscape:path-effect
       effect="powerstroke"
       id="path-effect18480"
       is_visible="true"
       lpeversion="1"
       offset_points="0.02212494,0.65695336 | 0.25589733,0.53720716 | 0.53991138,0.24788908"
       not_jump="false"
       sort_points="true"
       interpolator_type="CentripetalCatmullRom"
       interpolator_beta="0.2"
       start_linecap_type="zerowidth"
       linejoin_type="round"
       miter_limit="4"
       scale_width="1"
       end_linecap_type="zerowidth" /><inkscape:path-effect
       effect="powerstroke"
       id="path-effect18476"
       is_visible="true"
       lpeversion="1"
       offset_points="0.23137332,0.49065233 | 0.48346029,0.41623607 | 0.8,0.1322915"
       not_jump="false"
       sort_points="true"
       interpolator_type="CentripetalCatmullRom"
       interpolator_beta="0.2"
       start_linecap_type="zerowidth"
       linejoin_type="round"
       miter_limit="4"
       scale_width="1"
       end_linecap_type="zerowidth" /><inkscape:path-effect
       effect="powerstroke"
       id="path-effect18472"
       is_visible="true"
       lpeversion="1"
       offset_points="0.010575758,0.034386213 | 0.2655667,0.63718247 | 0.56397238,0.482078"
       not_jump="false"
       sort_points="true"
       interpolator_type="CentripetalCatmullRom"
       interpolator_beta="0.2"
       start_linecap_type="zerowidth"
       linejoin_type="round"
       miter_limit="4"
       scale_width="1"
       end_linecap_type="zerowidth" /><inkscape:path-effect
       effect="powerstroke"
       id="path-effect18182"
       is_visible="true"
       lpeversion="1"
       offset_points="0.010575758,0.034386213 | 0.2655667,0.63718247 | 0.56397238,0.482078"
       not_jump="false"
       sort_points="true"
       interpolator_type="CentripetalCatmullRom"
       interpolator_beta="0.2"
       start_linecap_type="zerowidth"
       linejoin_type="round"
       miter_limit="4"
       scale_width="1"
       end_linecap_type="zerowidth" /><inkscape:path-effect
       effect="powerstroke"
       id="path-effect18178"
       is_visible="true"
       lpeversion="1"
       offset_points="0.02212494,0.65695336 | 0.25589733,0.53720716 | 0.53991138,0.24788908"
       not_jump="false"
       sort_points="true"
       interpolator_type="CentripetalCatmullRom"
       interpolator_beta="0.2"
       start_linecap_type="zerowidth"
       linejoin_type="round"
       miter_limit="4"
       scale_width="1"
       end_linecap_type="zerowidth" /><inkscape:path-effect
       effect="powerstroke"
       id="path-effect18174"
       is_visible="true"
       lpeversion="1"
       offset_points="0.23137332,0.49065233 | 0.48346029,0.41623607 | 0.8,0.1322915"
       not_jump="false"
       sort_points="true"
       interpolator_type="CentripetalCatmullRom"
       interpolator_beta="0.2"
       start_linecap_type="zerowidth"
       linejoin_type="round"
       miter_limit="4"
       scale_width="1"
       end_linecap_type="zerowidth" /><inkscape:path-effect
       effect="powerstroke"
       id="path-effect18089"
       is_visible="true"
       lpeversion="1"
       offset_points="0.02212494,0.65695336 | 0.25589733,0.53720716 | 0.53991138,0.24788908"
       not_jump="false"
       sort_points="true"
       interpolator_type="CentripetalCatmullRom"
       interpolator_beta="0.2"
       start_linecap_type="zerowidth"
       linejoin_type="round"
       miter_limit="4"
       scale_width="1"
       end_linecap_type="zerowidth" /><inkscape:path-effect
       effect="powerstroke"
       id="path-effect17881"
       is_visible="true"
       lpeversion="1"
       offset_points="0.36533382,0.30745757 | 2.2738055,0.75508931 | 5.9457621,0.19198863"
       not_jump="false"
       sort_points="true"
       interpolator_type="CubicBezierFit"
       interpolator_beta="0.23333333"
       start_linecap_type="zerowidth"
       linejoin_type="round"
       miter_limit="4"
       scale_width="1"
       end_linecap_type="zerowidth" /><inkscape:path-effect
       effect="powerstroke"
       id="path-effect17873"
       is_visible="true"
       lpeversion="1"
       offset_points="0.014569528,0.16719432 | 0.3309583,0.12834831 | 0.82552915,0.036493489"
       not_jump="false"
       sort_points="true"
       interpolator_type="CentripetalCatmullRom"
       interpolator_beta="0.2"
       start_linecap_type="zerowidth"
       linejoin_type="round"
       miter_limit="4"
       scale_width="1"
       end_linecap_type="zerowidth" /><inkscape:path-effect
       effect="powerstroke"
       id="path-effect17867"
       is_visible="true"
       lpeversion="1"
       offset_points="0.02212494,0.65695336 | 0.25589733,0.53720716 | 0.53991138,0.24788908"
       not_jump="false"
       sort_points="true"
       interpolator_type="CentripetalCatmullRom"
       interpolator_beta="0.2"
       start_linecap_type="zerowidth"
       linejoin_type="round"
       miter_limit="4"
       scale_width="1"
       end_linecap_type="zerowidth" /><inkscape:path-effect
       effect="powerstroke"
       id="path-effect17765"
       is_visible="true"
       lpeversion="1"
       offset_points="0.12185362,0.29625384 | 0.23352799,0.35417421 | 7.6928635,0.054995573"
       not_jump="false"
       sort_points="true"
       interpolator_type="CubicBezierFit"
       interpolator_beta="0.23333333"
       start_linecap_type="zerowidth"
       linejoin_type="round"
       miter_limit="4"
       scale_width="1"
       end_linecap_type="zerowidth" /><inkscape:path-effect
       effect="powerstroke"
       id="path-effect16711"
       is_visible="true"
       lpeversion="1"
       offset_points="0.027616739,0.010850253 | 0.32518638,0.057422075 | 0.79909754,0.008331382"
       not_jump="false"
       sort_points="true"
       interpolator_type="CentripetalCatmullRom"
       interpolator_beta="0.2"
       start_linecap_type="zerowidth"
       linejoin_type="round"
       miter_limit="4"
       scale_width="1"
       end_linecap_type="zerowidth" /><inkscape:path-effect
       effect="powerstroke"
       id="path-effect16703"
       is_visible="true"
       lpeversion="1"
       offset_points="0.014569528,0.16719432 | 0.3309583,0.12834831 | 0.82552915,0.036493489"
       not_jump="false"
       sort_points="true"
       interpolator_type="CentripetalCatmullRom"
       interpolator_beta="0.2"
       start_linecap_type="zerowidth"
       linejoin_type="round"
       miter_limit="4"
       scale_width="1"
       end_linecap_type="zerowidth" /><inkscape:path-effect
       effect="powerstroke"
       id="path-effect16689"
       is_visible="true"
       lpeversion="1"
       offset_points="0.19225315,0.41792689 | 0.442747,0.43322005 | 0.8,0.1322915"
       not_jump="false"
       sort_points="true"
       interpolator_type="CentripetalCatmullRom"
       interpolator_beta="0.2"
       start_linecap_type="zerowidth"
       linejoin_type="round"
       miter_limit="4"
       scale_width="1"
       end_linecap_type="zerowidth" /><inkscape:path-effect
       effect="powerstroke"
       id="path-effect16683"
       is_visible="true"
       lpeversion="1"
       offset_points="0.23137332,0.49065233 | 0.48346029,0.41623607 | 0.8,0.1322915"
       not_jump="false"
       sort_points="true"
       interpolator_type="CentripetalCatmullRom"
       interpolator_beta="0.2"
       start_linecap_type="zerowidth"
       linejoin_type="round"
       miter_limit="4"
       scale_width="1"
       end_linecap_type="zerowidth" /><inkscape:path-effect
       effect="powerstroke"
       id="path-effect16671"
       is_visible="true"
       lpeversion="1"
       offset_points="0.25013095,1.0541454 | 0.51990002,1.0807598 | 0.80815166,0.77211927"
       not_jump="false"
       sort_points="true"
       interpolator_type="CentripetalCatmullRom"
       interpolator_beta="0.2"
       start_linecap_type="zerowidth"
       linejoin_type="round"
       miter_limit="4"
       scale_width="1"
       end_linecap_type="zerowidth" /><inkscape:path-effect
       effect="powerstroke"
       id="path-effect16635"
       is_visible="true"
       lpeversion="1"
       offset_points="0.23297023,0.75486906 | 0.5240385,1.134518 | 0.80815166,0.77211927"
       not_jump="false"
       sort_points="true"
       interpolator_type="CentripetalCatmullRom"
       interpolator_beta="0.2"
       start_linecap_type="zerowidth"
       linejoin_type="round"
       miter_limit="4"
       scale_width="1"
       end_linecap_type="zerowidth" /><inkscape:path-effect
       effect="powerstroke"
       id="path-effect16629"
       is_visible="true"
       lpeversion="1"
       offset_points="0.23297023,0.75486906 | 0.5240385,1.134518 | 0.80815166,0.77211927"
       not_jump="false"
       sort_points="true"
       interpolator_type="CentripetalCatmullRom"
       interpolator_beta="0.2"
       start_linecap_type="zerowidth"
       linejoin_type="round"
       miter_limit="4"
       scale_width="1"
       end_linecap_type="zerowidth" /></defs><g
     inkscape:groupmode="layer"
     id="layer3"
     inkscape:label="BG Team 1"
     style="display:inline"><image
       width="75.318527"
       height="69.87381"
       preserveAspectRatio="none"
       xlink:href="data:image/png;base64,iVBORw0KGgoAAAANSUhEUgAAAFMAAABNCAIAAABVDM+8AAAAA3NCSVQICAjb4U/gAAAAdElEQVR4 nO3PQQEAEADAQCTQv5JKHmJ43C7BNs/dg7R+B3zTuadzT+eezj2dezr3dO7p3NO5p3NP557OPZ17 Ovd07unc07mnc0/nns49nXs693Tu6dzTuadzT+eezj2dezr3dO7p3NO5p3NP557OPZ173PMHSLYC cW0e+ysAAAAASUVORK5CYII= "
       id="image265"
       x="-281.2178"
       y="-27.884449"
       style="stroke-width:0.291567" /><image
       width="21.695833"
       height="21.960417"
       preserveAspectRatio="none"
       xlink:href="data:image/png;base64,iVBORw0KGgoAAAANSUhEUgAAAFIAAABTCAIAAACDEsdpAAAAA3NCSVQICAjb4U/gAAAAeElEQVR4 nO3PQQEAIBCAsNP+JUyqMXyMJYB15o5n/w74o21J25K2JW1L2pa0LWlb0rakbUnbkrYlbUvalrQt aVvStqRtSduStiVtS9qWtC1pW9K2pG1J25K2JW1L2pa0LWlb0rakbUnbkrYlbUvalrQtaVvStgTd fm6KAkaHf+kkAAAAAElFTkSuQmCC "
       id="image331"
       x="-282.18771"
       y="64.875816" /></g><g
     inkscape:label="Layer 1"
     inkscape:groupmode="layer"
     id="layer1"
     style="display:inline"><g
       id="g3662"
       transform="translate(-67.733331,67.733331)"><circle
         style="opacity:1;fill:#ffdd55;stroke-width:1.565;stroke-linecap:square;stroke-linejoin:round;paint-order:markers stroke fill"
         id="path739"
         cx="33.866665"
         cy="-33.866665"
         r="32.569653" /><circle
         style="opacity:1;fill:#abd80e;fill-opacity:1;stroke-width:1.565;stroke-linecap:square;stroke-linejoin:round;paint-order:markers stroke fill"
         id="circle337"
         cx="33.866665"
         cy="-33.866665"
         r="32.569653" /><circle
         style="opacity:1;fill:#a100ff;fill-opacity:1;stroke-width:1.565;stroke-linecap:square;stroke-linejoin:round;paint-order:markers stroke fill"
         id="circle335"
         cx="33.866665"
         cy="-33.866665"
         r="32.569653" /></g><rect
       style="opacity:1;fill:#ffdd55;fill-opacity:1;stroke-width:1.565;stroke-linecap:square;stroke-linejoin:round;paint-order:markers stroke fill"
       id="rect3634"
       width="15.228863"
       height="15.228863"
       x="-231.42685"
       y="68.144798" /><rect
       style="opacity:1;fill:#55ff99;fill-opacity:1;stroke-width:1.565;stroke-linecap:square;stroke-linejoin:round;paint-order:markers stroke fill"
       id="rect3636"
       width="15.680655"
       height="15.680655"
       x="-216.14058"
       y="68.052277" /><rect
       style="opacity:1;fill:#80b3ff;fill-opacity:1;stroke-width:1.565;stroke-linecap:square;stroke-linejoin:round;paint-order:markers stroke fill"
       id="rect3638"
       width="16.179264"
       height="16.179264"
       x="-200.84818"
       y="67.766396" /></g><g
     inkscape:groupmode="layer"
     id="layer2"
     inkscape:label="Placeholder"
     style="display:inline" /><g
     inkscape:groupmode="layer"
     id="layer4"
     inkscape:label="Circles"
     style="display:none"><circle
       style="display:inline;opacity:1;fill:#93aca7;stroke-width:1.565;stroke-linecap:square;stroke-linejoin:round;paint-order:markers stroke fill"
       id="circle3664"
       cx="33.866669"
       cy="33.866669"
       r="32.569653" /><circle
       style="display:inline;fill:#93aca7;stroke-width:1.565;stroke-linecap:square;stroke-linejoin:round;paint-order:markers stroke fill"
       id="use3696"
       cx="101.6"
       cy="33.866665"
       r="32.569653" /><circle
       style="display:inline;fill:#93aca7;stroke-width:1.565;stroke-linecap:square;stroke-linejoin:round;paint-order:markers stroke fill"
       id="use3698"
       cx="169.33333"
       cy="33.866665"
       r="32.569653" /><circle
       style="display:inline;fill:#93aca7;stroke-width:1.565;stroke-linecap:square;stroke-linejoin:round;paint-order:markers stroke fill"
       id="use3700"
       cx="237.06667"
       cy="33.866665"
       r="32.569653" /><circle
       style="display:inline;opacity:1;fill:#93aca7;stroke-width:1.565;stroke-linecap:square;stroke-linejoin:round;paint-order:markers stroke fill"
       id="circle3722"
       cx="33.866665"
       cy="101.6"
       r="32.569653" /><circle
       style="display:inline;fill:#93aca7;stroke-width:1.565;stroke-linecap:square;stroke-linejoin:round;paint-order:markers stroke fill"
       id="use3726"
       cx="101.6"
       cy="101.6"
       r="32.569653" /><circle
       style="display:inline;fill:#93aca7;stroke-width:1.565;stroke-linecap:square;stroke-linejoin:round;paint-order:markers stroke fill"
       id="use3728"
       cx="169.33333"
       cy="101.6"
       r="32.569653" /><circle
       style="display:inline;fill:#93aca7;stroke-width:1.565;stroke-linecap:square;stroke-linejoin:round;paint-order:markers stroke fill"
       id="use3730"
       cx="237.06667"
       cy="101.6"
       r="32.569653" /><circle
       style="display:inline;opacity:1;fill:#93aca7;stroke-width:1.565;stroke-linecap:square;stroke-linejoin:round;paint-order:markers stroke fill"
       id="circle3752"
       cx="33.866665"
       cy="169.33333"
       r="32.569653" /><circle
       style="display:inline;fill:#93aca7;stroke-width:1.565;stroke-linecap:square;stroke-linejoin:round;paint-order:markers stroke fill"
       id="use3756"
       cx="101.6"
       cy="169.33333"
       r="32.569653" /><circle
       style="display:inline;fill:#93aca7;stroke-width:1.565;stroke-linecap:square;stroke-linejoin:round;paint-order:markers stroke fill"
       id="use3758"
       cx="169.33333"
       cy="169.33333"
       r="32.569653" /><circle
       style="display:inline;fill:#93aca7;stroke-width:1.565;stroke-linecap:square;stroke-linejoin:round;paint-order:markers stroke fill"
       id="use3760"
       cx="237.06667"
       cy="169.33333"
       r="32.569653" /><circle
       style="display:inline;opacity:1;fill:#93aca7;stroke-width:1.565;stroke-linecap:square;stroke-linejoin:round;paint-order:markers stroke fill"
       id="circle3782"
       cx="33.866665"
       cy="238.36368"
       r="32.569653" /><circle
       style="display:inline;fill:#93aca7;stroke-width:1.565;stroke-linecap:square;stroke-linejoin:round;paint-order:markers stroke fill"
       id="use3786"
       cx="101.6"
       cy="238.36368"
       r="32.569653" /><circle
       style="display:inline;fill:#93aca7;stroke-width:1.565;stroke-linecap:square;stroke-linejoin:round;paint-order:markers stroke fill"
       id="use3788"
       cx="169.33333"
       cy="238.36368"
       r="32.569653" /><circle
       style="display:inline;fill:#93aca7;stroke-width:1.565;stroke-linecap:square;stroke-linejoin:round;paint-order:markers stroke fill"
       id="use3790"
       cx="237.06667"
       cy="238.36368"
       r="32.569653" /></g><g
     inkscape:groupmode="layer"
     id="layer5"
     inkscape:label="Designs"><path
       id="circle907"
       style="display:inline;opacity:1;fill:#ffffff;stroke-width:1.20874;stroke-linecap:square;stroke-linejoin:round;paint-order:markers stroke fill"
       d="M 11.698,238.3417 A 25.155378,25.155378 0 0 0 33.866666,251.64497 25.155378,25.155378 0 0 0 56.035332,238.3417 Z" /><use
       x="0"
       y="0"
       xlink:href="#g905"
       inkscape:transform-center-x="1.2164199e-06"
       inkscape:transform-center-y="-6.7536856"
       id="use3926"
       transform="translate(-68.207056)" /><path
       id="path3928"
       style="display:inline;opacity:1;fill:#ffffff;stroke-width:1.20874;stroke-linecap:square;stroke-linejoin:round;paint-order:markers stroke fill"
       d="m -80.171048,101.34852 c 4.371066,-8.183064 12.891341,-13.296025 22.168666,-13.303267 6.878856,0.0054 13.341503,2.817748 18.00515,7.607332 11.938598,12.268675 -20.182545,-3.674024 -40.173816,5.695935 z"
       sodipodi:nodetypes="cccc" /><path
       id="path3979"
       style="display:inline;opacity:1;fill:#ffffff;stroke-width:1.20874;stroke-linecap:square;stroke-linejoin:round;paint-order:markers stroke fill"
       d="m 80.2191,250.47148 c 4.371066,-8.18307 12.891341,-13.29603 22.16867,-13.30327 6.87885,0.005 13.3415,2.81775 18.00515,7.60733 11.93859,12.26868 -20.18255,-3.67402 -40.17382,5.69594 z"
       sodipodi:nodetypes="cccc" /><path
       id="path3981"
       style="display:inline;opacity:1;fill:#ffffff;stroke-width:1.20874;stroke-linecap:square;stroke-linejoin:round;paint-order:markers stroke fill"
       d="m -56.509056,51.318414 a 25.155378,25.155378 0 0 1 22.168666,-13.30327 25.155378,25.155378 0 0 1 22.168666,13.30327 z" /><path
       id="path3983"
       style="display:inline;opacity:1;fill:#ffffff;stroke-width:1.20874;stroke-linecap:square;stroke-linejoin:round;paint-order:markers stroke fill"
       d="m 147.16466,249.22705 a 25.155378,25.155378 0 0 1 22.16867,-13.30327 25.155378,25.155378 0 0 1 22.16867,13.30327 z" /><g
       id="g18133"
       inkscape:transform-center-x="0.20044125"
       inkscape:transform-center-y="-1.6231824"><path
         style="display:inline;fill:#000000;fill-rule:nonzero;stroke:none;stroke-width:0.264583px;stroke-linecap:butt;stroke-linejoin:miter;stroke-opacity:1"
         d="m 143.94268,25.137329 c 0.36678,0.369879 1.05877,1.01461 2.37328,1.410556 1.01498,0.305726 2.15826,0.383388 3.23552,0.25947 2.26535,-0.261583 4.66047,-1.339069 6.91781,-2.690453 0.17708,-0.106012 0.35345,-0.21377 0.52902,-0.323033 2.02322,-1.259129 3.93235,-2.771378 5.34882,-4.370703 0.37634,-0.424928 0.70475,-0.841566 0.98378,-1.245264 0.32397,-0.468699 0.60714,-0.970378 0.83197,-1.47398 0.55636,-1.246216 0.59587,-2.119867 0.60066,-2.589811 -0.21402,0.439153 -0.66315,1.091166 -1.51774,1.984607 -0.35409,0.370179 -0.71279,0.716818 -1.09506,1.083261 -0.3233,0.309905 -0.67589,0.638498 -1.06687,0.985314 -1.48692,1.318952 -3.25128,2.647523 -5.19889,3.773832 -0.16643,0.09625 -0.33378,0.190333 -0.5018,0.282267 -2.14497,1.173678 -4.35819,1.971614 -6.23084,2.514083 -0.91592,0.265317 -1.79803,0.510507 -2.71156,0.617628 -1.16527,0.136639 -1.98227,-0.01551 -2.4981,-0.217774 z"
         id="path16665"
         sodipodi:nodetypes="cc"
         inkscape:path-effect="#path-effect16671"
         inkscape:original-d="m 143.94268,25.137329 c 5.56284,3.65774 19.45302,-5.229153 20.82086,-11.023218"
         inkscape:transform-center-x="14.0613"
         inkscape:transform-center-y="-6.6904767" /><use
         x="0"
         y="0"
         xlink:href="#path16665"
         inkscape:transform-center-x="-14.0613"
         inkscape:transform-center-y="-6.6904767"
         id="use16673"
         transform="matrix(-1,0,0,1,338.26578,0)"
         style="display:inline" /><g
         id="g16661"
         transform="matrix(1.2924509,0,0,1.2924509,125.3416,-0.81332599)"
         inkscape:transform-center-x="1.2164199e-06"
         inkscape:transform-center-y="-6.7536856"
         style="display:inline"><g
           id="g16657"><g
             id="g16653"><circle
               style="opacity:1;fill:#000000;stroke-width:0.15217;stroke-linecap:square;stroke-linejoin:round;paint-order:markers stroke fill"
               id="circle16651"
               cx="22.492502"
               cy="21.853394"
               r="3.1668539" /></g><circle
             style="fill:#ffffff;fill-opacity:1;stroke-width:1.13351;stroke-linecap:square;stroke-miterlimit:5.1;paint-order:markers stroke fill"
             id="circle16655"
             cx="20.838152"
             cy="20.350439"
             r="0.60838562" /></g><use
           x="0"
           y="0"
           xlink:href="#g3577"
           id="use16659"
           transform="translate(23.089837)" /></g><path
         id="path16675"
         style="display:inline;opacity:1;fill:#ffffff;stroke-width:1.20874;stroke-linecap:square;stroke-linejoin:round;paint-order:markers stroke fill"
         d="m 147.95243,49.300539 c 4.37107,-8.18307 12.89134,-13.29603 22.16867,-13.30327 6.87885,0.005 13.3415,2.81775 18.00515,7.60733 11.93859,12.26868 -20.18255,-3.67402 -40.17382,5.69594 z"
         sodipodi:nodetypes="cccc" /><use
         x="0"
         y="0"
         xlink:href="#use16691"
         inkscape:transform-center-x="20.293257"
         inkscape:transform-center-y="-3.5491339"
         id="use16697"
         transform="rotate(180,101.9996,44.310727)" /><use
         x="0"
         y="0"
         xlink:href="#use16691"
         inkscape:transform-center-x="-20.293255"
         inkscape:transform-center-y="-3.5491339"
         id="use16699"
         transform="matrix(1,0,0,-1,135.99446,87.937761)" /><path
         style="fill:#000000;fill-rule:nonzero;stroke:none;stroke-width:0.264583px;stroke-linecap:butt;stroke-linejoin:miter;stroke-opacity:1"
         d="m 159.21115,29.818615 c -0.033,0.04199 -0.13294,0.08181 -0.20105,0.243724 -0.11902,0.282925 -0.24988,1.007018 -0.53133,1.769928 -0.21434,0.581018 -0.48821,1.134564 -0.84058,1.654251 -0.22479,0.331547 -0.46449,0.623642 -0.70546,0.873402 -0.48361,0.501261 -1.04574,0.955133 -1.68237,1.355941 -0.89097,0.560937 -1.7428,0.900729 -2.29113,1.09144 -0.20246,0.07041 -0.37349,0.12385 -0.49509,0.160438 -0.4118,0.123909 -0.52305,0.150581 -0.52205,0.15658 7e-5,4.08e-4 0.078,0.02014 0.54073,-0.08602 0.1261,-0.02893 0.29868,-0.0719 0.50774,-0.133052 0.56287,-0.164663 1.4368,-0.474923 2.36306,-1.019669 0.6609,-0.388684 1.25165,-0.839755 1.76181,-1.345332 0.25473,-0.252448 0.52001,-0.53734 0.77917,-0.865684 0.40484,-0.512892 0.74561,-1.070641 1.00371,-1.675096 0.34376,-0.805058 0.47396,-1.558432 0.44256,-1.888086 -0.0171,-0.179932 -0.10834,-0.246341 -0.12972,-0.292762 z"
         id="path16701"
         inkscape:path-effect="#path-effect16703"
         inkscape:original-d="m 159.21115,29.818615 c -0.73235,6.211337 -7.26906,7.305704 -7.26906,7.305704" /><use
         x="0"
         y="0"
         xlink:href="#path16701"
         id="use16705"
         transform="matrix(-1,0,0,1,338.72805,0)" /></g><g
       id="g18118"
       inkscape:transform-center-x="0.24259875"
       inkscape:transform-center-y="1.1102998"><path
         style="display:inline;fill:#000000;fill-rule:nonzero;stroke:none;stroke-width:0.264583px;stroke-linecap:butt;stroke-linejoin:miter;stroke-opacity:1"
         d="m 76.434267,19.273295 c 0.306464,-0.281604 0.773919,-0.635406 1.356892,-0.839821 0.41108,-0.144142 0.829985,-0.197544 1.262293,-0.159873 0.399916,0.03485 0.794872,0.146029 1.189634,0.311802 0.300246,0.126082 0.59443,0.281269 0.880852,0.450859 0.111453,0.06599 0.224459,0.136527 0.339109,0.211623 0.818003,0.535792 1.677451,1.275269 2.605387,2.175008 0.905481,0.877967 1.80153,1.834498 2.70953,2.78246 0.175284,0.182998 0.349485,0.364049 0.52278,0.542522 0.715418,0.736792 1.454362,1.474489 2.166693,2.109465 0.442246,0.394221 0.876871,0.751405 1.300426,1.05458 0.436172,0.312206 0.861891,0.568091 1.275251,0.749676 0.407875,0.179175 0.810965,0.289023 1.198837,0.303119 0.03004,0.0011 0.06026,0.0016 0.09061,0.0014 0.212325,-0.0013 0.428298,-0.03491 0.635792,-0.110879 0.203403,-0.07447 0.384809,-0.184595 0.540509,-0.326114 0.157099,-0.142791 0.279011,-0.309153 0.374564,-0.487208 0.100932,-0.188079 0.173319,-0.390808 0.227476,-0.594885 0.143331,-0.540113 0.17643,-1.174152 0.196969,-1.550897 -0.129503,0.380983 -0.364192,0.920686 -0.696526,1.296639 -0.119183,0.134826 -0.24102,0.237237 -0.361043,0.304791 -0.112809,0.06349 -0.214138,0.09073 -0.302172,0.09436 -0.08532,0.0035 -0.15622,-0.01501 -0.219718,-0.03917 -0.06111,-0.02325 -0.134511,-0.05981 -0.203205,-0.0951 -0.01052,-0.0054 -0.02124,-0.01095 -0.03211,-0.01659 -0.141265,-0.0734 -0.32793,-0.184623 -0.573856,-0.366952 -0.251017,-0.186103 -0.53816,-0.427026 -0.878561,-0.741358 -0.328953,-0.303762 -0.68326,-0.653407 -1.074005,-1.051684 -0.626374,-0.638448 -1.320265,-1.37597 -2.038771,-2.114581 -0.173323,-0.178173 -0.350772,-0.358919 -0.531327,-0.54058 -0.924653,-0.93032 -1.93796,-1.892354 -2.979096,-2.732423 -1.072898,-0.865697 -2.150076,-1.581853 -3.210009,-2.045475 -0.149721,-0.06549 -0.298508,-0.125678 -0.446321,-0.180394 -0.379659,-0.140538 -0.781993,-0.251217 -1.194492,-0.312553 -0.547009,-0.08134 -1.081624,-0.07144 -1.589478,0.04327 -0.544833,0.123065 -1.005772,0.354517 -1.397373,0.646255 -0.542243,0.403965 -0.916994,0.900066 -1.145543,1.228735 z"
         id="path16627"
         sodipodi:nodetypes="cc"
         inkscape:path-effect="#path-effect16629"
         inkscape:original-d="m 76.434267,19.273295 c 6.429931,-7.366287 17.02021,16.204871 18.873605,6.622813"
         inkscape:transform-center-x="15.48633"
         inkscape:transform-center-y="-3.9601559" /><use
         x="0"
         y="0"
         xlink:href="#path16627"
         inkscape:transform-center-x="-15.486334"
         inkscape:transform-center-y="-3.9601559"
         id="use16637"
         transform="matrix(-1,0,0,1,202.7148,0)"
         style="display:inline" /><g
         id="g3995"
         transform="matrix(1.2924509,0,0,1.2924509,57.608303,-0.81332599)"
         inkscape:transform-center-x="1.2164199e-06"
         inkscape:transform-center-y="-6.7536856"
         style="display:inline"><g
           id="g3991"><g
             id="g3987"><circle
               style="opacity:1;fill:#000000;stroke-width:0.15217;stroke-linecap:square;stroke-linejoin:round;paint-order:markers stroke fill"
               id="circle3985"
               cx="22.492502"
               cy="21.853394"
               r="3.1668539" /></g><circle
             style="fill:#ffffff;fill-opacity:1;stroke-width:1.13351;stroke-linecap:square;stroke-miterlimit:5.1;paint-order:markers stroke fill"
             id="circle3989"
             cx="20.838152"
             cy="20.350439"
             r="0.60838562" /></g><use
           x="0"
           y="0"
           xlink:href="#g3577"
           id="use3993"
           transform="translate(23.089837)" /></g><path
         id="path16679"
         style="display:inline;opacity:1;fill:#ffffff;stroke-width:1.20874;stroke-linecap:square;stroke-linejoin:round;paint-order:markers stroke fill"
         d="m 79.431332,39.34884 c 4.371065,8.183065 12.891336,13.296025 22.168658,13.30327 9.27733,-0.0072 17.7976,-5.120201 22.16867,-13.30327 0,0 -22.16866,11.451159 -44.337328,0 z"
         sodipodi:nodetypes="cccc" /><use
         x="0"
         y="0"
         xlink:href="#path16681"
         inkscape:transform-center-x="20.293257"
         inkscape:transform-center-y="3.549135"
         id="use16693"
         transform="translate(67.733204)" /><use
         x="0"
         y="0"
         xlink:href="#use16691"
         inkscape:transform-center-x="-20.293257"
         inkscape:transform-center-y="3.549135"
         id="use16695"
         transform="translate(67.733204)" /><g
         id="g16717"
         transform="translate(0.21950347)"><path
           style="fill:#000000;fill-rule:nonzero;stroke:none;stroke-width:0.264583px;stroke-linecap:butt;stroke-linejoin:miter;stroke-opacity:1"
           d="m 99.029694,25.147506 c 0.0041,0.07113 0.01331,0.268128 0.01757,0.499709 0.0065,0.352692 4.02e-4,0.906174 -0.100094,1.479026 -0.08966,0.511066 -0.239076,0.953543 -0.450279,1.323501 -0.122138,0.213945 -0.256573,0.389009 -0.394867,0.533857 -0.09042,0.09471 -0.188966,0.183388 -0.29665,0.264863 -0.24565,0.185862 -0.522203,0.32155 -0.825426,0.411358 -0.289285,0.08568 -0.582347,0.123473 -0.858041,0.132491 -0.295769,0.0097 -0.564008,-0.01406 -0.769344,-0.04265 -0.09484,-0.0132 -0.179164,-0.02785 -0.250083,-0.04178 -0.381171,-0.07486 -0.514515,-0.133227 -0.514995,-0.131924 -4.8e-4,0.0013 0.131558,0.06159 0.511536,0.148224 0.07062,0.0161 0.15479,0.03405 0.249414,0.05122 0.204923,0.03718 0.473959,0.0735 0.774159,0.07627 0.279424,0.0026 0.58114,-0.02393 0.882204,-0.102597 0.315901,-0.08254 0.609034,-0.216789 0.868873,-0.409409 0.113811,-0.08437 0.217548,-0.177212 0.311671,-0.277039 0.14405,-0.152778 0.281042,-0.338036 0.402477,-0.562362 0.209497,-0.387002 0.348535,-0.845486 0.424063,-1.36365 0.08456,-0.580122 0.07461,-1.138926 0.05707,-1.490152 -0.01176,-0.23558 -0.03184,-0.424402 -0.03926,-0.498968 z"
           id="path16707"
           inkscape:path-effect="#path-effect16711"
           inkscape:original-d="m 99.029694,25.147506 c 0.490092,6.247244 -4.442207,4.428461 -4.442207,4.428461"
           sodipodi:nodetypes="cc" /><use
           x="0"
           y="0"
           xlink:href="#path16707"
           id="use16713"
           transform="matrix(-1,0,0,1,202.76099,0)" /></g></g><g
       id="g18146"
       inkscape:transform-center-x="0.42298875"
       inkscape:transform-center-y="1.2421893"><g
         id="g3676"
         style="display:inline"
         transform="translate(203.2)"><g
           id="g3672"
           transform="matrix(1.2924509,0,0,1.2924509,-10.125028,-1.1314543)"><g
             id="g3668"><g
               id="g3795"
               transform="rotate(-45,22.532322,21.831124)"><rect
                 style="opacity:1;fill:#000000;fill-opacity:1;stroke-width:1.21088;stroke-linecap:square;stroke-linejoin:round;paint-order:markers stroke fill"
                 id="rect3737"
                 width="2.2162886"
                 height="8.6701174"
                 x="21.380274"
                 y="17.483656" /><rect
                 style="opacity:1;fill:#000000;fill-opacity:1;stroke-width:1.21088;stroke-linecap:square;stroke-linejoin:round;paint-order:markers stroke fill"
                 id="rect3791"
                 width="2.2162886"
                 height="8.6701174"
                 x="20.710569"
                 y="-26.823477"
                 transform="rotate(90)" /></g></g><g
             id="g3931"
             transform="translate(23.089837)"><g
               id="g3929"
               transform="rotate(-45,22.532322,21.831124)"><rect
                 style="opacity:1;fill:#000000;fill-opacity:1;stroke-width:1.21088;stroke-linecap:square;stroke-linejoin:round;paint-order:markers stroke fill"
                 id="rect3925"
                 width="2.2162886"
                 height="8.6701174"
                 x="21.380274"
                 y="17.483656" /><rect
                 style="opacity:1;fill:#000000;fill-opacity:1;stroke-width:1.21088;stroke-linecap:square;stroke-linejoin:round;paint-order:markers stroke fill"
                 id="rect3927"
                 width="2.2162886"
                 height="8.6701174"
                 x="20.710569"
                 y="-26.823477"
                 transform="rotate(90)" /></g></g></g><g
           id="g3668-3"
           style="display:inline"
           transform="matrix(1.2924509,0,0,1.2924509,-10.125028,-1.1314539)"><g
             id="g3795-6"
             transform="rotate(-45,22.532322,21.831124)"><rect
               style="opacity:1;fill:#000000;fill-opacity:1;stroke-width:1.21088;stroke-linecap:square;stroke-linejoin:round;paint-order:markers stroke fill"
               id="rect3737-7"
               width="2.2162886"
               height="8.6701174"
               x="21.380274"
               y="17.483656" /><rect
               style="opacity:1;fill:#000000;fill-opacity:1;stroke-width:1.21088;stroke-linecap:square;stroke-linejoin:round;paint-order:markers stroke fill"
               id="rect3791-5"
               width="2.2162886"
               height="8.6701174"
               x="20.710569"
               y="-26.823477"
               transform="rotate(90)" /></g></g></g><g
         id="g925"><path
           style="fill:#000000;fill-rule:nonzero;stroke:none;stroke-width:0.264583px;stroke-linecap:butt;stroke-linejoin:miter;stroke-opacity:1"
           d="m 289.73094,47.228417 c 1.07536,-0.583302 2.05941,-0.999256 2.88325,-1.348819 -0.003,0.0012 0.0654,-0.02775 0.0626,-0.02657 0.71382,-0.302694 1.3039,-0.548019 1.84099,-0.727217 0.0797,-0.02661 0.15771,-0.05141 0.23393,-0.07449 0.58284,-0.176466 1.06568,-0.252507 1.47834,-0.264883 0.41785,-0.01253 0.7731,0.03997 1.09376,0.127827 0.32749,0.08973 0.62679,0.218517 0.92782,0.362804 0.30583,0.146593 0.61296,0.309294 0.94687,0.456998 0.34062,0.150673 0.7057,0.283855 1.12222,0.366793 0.42398,0.08442 0.89032,0.114532 1.42477,0.06509 1.07508,-0.09951 1.83449,-0.38148 2.40991,-0.725827 0.29481,-0.176421 0.53984,-0.368444 0.7508,-0.557564 0.21329,-0.191209 0.39725,-0.384683 0.55777,-0.554047 0.16858,-0.177855 0.30867,-0.3261 0.45219,-0.451961 0.14344,-0.125793 0.27747,-0.217217 0.41897,-0.276967 0.0717,-0.03025 0.1467,-0.053 0.22745,-0.06742 0.0817,-0.01459 0.17122,-0.02099 0.27103,-0.01699 0.20385,0.0082 0.4513,0.05981 0.75961,0.174477 0.27275,0.101303 0.55876,0.139962 0.84429,0.142529 0.29125,0.0026 0.59136,-0.03234 0.88795,-0.08322 0.6182,-0.106068 1.24686,-0.28115 1.8599,-0.402583 0.65122,-0.128996 1.2616,-0.196579 1.84111,-0.116986 0.2981,0.04094 0.58394,0.120527 0.85794,0.248498 0.28142,0.131441 0.55299,0.315176 0.81325,0.563916 0.2684,0.256508 0.46321,0.517889 0.60844,0.769479 0.14969,0.259322 0.25018,0.514398 0.3225,0.751521 0.0746,0.244549 0.12077,0.47546 0.15885,0.679481 0.0194,0.104072 0.0374,0.204982 0.0559,0.296778 0.0188,0.09319 0.0393,0.183672 0.0649,0.266075 0.0257,0.08276 0.0597,0.168335 0.10971,0.244537 0.0259,0.03943 0.0571,0.07804 0.0953,0.112834 0.0388,0.03542 0.0834,0.0656 0.13387,0.08837 0.0509,0.02295 0.10393,0.03661 0.15764,0.04243 0.0537,0.0058 0.1065,0.0037 0.15776,-0.0038 0.10163,-0.01471 0.20473,-0.05141 0.30719,-0.09956 0.10552,-0.0496 0.22059,-0.116246 0.34559,-0.19755 0.12785,-0.08315 0.26997,-0.184177 0.4273,-0.302538 0.32301,-0.243016 0.72035,-0.566906 1.1981,-0.969572 1.0188,-0.858689 1.72667,-1.622902 2.22441,-2.218568 0.26824,-0.321015 0.48792,-0.608307 0.66576,-0.846905 0.18825,-0.252558 0.33624,-0.458801 0.45688,-0.615297 0.0631,-0.08185 0.11727,-0.148436 0.16569,-0.202537 0.05,-0.05585 0.0897,-0.09374 0.12177,-0.118931 0.0329,-0.02589 0.0509,-0.03298 0.056,-0.03453 0.002,-6.35e-4 0.002,-1.93e-4 -0.001,-6.2e-5 -0.002,1.13e-4 -0.005,-3.02e-4 -0.005,-3.09e-4 -1.5e-4,-7e-6 0.003,6.32e-4 0.009,0.0041 0.007,0.0036 0.0171,0.0099 0.0309,0.02057 0.029,0.02259 0.0666,0.05928 0.1137,0.116122 0.0994,0.119964 0.21832,0.301519 0.36503,0.547417 0.14484,0.242791 0.20887,0.426369 0.23383,0.561873 0.0132,0.07152 0.0158,0.131552 0.0127,0.18179 -0.003,0.05202 -0.0126,0.09638 -0.0252,0.134653 -0.0264,0.08032 -0.0708,0.146073 -0.1206,0.20406 -0.0268,0.03121 -0.0553,0.06018 -0.0844,0.08876 -0.0276,0.02706 -0.0638,0.0614 -0.0922,0.091 -0.0158,0.01641 -0.0329,0.03515 -0.0492,0.05561 -0.0165,0.02065 -0.0352,0.04672 -0.0515,0.07766 -0.0171,0.03247 -0.0335,0.07355 -0.0402,0.123804 -0.003,0.02576 -0.004,0.05297 -0.001,0.08109 0.003,0.0285 0.01,0.05608 0.0192,0.08231 0.0197,0.0534 0.0501,0.09486 0.0797,0.125727 0.0298,0.03104 0.062,0.0547 0.0909,0.07278 0.0581,0.03638 0.1265,0.06491 0.19456,0.08897 0.0736,0.02604 0.16137,0.05179 0.26087,0.07802 0.10461,0.02758 0.22682,0.05688 0.36521,0.08827 0.29176,0.06617 0.67768,0.146531 1.13617,0.240389 1.00523,0.20579 1.83859,0.3449 2.49435,0.444512 0.7066,0.107333 1.24084,0.17442 1.737,0.243407 0.42503,0.0591 0.79357,0.115897 1.05909,0.18986 0.11864,0.03305 0.21682,0.06939 0.29538,0.111154 0.0705,0.03747 0.126,0.07966 0.16783,0.130176 0.0936,0.118139 0.18075,0.273892 0.26839,0.481302 0.0767,0.181478 0.14181,0.372165 0.2205,0.605671 0.0635,0.188567 0.13897,0.414362 0.22295,0.614158 0.0762,0.181352 0.16816,0.363539 0.28512,0.510898 -0.0899,-0.163052 -0.1522,-0.354586 -0.20032,-0.539651 -0.0533,-0.205111 -0.0971,-0.435573 -0.13489,-0.631022 -0.0464,-0.239742 -0.0873,-0.446453 -0.14083,-0.646188 -0.0614,-0.228882 -0.13343,-0.424155 -0.2275,-0.589288 -0.0634,-0.108986 -0.15066,-0.195868 -0.25093,-0.267011 -0.1087,-0.07712 -0.23588,-0.137934 -0.37082,-0.188552 -0.29848,-0.111965 -0.69416,-0.194481 -1.11638,-0.269854 -0.48429,-0.08646 -1.04489,-0.170924 -1.73048,-0.284608 -0.64425,-0.106829 -1.4771,-0.251851 -2.46666,-0.457282 -0.4585,-0.09518 -0.83955,-0.175375 -1.12462,-0.240402 -0.13513,-0.03082 -0.25057,-0.05865 -0.34668,-0.08399 -0.0925,-0.0244 -0.16413,-0.04572 -0.21778,-0.06457 -0.0502,-0.01764 -0.0816,-0.03364 -0.0852,-0.03576 -0.002,-0.001 0.004,0.0015 0.0149,0.01343 0.0109,0.01138 0.0283,0.03317 0.0405,0.06641 0.006,0.01632 0.0102,0.03388 0.0121,0.0522 0.002,0.01806 0.001,0.03506 -7.3e-4,0.05044 -0.004,0.02983 -0.0131,0.04978 -0.0186,0.06014 -0.005,0.01012 -0.008,0.01207 -0.006,0.0096 0.002,-0.0028 0.007,-0.0087 0.0161,-0.01832 0.0206,-0.02191 0.0416,-0.04173 0.0803,-0.08037 0.033,-0.03295 0.0739,-0.07486 0.11534,-0.12379 0.0777,-0.09184 0.16786,-0.220376 0.22311,-0.391835 0.0262,-0.08145 0.0445,-0.172026 0.0501,-0.27231 0.005,-0.09658 -8.6e-4,-0.200894 -0.022,-0.3136 -0.0399,-0.21281 -0.13301,-0.456841 -0.30341,-0.741422 -0.14873,-0.248381 -0.28607,-0.460803 -0.41452,-0.615203 -0.0621,-0.07464 -0.12814,-0.143197 -0.19939,-0.198286 -0.0353,-0.02729 -0.0733,-0.05243 -0.11433,-0.07357 -0.0406,-0.02092 -0.0844,-0.0381 -0.13139,-0.0494 -0.0466,-0.0112 -0.0947,-0.01621 -0.14368,-0.01422 -0.0483,0.002 -0.0948,0.01059 -0.13942,0.02458 -0.0863,0.0271 -0.16236,0.07336 -0.22942,0.126193 -0.0653,0.05148 -0.12831,0.114085 -0.19034,0.183408 -0.0608,0.06796 -0.124,0.146064 -0.19108,0.233034 -0.12979,0.168274 -0.27751,0.374232 -0.46243,0.622001 -0.17459,0.23392 -0.3879,0.512386 -0.64763,0.822723 -0.48105,0.574773 -1.16746,1.315021 -2.15925,2.149442 -0.47591,0.400404 -0.86435,0.715976 -1.17538,0.949129 -0.15115,0.113302 -0.28276,0.206199 -0.397,0.280087 -0.11262,0.07284 -0.20487,0.124918 -0.27995,0.159827 -0.0749,0.03482 -0.12348,0.04819 -0.15181,0.05199 -0.013,0.0018 -0.0189,0.0011 -0.0193,9.13e-4 -4e-4,-1.52e-4 0.005,5.89e-4 0.0101,0.0029 0.006,0.0026 0.01,0.0056 0.0119,0.0071 0.001,0.0011 -6.4e-4,-5.76e-4 -0.005,-0.0077 -0.0102,-0.0161 -0.0253,-0.04734 -0.0426,-0.104801 -0.0168,-0.05558 -0.0326,-0.124476 -0.0495,-0.211371 -0.017,-0.08689 -0.0328,-0.178582 -0.0529,-0.289351 -0.0378,-0.208611 -0.0874,-0.464987 -0.17028,-0.74111 -0.0808,-0.269237 -0.19567,-0.565966 -0.36994,-0.870664 -0.16945,-0.296284 -0.39603,-0.601837 -0.70468,-0.898874 -0.302,-0.290632 -0.62385,-0.511778 -0.96363,-0.672253 -0.33053,-0.15611 -0.67237,-0.252169 -1.02192,-0.301872 -0.67329,-0.09573 -1.3581,-0.01759 -2.03409,0.112733 -0.64161,0.123691 -1.27254,0.294674 -1.84661,0.389546 -0.278,0.04594 -0.53945,0.07332 -0.78107,0.06942 -0.23596,-0.0038 -0.44827,-0.0374 -0.6374,-0.109418 -0.3487,-0.131876 -0.6605,-0.204765 -0.94617,-0.218646 -0.14104,-0.0069 -0.2752,6.99e-4 -0.40377,0.02232 -0.12736,0.02142 -0.247,0.05627 -0.36054,0.102763 -0.22372,0.09162 -0.41572,0.225118 -0.59236,0.376861 -0.17151,0.147333 -0.33468,0.317418 -0.49927,0.487915 -0.16312,0.16898 -0.33231,0.343405 -0.52533,0.513592 -0.18882,0.166479 -0.40221,0.330442 -0.65552,0.47954 -0.48864,0.287625 -1.15434,0.537229 -2.13857,0.623681 -0.47262,0.04149 -0.87421,0.01196 -1.2327,-0.06173 -0.35333,-0.07263 -0.66902,-0.188916 -0.97901,-0.328654 -0.30479,-0.137397 -0.60354,-0.29812 -0.92466,-0.454939 -0.31438,-0.153519 -0.65541,-0.305043 -1.04049,-0.413459 -0.38152,-0.107417 -0.80553,-0.172527 -1.29784,-0.160621 -0.48379,0.0117 -1.02905,0.0976 -1.66304,0.286643 -0.0829,0.0247 -0.16724,0.05118 -0.25324,0.07949 -0.57038,0.187762 -1.20758,0.460719 -1.88951,0.86246 -0.0201,0.01182 -0.0401,0.02374 -0.0603,0.03577 -0.80148,0.479332 -1.63746,1.126122 -2.61431,1.876774 z"
           id="path17763"
           inkscape:path-effect="#path-effect17765"
           inkscape:original-d="m 289.73094,47.228417 c 8.57424,-5.569939 7.92561,-1.02558 11.98482,-1.392102 4.05921,-0.366525 3.32979,-3.428422 5.98463,-2.432164 1.82919,0.686425 4.91558,-1.754188 7.19458,0.431996 2.27901,2.186183 -0.12504,4.955026 3.76977,1.675212 3.89482,-3.279815 3.38934,-5.326828 4.61295,-3.279815 1.22361,2.047012 -2.0994,1.451777 1.75057,2.24545 3.84997,0.793673 5.43987,0.68167 5.84446,1.293207 0.40458,0.611539 0.45496,1.715367 0.85025,2.30909"
           sodipodi:nodetypes="csssssssc" /><path
           style="fill:#ffffff;stroke:none;stroke-width:0.475001;stroke-linecap:square;stroke-miterlimit:5.1;paint-order:markers stroke fill"
           d="m 314.92036,50.261712 c -0.53764,-0.18397 -0.71276,-0.332124 -2.76073,-2.335586 -1.36708,-1.337363 -1.37962,-1.346483 -2.34904,-1.708568 -0.95698,-0.357441 -0.97765,-0.362138 -1.5875,-0.360778 -0.46957,0.0011 -0.56828,0.01146 -0.87643,0.09248 -0.75918,0.199599 -1.43776,0.523505 -3.10886,1.483945 -0.5548,0.318862 -1.19476,0.677526 -1.42213,0.797028 -1.29819,0.682292 -2.56294,1.090321 -3.52519,1.137282 -0.63984,0.03123 -0.98472,-0.09039 -1.37177,-0.483727 -0.27415,-0.278603 -0.45765,-0.583874 -0.93562,-1.556443 -0.41576,-0.845995 -0.62056,-1.183135 -0.90597,-1.491419 -0.33644,-0.3634 -0.68316,-0.572839 -1.1406,-0.68901 l -0.23988,-0.06092 0.23133,-0.06806 c 0.53325,-0.1569 0.76735,-0.187637 1.42194,-0.18669 0.84716,0.0013 1.02571,0.05018 2.16628,0.593998 1.05875,0.504809 1.41535,0.630481 2.06102,0.726352 1.03074,0.153054 2.36737,-0.07376 3.32703,-0.56456 0.5091,-0.260376 0.87053,-0.54675 1.54073,-1.22079 0.5079,-0.51082 0.6292,-0.615394 0.82616,-0.71224 0.21426,-0.105351 0.2523,-0.113233 0.52917,-0.109632 0.22416,0.0029 0.3723,0.02668 0.59597,0.09559 0.59731,0.184037 0.62091,0.188304 1.05833,0.191387 0.52404,0.0037 0.70002,-0.0231 1.91823,-0.292127 1.20469,-0.266033 1.53847,-0.315944 2.11667,-0.316518 0.63981,-5.29e-4 0.98653,0.07235 1.44953,0.305125 0.46275,0.232651 0.8708,0.588942 1.18611,1.035651 0.33088,0.468775 0.47157,0.831866 0.63899,1.649024 0.17959,0.876588 0.31467,1.081767 0.71218,1.081767 0.36077,0 0.89411,-0.335296 2.01592,-1.267359 1.45581,-1.209559 2.24672,-2.036922 3.35697,-3.511678 0.2602,-0.345612 0.51907,-0.672002 0.57528,-0.72531 l 0.1022,-0.09692 0.0842,0.0791 c 0.0988,0.09283 0.38586,0.532733 0.51729,0.792747 0.12466,0.246621 0.17288,0.489453 0.12931,0.65124 -0.0204,0.07594 -0.1138,0.216374 -0.23339,0.351089 -0.17689,0.199279 -0.19931,0.240263 -0.19931,0.364418 0,0.329825 0.19352,0.416341 1.60404,0.717138 1.1627,0.247949 2.40522,0.46351 3.91914,0.679921 1.56416,0.223591 1.96167,0.298373 2.18109,0.410313 0.23782,0.121327 0.37901,0.377065 0.67637,1.225105 0.0988,0.281657 0.19121,0.54187 0.20544,0.57825 0.0149,0.03813 -0.0638,-0.01482 -0.18582,-0.125037 -0.26895,-0.242906 -0.73245,-0.560948 -0.99983,-0.686062 -0.38287,-0.17916 -1.08746,-0.319754 -2.07671,-0.414396 -0.88865,-0.08501 -1.49005,-0.0296 -2.05971,0.189768 -0.33824,0.130254 -0.66157,0.350445 -1.04812,0.713777 -0.17281,0.162425 -0.36522,0.321672 -0.42759,0.353882 -0.17035,0.08797 -0.38916,0.04927 -0.76081,-0.134551 -0.24323,-0.120308 -0.36356,-0.206147 -0.54621,-0.389644 -0.24578,-0.246906 -0.36727,-0.447712 -0.6103,-1.0087 -0.22491,-0.519176 -0.37819,-0.665218 -0.6978,-0.664869 -0.43312,5.29e-4 -0.76174,0.260559 -2.38125,1.884585 -1.36784,1.371658 -1.83155,1.800659 -2.43825,2.255737 -0.9889,0.741775 -1.63977,0.956485 -2.2581,0.744903 z"
           id="path920" /><path
           style="fill:#000000;fill-rule:nonzero;stroke:none;stroke-width:0.264583px;stroke-linecap:butt;stroke-linejoin:miter;stroke-opacity:1"
           d="m 289.73094,47.228417 c 0.56896,-0.285399 1.0622,-0.421989 1.56455,-0.693012 0.45093,-0.243284 0.85861,-0.435973 1.22789,-0.584419 0.7327,-0.294538 1.30705,-0.412002 1.7635,-0.409956 0.22738,0.001 0.42515,0.03169 0.59911,0.08465 0.17375,0.0529 0.32659,0.128903 0.4637,0.223272 0.13737,0.09456 0.26094,0.208945 0.37464,0.340096 0.11389,0.131363 0.21758,0.279191 0.31508,0.440143 0.19661,0.324573 0.36075,0.689551 0.53448,1.069951 0.17072,0.37382 0.35133,0.763948 0.57435,1.10759 0.11241,0.173191 0.23775,0.33814 0.38144,0.486444 0.14398,0.148603 0.30664,0.280751 0.49322,0.387632 0.18691,0.107068 0.39476,0.187 0.62703,0.2337 0.23189,0.04662 0.48484,0.05947 0.76188,0.03552 1.0576,-0.09127 2.04178,-0.418219 2.95799,-0.833426 0.9135,-0.413974 1.77189,-0.921894 2.56576,-1.375513 0.39924,-0.228121 0.78212,-0.4426 1.15343,-0.629231 0.37128,-0.186613 0.72594,-0.342781 1.06743,-0.455352 0.34129,-0.112509 0.66452,-0.179813 0.9736,-0.192108 0.30755,-0.01223 0.60339,0.02986 0.89257,0.138826 0.23009,0.08679 0.4213,0.156502 0.58191,0.215475 0.16183,0.05942 0.29018,0.107064 0.4001,0.151495 0.10911,0.0441 0.19577,0.08335 0.27323,0.124684 0.0766,0.04088 0.14718,0.0854 0.22235,0.141013 0.0761,0.05629 0.15855,0.125175 0.25896,0.216115 0.10065,0.09116 0.21651,0.201872 0.35993,0.341328 0.28553,0.277634 0.67532,0.664365 1.24759,1.211092 0.18716,0.178798 0.36396,0.35079 0.53379,0.513803 0.0878,0.08426 0.17329,0.165733 0.25716,0.244279 0.25047,0.234591 0.48704,0.443788 0.72169,0.618936 0.24114,0.179995 0.48233,0.325732 0.73624,0.425051 0.26253,0.10269 0.53272,0.153147 0.819,0.142759 0.2927,-0.01062 0.59103,-0.08446 0.90239,-0.21693 0.31923,-0.135826 0.65532,-0.334689 1.01549,-0.594069 0.75018,-0.540244 1.63515,-1.365989 2.69723,-2.475173 0.44585,-0.465724 0.79417,-0.814649 1.0734,-1.07526 0.29019,-0.270841 0.49714,-0.438039 0.64904,-0.535669 0.0773,-0.04971 0.13347,-0.07681 0.17276,-0.09073 0.0194,-0.0069 0.0329,-0.0099 0.0414,-0.0112 0.008,-0.0013 0.0112,-8.66e-4 0.0106,-9.46e-4 -0.001,-1.51e-4 -0.004,-6.44e-4 -0.007,-0.0021 -0.003,-0.0012 -0.005,-0.0026 -0.003,-0.0016 0.004,0.0028 0.017,0.01464 0.0384,0.04788 0.0216,0.03363 0.0451,0.07911 0.0726,0.140097 0.0279,0.06189 0.0565,0.131676 0.0896,0.211941 0.068,0.164582 0.14816,0.355309 0.26073,0.553616 0.1178,0.207541 0.26724,0.416501 0.46771,0.611088 0.21001,0.203845 0.46769,0.38371 0.78601,0.528645 0.21687,0.09893 0.40746,0.156352 0.58191,0.176751 0.0912,0.01066 0.17764,0.01116 0.26029,0.0022 0.085,-0.0092 0.16377,-0.0281 0.23718,-0.05436 0.0752,-0.02691 0.14336,-0.061 0.20543,-0.09853 0.0636,-0.03847 0.12177,-0.08113 0.17493,-0.124124 0.10603,-0.08576 0.21258,-0.190417 0.3013,-0.275264 0.10229,-0.09783 0.19755,-0.186144 0.30661,-0.270685 0.1151,-0.08922 0.23881,-0.168629 0.38094,-0.236535 0.15337,-0.07327 0.32746,-0.132718 0.53009,-0.174493 0.2208,-0.04552 0.47226,-0.06935 0.75971,-0.06785 0.0176,8.63e-4 0.0386,0.0021 0.0672,0.0041 0.029,0.002 0.0619,0.0047 0.0984,0.0078 0.079,0.0069 0.17,0.01599 0.26677,0.02657 0.22906,0.02504 0.48011,0.05721 0.70958,0.08944 0.28893,0.04059 0.55231,0.08226 0.77144,0.119432 0.12531,0.02126 0.24174,0.042 0.34497,0.06132 0.10615,0.01986 0.19989,0.03849 0.28138,0.05595 0.0372,0.0041 0.0871,0.01163 0.147,0.02304 0.0543,0.01035 0.12004,0.02452 0.19476,0.04335 0.12167,0.03066 0.28806,0.07898 0.47312,0.150866 0.14639,0.05686 0.32428,0.136225 0.49858,0.240905 0.14252,0.08559 0.29968,0.198315 0.43032,0.340456 -0.0819,-0.177779 -0.20269,-0.337492 -0.32329,-0.469874 -0.1457,-0.15992 -0.30607,-0.296366 -0.44007,-0.400212 -0.16821,-0.130364 -0.32939,-0.23599 -0.4461,-0.307984 -0.0725,-0.04475 -0.13806,-0.08277 -0.19367,-0.113648 -0.0613,-0.03405 -0.1152,-0.06197 -0.15989,-0.08349 -0.0958,-0.038 -0.20303,-0.07241 -0.31723,-0.103641 -0.11272,-0.03083 -0.23597,-0.05958 -0.3686,-0.08649 -0.23406,-0.0475 -0.5038,-0.0907 -0.80438,-0.129116 -0.23581,-0.03014 -0.4963,-0.05781 -0.73729,-0.07685 -0.10092,-0.008 -0.19894,-0.01444 -0.28564,-0.01842 -0.0402,-0.0018 -0.0784,-0.0032 -0.11353,-0.0038 -0.0333,-6.27e-4 -0.065,-6.84e-4 -0.0938,1.02e-4 -0.32405,0.0015 -0.61967,0.03153 -0.88924,0.09057 -0.2484,0.0544 -0.46952,0.132267 -0.66919,0.231201 -0.18526,0.09179 -0.34423,0.197758 -0.48716,0.31208 -0.1332,0.106531 -0.24527,0.214407 -0.34883,0.316502 -0.0977,0.09634 -0.17958,0.179032 -0.25998,0.246141 -0.0376,0.03139 -0.073,0.05772 -0.10744,0.0793 -0.0332,0.02082 -0.0654,0.03715 -0.0978,0.04931 -0.0313,0.01175 -0.0646,0.02035 -0.10179,0.02486 -0.0363,0.0044 -0.0787,0.0052 -0.12921,-2.05e-4 -0.0979,-0.0105 -0.22894,-0.04465 -0.40792,-0.125297 -0.25989,-0.117377 -0.46235,-0.259398 -0.62385,-0.415233 -0.1546,-0.149177 -0.27255,-0.311779 -0.36902,-0.480799 -0.0936,-0.164061 -0.16255,-0.325497 -0.23019,-0.488565 -0.0314,-0.07579 -0.0644,-0.156306 -0.0972,-0.228723 -0.0323,-0.07133 -0.0692,-0.145949 -0.11297,-0.214 -0.0428,-0.06656 -0.0988,-0.13755 -0.17441,-0.194931 -0.0379,-0.0288 -0.0808,-0.05411 -0.12882,-0.07352 -0.0478,-0.01928 -0.0981,-0.03167 -0.15036,-0.03692 -0.0516,-0.0052 -0.10285,-0.0032 -0.15332,0.0044 -0.0498,0.0075 -0.0989,0.0204 -0.14709,0.03738 -0.0941,0.03315 -0.19104,0.08389 -0.29208,0.148595 -0.19574,0.125358 -0.43271,0.319942 -0.73156,0.598129 -0.29104,0.270921 -0.64831,0.628254 -1.09785,1.096816 -1.05669,1.101606 -1.9132,1.894862 -2.62015,2.401454 -0.33755,0.241879 -0.63585,0.414758 -0.90386,0.527594 -0.2597,0.109338 -0.48708,0.160714 -0.69362,0.167063 -0.19974,0.0061 -0.38906,-0.02946 -0.58082,-0.105847 -0.18894,-0.07526 -0.38281,-0.191115 -0.59455,-0.351081 -0.20722,-0.156546 -0.42377,-0.349236 -0.66724,-0.57965 -0.081,-0.07664 -0.16416,-0.156687 -0.25059,-0.240487 -0.16703,-0.161937 -0.34369,-0.33536 -0.53269,-0.517401 -0.56732,-0.546459 -0.94919,-0.929246 -1.23774,-1.212878 -0.14356,-0.141117 -0.26523,-0.258861 -0.37384,-0.358351 -0.10887,-0.09972 -0.20741,-0.183696 -0.30532,-0.256846 -0.0988,-0.07382 -0.19521,-0.135306 -0.29975,-0.191345 -0.1037,-0.05559 -0.21239,-0.104179 -0.33404,-0.153187 -0.12089,-0.0487 -0.25861,-0.09939 -0.41965,-0.158004 -0.16222,-0.05904 -0.35039,-0.126944 -0.57763,-0.211767 -0.37453,-0.140094 -0.75416,-0.191336 -1.13637,-0.17477 -0.3807,0.0165 -0.76153,0.100123 -1.14116,0.22705 -0.37944,0.126864 -0.76253,0.298653 -1.14842,0.494893 -0.38586,0.196225 -0.77953,0.41951 -1.1788,0.65044 -0.80321,0.464552 -1.62948,0.959801 -2.50897,1.365448 -0.87671,0.404369 -1.79365,0.713277 -2.76562,0.805267 -0.23035,0.02186 -0.42984,0.01221 -0.60447,-0.02091 -0.17424,-0.03305 -0.32704,-0.09009 -0.46392,-0.166162 -0.13722,-0.07627 -0.26153,-0.173398 -0.37678,-0.289175 -0.11555,-0.116073 -0.22168,-0.25057 -0.3221,-0.400827 -0.20264,-0.30322 -0.3729,-0.656045 -0.55109,-1.032405 -0.17515,-0.369928 -0.35784,-0.762314 -0.57857,-1.114097 -0.11118,-0.177178 -0.23382,-0.347154 -0.37296,-0.502187 -0.13932,-0.155239 -0.29551,-0.295863 -0.47366,-0.413799 -0.17844,-0.118125 -0.37691,-0.212158 -0.59935,-0.275697 -0.22225,-0.06348 -0.46552,-0.0957 -0.73315,-0.09291 -0.53357,0.0056 -1.16499,0.150264 -1.92645,0.465068 -0.38534,0.159304 -0.80583,0.362942 -1.26597,0.615959 -0.50642,0.278461 -0.88414,0.672953 -1.36188,1.06506 z"
           id="path771"
           inkscape:path-effect="#path-effect775"
           inkscape:original-d="m 289.73094,47.228417 c 8.57424,-5.569939 5.5964,2.808371 9.65561,2.441849 4.05921,-0.366525 7.09022,-4.353824 9.74506,-3.357566 1.82919,0.686425 1.16702,0.285606 3.44602,2.47179 2.27901,2.186183 2.8916,3.240039 7.26325,-1.321492 3.52315,-3.676171 1.61717,-0.760346 3.98008,0.31161 1.54668,0.701668 1.06743,-1.173666 3.61849,-1.173666 0.35584,0 1.93044,0.172081 2.63012,0.391435 0.34348,0.10768 1.25811,0.493191 1.6534,1.086914"
           sodipodi:nodetypes="csssssssc" /></g></g><use
       x="0"
       y="0"
       xlink:href="#path17863"
       inkscape:transform-center-x="-15.45515"
       inkscape:transform-center-y="-15.684553"
       id="use17875"
       transform="matrix(-1,0,0,1,67.733333,25.897068)" /><g
       id="g18948"
       inkscape:transform-center-x="-2.9999996e-06"
       inkscape:transform-center-y="4.1284435"><g
         id="g905"
         transform="matrix(1.2924509,0,0,1.2924509,-10.12503,-0.81332599)"
         inkscape:transform-center-x="0.31260463"
         inkscape:transform-center-y="-6.3758463"
         style="display:inline"><g
           id="g3577"><g
             id="g1000"><circle
               style="opacity:1;fill:#000000;stroke-width:0.15217;stroke-linecap:square;stroke-linejoin:round;paint-order:markers stroke fill"
               id="circle899"
               cx="22.492502"
               cy="21.853394"
               r="3.1668539" /></g><circle
             style="fill:#ffffff;fill-opacity:1;stroke-width:1.13351;stroke-linecap:square;stroke-miterlimit:5.1;paint-order:markers stroke fill"
             id="path3520"
             cx="20.838152"
             cy="20.350439"
             r="0.60838562" /></g><use
           x="0"
           y="0"
           xlink:href="#g3577"
           id="use3579"
           transform="translate(23.089837)" /></g><path
         id="path16677"
         style="display:inline;fill:#ffffff;stroke-width:1.20874;stroke-linecap:square;stroke-linejoin:round;paint-order:markers stroke fill"
         d="m 11.698003,39.34884 c 4.371066,8.183067 12.891341,13.296028 22.168666,13.30327 9.277325,-0.0072 17.7976,-5.120203 22.168666,-13.30327 0,0 -22.168669,11.451159 -44.337332,0 z"
         sodipodi:nodetypes="cccc"
         inkscape:transform-center-x="0.31260066"
         inkscape:transform-center-y="12.193517" /><path
         style="fill:#000000;fill-rule:nonzero;stroke:none;stroke-width:0.264583px;stroke-linecap:butt;stroke-linejoin:miter;stroke-opacity:1"
         d="m 12.068264,42.807645 c -0.03859,-0.549217 0.158615,-1.865119 0.313615,-2.411 0.01196,-0.04213 0.02369,-0.08316 0.03507,-0.122694 0.0728,-0.252777 0.140773,-0.477529 0.208999,-0.653613 0.05879,-0.151717 0.124715,-0.286687 0.2088,-0.401446 0.01233,-0.01683 0.02484,-0.03359 0.03758,-0.05031 0.09279,-0.121735 0.190537,-0.230833 0.304824,-0.333089 0.11241,-0.100576 0.226249,-0.181109 0.328826,-0.242439 0.04419,-0.02642 0.08566,-0.04887 0.122491,-0.06694 0.172408,-0.08455 0.267392,-0.128746 0.268638,-0.150759 0.0014,-0.02457 -0.05395,-0.08043 -0.308273,-0.110839 -0.04608,-0.0055 -0.09966,-0.01086 -0.15997,-0.01375 -0.137857,-0.0066 -0.314109,-6.1e-5 -0.508851,0.04679 -0.197732,0.04757 -0.403354,0.133932 -0.594593,0.271569 -0.02643,0.01903 -0.05234,0.03885 -0.07766,0.05946 -0.17286,0.140701 -0.339041,0.310972 -0.479427,0.524102 -0.168819,0.256296 -0.294353,0.566557 -0.340822,0.927603 -0.007,0.05455 -0.01222,0.110143 -0.01547,0.166729 -0.04899,0.851227 0.389649,1.86988 0.656215,2.560628 z"
         id="path16681"
         inkscape:path-effect="#path-effect16683"
         inkscape:original-d="m 12.068264,42.807645 c -1.02349,-4.593731 1.828848,-4.432289 1.828848,-4.432289"
         inkscape:transform-center-x="21.526566"
         inkscape:transform-center-y="6.7211619"
         sodipodi:nodetypes="cc" /><use
         x="0"
         y="0"
         xlink:href="#path16681"
         inkscape:transform-center-x="-20.901365"
         inkscape:transform-center-y="6.7211618"
         id="use16691"
         transform="matrix(-1,0,0,1,67.733338,-1.971767e-8)" /></g><path
       style="fill:#000000;fill-rule:nonzero;stroke:none;stroke-width:0.264583px;stroke-linecap:butt;stroke-linejoin:miter;stroke-opacity:1"
       d="m 24.162403,-39.759959 c -0.105128,-0.09785 -0.232158,-0.492081 -0.656956,-0.568755 -0.520878,-0.09402 -1.506491,0.14604 -2.523405,0.654255 -0.949429,0.474489 -1.741281,1.072378 -2.463075,1.663044 -0.03537,0.02895 -0.07029,0.05763 -0.104806,0.08604 -1.365776,1.124301 -2.458921,2.547483 -3.365154,4.029527 -0.135269,0.221217 -0.267116,0.445014 -0.395699,0.670749 -0.591293,1.038052 -1.089807,2.089023 -1.479833,3.095505 -0.534474,1.379238 -0.51464,1.675905 -0.512707,1.676496 l 0,0 c 0.02283,0.007 0.15672,-0.380971 0.734753,-1.580196 0.461052,-0.956529 1.021823,-1.970072 1.678227,-2.929076 0.143389,-0.209491 0.290911,-0.415245 0.442281,-0.616967 1.021426,-1.361196 2.225735,-2.548391 3.552954,-3.494231 0.0335,-0.02387 0.06757,-0.04769 0.102193,-0.07144 0.705856,-0.484088 1.525308,-0.86523 2.391781,-1.163838 0.920398,-0.317193 1.77827,-0.483441 2.163904,-0.724753 0.32828,-0.20542 0.356056,-0.606738 0.435542,-0.726361 z"
       id="path17863"
       inkscape:path-effect="#path-effect17867"
       inkscape:original-d="m 24.162403,-39.759959 c -8.34418,0.983825 -11.501635,11.306858 -11.501635,11.306858"
       sodipodi:nodetypes="cc"
       inkscape:transform-center-x="15.767957"
       inkscape:transform-center-y="-15.291167" /><path
       style="fill:#000000;fill-rule:nonzero;stroke:none;stroke-width:0.264583px;stroke-linecap:butt;stroke-linejoin:miter;stroke-opacity:1"
       d="m 40.818259,-30.492114 c 0.01953,0.137168 -0.130505,0.53199 0.149651,0.85845 0.160331,0.186831 0.46371,0.389809 0.843457,0.54367 0.399112,0.161708 0.860748,0.261245 1.340697,0.25984 0.422758,-0.0012 0.82103,-0.08001 1.192313,-0.220297 0.378575,-0.143046 0.699398,-0.338324 0.980489,-0.539556 0.02833,-0.02028 0.05622,-0.04059 0.08366,-0.06087 0.551558,-0.407544 1.002685,-0.962519 1.398059,-1.56939 0.397096,-0.609515 0.749439,-1.287674 1.126995,-2.023161 0.109832,-0.213956 0.225087,-0.439045 0.339738,-0.658778 0.207927,-0.398501 0.467878,-0.885677 0.738217,-1.333009 0.179259,-0.296622 0.370487,-0.588628 0.574032,-0.857316 0.19692,-0.259942 0.403198,-0.495254 0.622009,-0.695673 0.220997,-0.202424 0.4503,-0.365158 0.691614,-0.483954 0.255764,-0.12591 0.518689,-0.199315 0.791091,-0.222745 0.311206,-0.02677 0.621185,0.01294 0.924739,0.09859 0.419231,0.118297 0.796911,0.316438 1.079421,0.486522 -0.27239,-0.183006 -0.643482,-0.401478 -1.061081,-0.545103 -0.302946,-0.104193 -0.620915,-0.166096 -0.949246,-0.159954 -0.288389,0.0054 -0.574058,0.06304 -0.858313,0.17852 -0.268121,0.108926 -0.525417,0.265391 -0.775153,0.46386 -0.246988,0.196283 -0.480619,0.428896 -0.704061,0.685423 -0.230861,0.265045 -0.448694,0.553211 -0.65328,0.843804 -0.3053,0.433648 -0.610915,0.917192 -0.849458,1.293337 -0.136196,0.214759 -0.266092,0.419214 -0.398699,0.624117 -0.4497,0.694869 -0.866317,1.292948 -1.307371,1.806995 -0.442121,0.515291 -0.880543,0.911088 -1.329412,1.176746 -0.02201,0.01302 -0.04435,0.02568 -0.06701,0.03795 -0.226686,0.122728 -0.472812,0.200417 -0.729849,0.230314 -0.249308,0.029 -0.498309,0.01229 -0.75479,-0.03652 -0.299065,-0.05691 -0.58379,-0.151766 -0.88511,-0.255738 -0.278489,-0.09609 -0.554824,-0.194288 -0.76226,-0.214325 -0.364286,-0.03519 -0.651062,0.248784 -0.791085,0.288247 z"
       id="path18085"
       inkscape:path-effect="#path-effect18089"
       inkscape:original-d="m 40.818259,-30.492114 c 7.255349,4.726033 6.775535,-10.30012 12.87618,-6.417673"
       sodipodi:nodetypes="cc"
       inkscape:transform-center-x="-13.065624"
       inkscape:transform-center-y="-14.11299" /><g
       id="g18170"
       inkscape:transform-center-x="-2.7500002e-06"
       inkscape:transform-center-y="-1.2566501"
       transform="translate(0,67.733338)"><g
         id="g18158"
         transform="matrix(1.2924509,0,0,1.2924509,-10.12503,-0.81332599)"
         inkscape:transform-center-x="0.31260463"
         inkscape:transform-center-y="-6.3758463"
         style="display:inline"><g
           id="g18154"><g
             id="g18150"><circle
               style="opacity:1;fill:#000000;stroke-width:0.15217;stroke-linecap:square;stroke-linejoin:round;paint-order:markers stroke fill"
               id="circle18148"
               cx="22.492502"
               cy="21.853394"
               r="3.1668539" /></g><circle
             style="fill:#ffffff;fill-opacity:1;stroke-width:1.13351;stroke-linecap:square;stroke-miterlimit:5.1;paint-order:markers stroke fill"
             id="circle18152"
             cx="20.838152"
             cy="20.350439"
             r="0.60838562" /></g><use
           x="0"
           y="0"
           xlink:href="#g3577"
           id="use18156"
           transform="translate(23.089837)" /></g><path
         style="fill:#000000;fill-rule:nonzero;stroke:none;stroke-width:0.264583px;stroke-linecap:butt;stroke-linejoin:miter;stroke-opacity:1"
         d="m 40.142142,21.240314 c 4.2e-4,0.03467 -0.0011,0.123607 0.006,0.250956 0.01069,0.191503 0.03449,0.627535 0.133202,1.033975 0.03992,0.164382 0.09355,0.33194 0.168048,0.490689 0.06727,0.14335 0.152511,0.281449 0.261727,0.405263 0.104306,0.118249 0.227907,0.220603 0.37247,0.301808 0.141983,0.07975 0.296538,0.134779 0.459551,0.166647 0.338743,0.06622 0.689175,0.02801 1.007583,-0.05934 0.08683,-0.02382 0.171579,-0.05136 0.253442,-0.08159 0.253639,-0.09365 0.508459,-0.220119 0.762336,-0.369133 0.335898,-0.197156 0.677291,-0.43797 1.023882,-0.706442 0.675532,-0.523271 1.361275,-1.142593 2.125834,-1.807777 0.362186,-0.315111 0.74376,-0.641685 1.133669,-0.95549 0.330923,-0.266333 0.704282,-0.558491 1.091975,-0.837159 0.356541,-0.256275 0.728664,-0.503749 1.10615,-0.719818 0.361032,-0.206651 0.72179,-0.381641 1.07875,-0.511246 0.358054,-0.130001 0.705152,-0.211761 1.041824,-0.238236 0.355282,-0.02794 0.692073,0.0062 1.013453,0.103203 0.367007,0.110729 0.697968,0.298638 0.996767,0.541302 0.413977,0.336203 0.729798,0.748625 0.949801,1.084196 -0.189311,-0.349227 -0.467818,-0.798847 -0.85129,-1.191865 -0.278001,-0.284921 -0.603982,-0.533333 -0.990269,-0.709382 -0.34039,-0.155131 -0.713386,-0.247588 -1.121739,-0.269982 -0.386399,-0.02119 -0.788672,0.02121 -1.203751,0.118198 -0.412993,0.09651 -0.828467,0.244669 -1.239421,0.426931 -0.42945,0.190466 -0.849779,0.416356 -1.246839,0.652222 -0.432171,0.256725 -0.843589,0.529458 -1.203007,0.779639 -0.421086,0.293106 -0.841519,0.597458 -1.230651,0.881871 -0.859225,0.628 -1.525339,1.126382 -2.219359,1.607294 -0.341034,0.236316 -0.651613,0.441839 -0.936469,0.61674 -0.215211,0.13214 -0.409104,0.242713 -0.585679,0.334483 -0.05664,0.02944 -0.112168,0.05768 -0.167023,0.08457 -0.20363,0.09982 -0.379755,0.171609 -0.531246,0.209152 -0.07189,0.01782 -0.14243,0.02894 -0.211937,0.0292 -0.07164,2.7e-4 -0.146931,-0.01092 -0.227436,-0.04142 -0.08556,-0.03242 -0.173409,-0.08539 -0.261875,-0.162221 -0.09842,-0.08548 -0.190247,-0.194103 -0.274529,-0.31954 -0.214826,-0.319725 -0.350035,-0.705326 -0.410259,-0.898929 -0.03251,-0.104509 -0.0688,-0.22166 -0.0737,-0.238774 z"
         id="path18168"
         inkscape:path-effect="#path-effect18182"
         inkscape:original-d="m 40.142142,21.240314 c 1.170907,7.98503 10.465077,-9.476303 14.986482,-1.908191"
         sodipodi:nodetypes="cc"
         inkscape:transform-center-x="-18.2735"
         inkscape:transform-center-y="-6.1165538" /><path
         id="path18160"
         style="display:inline;opacity:1;fill:#ffffff;stroke-width:1.20874;stroke-linecap:square;stroke-linejoin:round;paint-order:markers stroke fill"
         d="m 11.698003,39.34884 c 4.371066,8.183067 12.891341,13.296028 22.168666,13.30327 9.277325,-0.0072 17.7976,-5.120203 22.168666,-13.30327 0,0 -22.168669,11.451159 -44.337332,0 z"
         sodipodi:nodetypes="cccc"
         inkscape:transform-center-x="0.31260066"
         inkscape:transform-center-y="12.193517" /><path
         style="fill:#000000;fill-rule:nonzero;stroke:none;stroke-width:0.264583px;stroke-linecap:butt;stroke-linejoin:miter;stroke-opacity:1"
         d="m 12.068264,42.807645 c -0.03859,-0.549217 0.158615,-1.865119 0.313615,-2.411 0.01196,-0.04213 0.02369,-0.08316 0.03507,-0.122694 0.0728,-0.252777 0.140773,-0.477529 0.208999,-0.653613 0.05879,-0.151717 0.124715,-0.286687 0.2088,-0.401446 0.01233,-0.01683 0.02484,-0.03359 0.03758,-0.05031 0.09279,-0.121735 0.190537,-0.230833 0.304824,-0.333089 0.11241,-0.100576 0.226249,-0.181109 0.328826,-0.242439 0.04419,-0.02642 0.08566,-0.04887 0.122491,-0.06694 0.172408,-0.08455 0.267392,-0.128746 0.268638,-0.150759 0.0014,-0.02457 -0.05395,-0.08043 -0.308273,-0.110839 -0.04608,-0.0055 -0.09966,-0.01086 -0.15997,-0.01375 -0.137857,-0.0066 -0.314109,-6.1e-5 -0.508851,0.04679 -0.197732,0.04757 -0.403354,0.133932 -0.594593,0.271569 -0.02643,0.01903 -0.05234,0.03885 -0.07766,0.05946 -0.17286,0.140701 -0.339041,0.310972 -0.479427,0.524102 -0.168819,0.256296 -0.294353,0.566557 -0.340822,0.927603 -0.007,0.05455 -0.01222,0.110143 -0.01547,0.166729 -0.04899,0.851227 0.389649,1.86988 0.656215,2.560628 z"
         id="path18162"
         inkscape:path-effect="#path-effect18174"
         inkscape:original-d="m 12.068264,42.807645 c -1.02349,-4.593731 1.828848,-4.432289 1.828848,-4.432289"
         inkscape:transform-center-x="21.526566"
         inkscape:transform-center-y="6.7211619"
         sodipodi:nodetypes="cc" /><use
         x="0"
         y="0"
         xlink:href="#path16681"
         inkscape:transform-center-x="-20.901365"
         inkscape:transform-center-y="6.7211618"
         id="use18164"
         transform="matrix(-1,0,0,1,67.733338,-1.971767e-8)" /><path
         style="fill:#000000;fill-rule:nonzero;stroke:none;stroke-width:0.264583px;stroke-linecap:butt;stroke-linejoin:miter;stroke-opacity:1"
         d="m 24.162403,13.15671 c -0.105128,-0.09786 -0.232158,-0.492081 -0.656956,-0.568755 -0.520878,-0.09402 -1.506491,0.14604 -2.523405,0.654255 -0.949429,0.474489 -1.741281,1.072378 -2.463075,1.663044 -0.03537,0.02895 -0.07029,0.05763 -0.104806,0.08604 -1.365776,1.124301 -2.458921,2.547483 -3.365154,4.029527 -0.135269,0.221217 -0.267116,0.445014 -0.395699,0.670749 -0.591293,1.038052 -1.089807,2.089023 -1.479833,3.095505 -0.534474,1.37924 -0.51464,1.675905 -0.512707,1.676496 0.02283,0.007 0.15672,-0.380971 0.734753,-1.580196 0.461052,-0.956529 1.021823,-1.970072 1.678227,-2.929076 0.143389,-0.209491 0.290911,-0.415245 0.442281,-0.616967 1.021426,-1.361196 2.225735,-2.548391 3.552954,-3.494231 0.0335,-0.02387 0.06757,-0.04769 0.102193,-0.07144 0.705856,-0.484088 1.525308,-0.86523 2.391781,-1.163838 0.920398,-0.317193 1.77827,-0.483441 2.163904,-0.724753 0.32828,-0.20542 0.356056,-0.606738 0.435542,-0.726361 z"
         id="path18166"
         inkscape:path-effect="#path-effect18178"
         inkscape:original-d="M 24.162403,13.15671 C 15.818223,14.140535 12.660768,24.463568 12.660768,24.463568"
         sodipodi:nodetypes="cc"
         inkscape:transform-center-x="15.767957"
         inkscape:transform-center-y="-15.291167" /></g><g
       id="g18468"
       inkscape:transform-center-x="-2.8241632e-06"
       inkscape:transform-center-y="-1.2566501"
       transform="matrix(0.9999982,0,0,1,67.733367,67.733338)"><g
         id="g18456"
         transform="matrix(1.2924509,0,0,1.2924509,-10.12503,-0.81332599)"
         inkscape:transform-center-x="0.31260463"
         inkscape:transform-center-y="-6.3758463"
         style="display:inline"><g
           id="g18452"><g
             id="g18448"><circle
               style="opacity:1;fill:#000000;stroke-width:0.15217;stroke-linecap:square;stroke-linejoin:round;paint-order:markers stroke fill"
               id="circle18446"
               cx="22.492502"
               cy="21.853394"
               r="3.1668539" /></g><circle
             style="fill:#ffffff;fill-opacity:1;stroke-width:1.13351;stroke-linecap:square;stroke-miterlimit:5.1;paint-order:markers stroke fill"
             id="circle18450"
             cx="20.838152"
             cy="20.350439"
             r="0.60838562" /></g><use
           x="0"
           y="0"
           xlink:href="#g3577"
           id="use18454"
           transform="translate(23.089837)" /></g><path
         style="fill:#000000;fill-rule:nonzero;stroke:none;stroke-width:0.264583px;stroke-linecap:butt;stroke-linejoin:miter;stroke-opacity:1"
         d="m 40.142142,21.240314 c 4.2e-4,0.03467 -0.0011,0.123607 0.006,0.250956 0.01069,0.191503 0.03449,0.627535 0.133202,1.033975 0.03992,0.164382 0.09355,0.33194 0.168048,0.490689 0.06727,0.14335 0.152511,0.281449 0.261727,0.405263 0.104306,0.118249 0.227907,0.220603 0.37247,0.301808 0.141983,0.07975 0.296538,0.134779 0.459551,0.166647 0.338743,0.06622 0.689175,0.02801 1.007583,-0.05934 0.08683,-0.02382 0.171579,-0.05136 0.253442,-0.08159 0.253639,-0.09365 0.508459,-0.220119 0.762336,-0.369133 0.335898,-0.197156 0.677291,-0.43797 1.023882,-0.706442 0.675532,-0.523271 1.361275,-1.142593 2.125834,-1.807777 0.362186,-0.315111 0.74376,-0.641685 1.133669,-0.95549 0.330923,-0.266333 0.704282,-0.558491 1.091975,-0.837159 0.356541,-0.256275 0.728664,-0.503749 1.10615,-0.719818 0.361032,-0.206651 0.72179,-0.381641 1.07875,-0.511246 0.358054,-0.130001 0.705152,-0.211761 1.041824,-0.238236 0.355282,-0.02794 0.692073,0.0062 1.013453,0.103203 0.367007,0.110729 0.697968,0.298638 0.996767,0.541302 0.413977,0.336203 0.729798,0.748625 0.949801,1.084196 -0.189311,-0.349227 -0.467818,-0.798847 -0.85129,-1.191865 -0.278001,-0.284921 -0.603982,-0.533333 -0.990269,-0.709382 -0.34039,-0.155131 -0.713386,-0.247588 -1.121739,-0.269982 -0.386399,-0.02119 -0.788672,0.02121 -1.203751,0.118198 -0.412993,0.09651 -0.828467,0.244669 -1.239421,0.426931 -0.42945,0.190466 -0.849779,0.416356 -1.246839,0.652222 -0.432171,0.256725 -0.843589,0.529458 -1.203007,0.779639 -0.421086,0.293106 -0.841519,0.597458 -1.230651,0.881871 -0.859225,0.628 -1.525339,1.126382 -2.219359,1.607294 -0.341034,0.236316 -0.651613,0.441839 -0.936469,0.61674 -0.215211,0.13214 -0.409104,0.242713 -0.585679,0.334483 -0.05664,0.02944 -0.112168,0.05768 -0.167023,0.08457 -0.20363,0.09982 -0.379755,0.171609 -0.531246,0.209152 -0.07189,0.01782 -0.14243,0.02894 -0.211937,0.0292 -0.07164,2.7e-4 -0.146931,-0.01092 -0.227436,-0.04142 -0.08556,-0.03242 -0.173409,-0.08539 -0.261875,-0.162221 -0.09842,-0.08548 -0.190247,-0.194103 -0.274529,-0.31954 -0.214826,-0.319725 -0.350035,-0.705326 -0.410259,-0.898929 -0.03251,-0.104509 -0.0688,-0.22166 -0.0737,-0.238774 z"
         id="path18458"
         inkscape:path-effect="#path-effect18472"
         inkscape:original-d="m 40.142142,21.240314 c 1.170907,7.98503 10.465077,-9.476303 14.986482,-1.908191"
         sodipodi:nodetypes="cc"
         inkscape:transform-center-x="-18.2735"
         inkscape:transform-center-y="-6.1165538" /><path
         id="path18460"
         style="display:inline;opacity:1;fill:#ffffff;stroke-width:1.20874;stroke-linecap:square;stroke-linejoin:round;paint-order:markers stroke fill"
         d="M 14.45521,44.267399 C 39.678148,34.228 51.427996,54.35261 53.568205,46.365254 54.116104,44.320469 52.93544,27.148525 14.45521,44.267399 Z"
         sodipodi:nodetypes="csc"
         inkscape:transform-center-x="3.0635052"
         inkscape:transform-center-y="15.13112" /><use
         x="0"
         y="0"
         xlink:href="#path16681"
         inkscape:transform-center-x="-20.901364"
         inkscape:transform-center-y="-6.7211614"
         id="use18464"
         transform="rotate(180,33.235167,43.682015)" /><path
         style="fill:#000000;fill-rule:nonzero;stroke:none;stroke-width:0.264583px;stroke-linecap:butt;stroke-linejoin:miter;stroke-opacity:1"
         d="m 24.162403,13.15671 c -0.105128,-0.09786 -0.232158,-0.492081 -0.656956,-0.568755 -0.520878,-0.09402 -1.506491,0.14604 -2.523405,0.654255 -0.949429,0.474489 -1.741281,1.072378 -2.463075,1.663044 -0.03537,0.02895 -0.07029,0.05763 -0.104806,0.08604 -1.365776,1.124301 -2.458921,2.547483 -3.365154,4.029527 -0.135269,0.221217 -0.267116,0.445014 -0.395699,0.670749 -0.591293,1.038052 -1.089807,2.089023 -1.479833,3.095505 -0.534474,1.37924 -0.51464,1.675905 -0.512707,1.676496 0.02283,0.007 0.15672,-0.380971 0.734753,-1.580196 0.461052,-0.956529 1.021823,-1.970072 1.678227,-2.929076 0.143389,-0.209491 0.290911,-0.415245 0.442281,-0.616967 1.021426,-1.361196 2.225735,-2.548391 3.552954,-3.494231 0.0335,-0.02387 0.06757,-0.04769 0.102193,-0.07144 0.705856,-0.484088 1.525308,-0.86523 2.391781,-1.163838 0.920398,-0.317193 1.77827,-0.483441 2.163904,-0.724753 0.32828,-0.20542 0.356056,-0.606738 0.435542,-0.726361 z"
         id="path18466"
         inkscape:path-effect="#path-effect18480"
         inkscape:original-d="M 24.162403,13.15671 C 15.818223,14.140535 12.660768,24.463568 12.660768,24.463568"
         sodipodi:nodetypes="cc"
         inkscape:transform-center-x="15.767957"
         inkscape:transform-center-y="-15.291167" /></g><g
       id="g18968"
       transform="translate(135.46663,67.733338)"><g
         id="g18960"
         transform="matrix(1.2924509,0,0,1.2924509,-10.12503,-0.81332599)"
         inkscape:transform-center-x="0.31260463"
         inkscape:transform-center-y="-6.3758463"
         style="display:inline"><g
           id="g18956"><g
             id="g18952"><path
               style="opacity:1;fill:#000000;stroke-width:0.15217;stroke-linecap:square;stroke-linejoin:round;paint-order:markers stroke fill"
               id="circle18950"
               sodipodi:type="arc"
               sodipodi:cx="22.492502"
               sodipodi:cy="21.853394"
               sodipodi:rx="3.1668539"
               sodipodi:ry="3.1668539"
               sodipodi:start="0"
               sodipodi:end="3.1415927"
               sodipodi:arc-type="slice"
               d="m 25.659356,21.853394 a 3.1668539,3.1668539 0 0 1 -1.583427,2.742576 3.1668539,3.1668539 0 0 1 -3.166854,-1e-6 3.1668539,3.1668539 0 0 1 -1.583427,-2.742575 h 3.166854 z" /><path
               style="display:inline;fill:#ffffff;fill-opacity:1;stroke-width:1.13351;stroke-linecap:square;stroke-miterlimit:5.1;paint-order:markers stroke fill"
               id="circle18450-3"
               sodipodi:type="arc"
               sodipodi:cx="20.504004"
               sodipodi:cy="21.975622"
               sodipodi:rx="0.60838449"
               sodipodi:ry="0.60838562"
               sodipodi:start="0"
               sodipodi:end="3.1415927"
               sodipodi:arc-type="slice"
               d="m 21.112388,21.975622 a 0.60838449,0.60838562 0 0 1 -0.304192,0.526878 0.60838449,0.60838562 0 0 1 -0.608385,0 0.60838449,0.60838562 0 0 1 -0.304192,-0.526878 h 0.608385 z" /></g></g><path
           style="fill:#000000;fill-rule:nonzero;stroke:none;stroke-width:0.204714px;stroke-linecap:butt;stroke-linejoin:miter;stroke-opacity:1"
           d="m 14.323918,21.602387 c 0.05167,0.009 0.14506,0.02392 0.328163,0.04287 0.127566,0.01321 0.294534,0.02797 0.514188,0.04402 0.279736,0.02044 0.632021,0.04199 1.060672,0.06363 -0.03168,-0.0016 0.450043,0.0225 0.418362,0.0209 1.051678,0.05194 2.246955,0.106033 4.006048,0.179476 1.254931,0.0524 2.711286,0.110595 3.966216,0.162989 0.576431,0.02404 1.050328,0.04442 1.429527,0.0617 0.193265,0.0088 0.353306,0.01643 0.482468,0.02292 0.135306,0.0068 0.229326,0.01199 0.293395,0.01595 0.149132,0.0024 0.289185,0.0027 0.420943,0.0011 0.319909,-0.0039 0.610639,-0.01777 0.872891,-0.04233 0.363061,-0.034 0.674188,-0.08862 0.937454,-0.167001 0.264479,-0.07875 0.489146,-0.184008 0.670608,-0.323241 0.09331,-0.0716 0.173889,-0.151225 0.24116,-0.238493 0.06926,-0.08985 0.121552,-0.184096 0.159215,-0.279905 0.03897,-0.09913 0.061,-0.19664 0.07157,-0.288722 0.01109,-0.09659 0.0097,-0.18816 0.0017,-0.271478 -0.01425,-0.148693 -0.05094,-0.285181 -0.08958,-0.396367 -0.0097,-0.02788 -0.02025,-0.05545 -0.03148,-0.08269 -0.06253,-0.151614 -0.150164,-0.301287 -0.225541,-0.430267 -0.116782,-0.199828 -0.194117,-0.337471 -0.23354,-0.451005 -0.04361,0.125596 -0.09686,0.252785 -0.153363,0.507366 -0.03534,0.159222 -0.06158,0.326628 -0.08074,0.476508 -0.0033,0.02603 -0.0064,0.0516 -0.0093,0.07608 -0.01182,0.102634 -0.02458,0.196421 -0.04598,0.276556 -0.01166,0.04365 -0.02491,0.07948 -0.03986,0.108879 -0.01409,0.02771 -0.02869,0.04782 -0.04361,0.06406 -0.01369,0.01491 -0.02967,0.02866 -0.04751,0.04237 -0.01716,0.01319 -0.04207,0.03093 -0.07506,0.05033 -0.06726,0.03956 -0.177022,0.09152 -0.362121,0.14233 -0.184452,0.05063 -0.427551,0.09573 -0.748658,0.129562 -0.230061,0.02424 -0.493121,0.04197 -0.792742,0.0526 -0.12305,0.0044 -0.254936,0.0079 -0.396519,0.01022 -0.0584,0.0039 -0.155314,0.0085 -0.287881,0.01376 -0.128091,0.0051 -0.288491,0.01064 -0.481187,0.01672 -0.376717,0.01188 -0.854811,0.02498 -1.429291,0.03957 -0.936257,0.02378 -3.031814,0.07206 -3.96807,0.09584 -1.75798,0.04324 -2.958382,0.0772 -4.00874,0.112327 -0.02055,6.88e-4 -0.398149,0.01364 -0.418698,0.01432 -0.429114,0.01499 -0.781534,0.03138 -1.061714,0.04808 -0.21993,0.01311 -0.387104,0.0259 -0.514874,0.03782 -0.183384,0.01711 -0.276913,0.03164 -0.328584,0.04068 z"
           id="path18984"
           sodipodi:nodetypes="csc"
           inkscape:path-effect="#path-effect18986"
           inkscape:original-d="m 14.323918,21.602387 c 1.206985,0 11.506726,0.09767 12.499039,0.09767 3.905938,0 2.79543,-1.151858 2.79543,-2.453645" /></g><path
         id="path18962"
         style="display:inline;fill:#ffffff;stroke-width:1.20874;stroke-linecap:square;stroke-linejoin:round;paint-order:markers stroke fill"
         d="m 11.698003,39.34884 c 4.371066,8.183067 12.891341,13.296028 22.168666,13.30327 9.277325,-0.0072 17.7976,-5.120203 22.168666,-13.30327 0,0 -22.168669,11.451159 -44.337332,0 z"
         sodipodi:nodetypes="cccc"
         inkscape:transform-center-x="0.31260066"
         inkscape:transform-center-y="12.193517" /><path
         style="fill:#000000;fill-rule:nonzero;stroke:none;stroke-width:0.264583px;stroke-linecap:butt;stroke-linejoin:miter;stroke-opacity:1"
         d="m 12.068264,42.807645 c -0.03859,-0.549217 0.158615,-1.865119 0.313615,-2.411 0.01196,-0.04213 0.02369,-0.08316 0.03507,-0.122694 0.0728,-0.252777 0.140773,-0.477529 0.208999,-0.653613 0.05879,-0.151717 0.124715,-0.286687 0.2088,-0.401446 0.01233,-0.01683 0.02484,-0.03359 0.03758,-0.05031 0.09279,-0.121735 0.190537,-0.230833 0.304824,-0.333089 0.11241,-0.100576 0.226249,-0.181109 0.328826,-0.242439 0.04419,-0.02642 0.08566,-0.04887 0.122491,-0.06694 0.172408,-0.08455 0.267392,-0.128746 0.268638,-0.150759 0.0014,-0.02457 -0.05395,-0.08043 -0.308273,-0.110839 -0.04608,-0.0055 -0.09966,-0.01086 -0.15997,-0.01375 -0.137857,-0.0066 -0.314109,-6.1e-5 -0.508851,0.04679 -0.197732,0.04757 -0.403354,0.133932 -0.594593,0.271569 -0.02643,0.01903 -0.05234,0.03885 -0.07766,0.05946 -0.17286,0.140701 -0.339041,0.310972 -0.479427,0.524102 -0.168819,0.256296 -0.294353,0.566557 -0.340822,0.927603 -0.007,0.05455 -0.01222,0.110143 -0.01547,0.166729 -0.04899,0.851227 0.389649,1.86988 0.656215,2.560628 z"
         id="path18964"
         inkscape:path-effect="#path-effect18972"
         inkscape:original-d="m 12.068264,42.807645 c -1.02349,-4.593731 1.828848,-4.432289 1.828848,-4.432289"
         inkscape:transform-center-x="21.526566"
         inkscape:transform-center-y="6.7211619"
         sodipodi:nodetypes="cc" /><use
         x="0"
         y="0"
         xlink:href="#path16681"
         inkscape:transform-center-x="-20.901365"
         inkscape:transform-center-y="6.7211618"
         id="use18966"
         transform="matrix(-1,0,0,1,67.733338,-1.971767e-8)" /><use
         x="0"
         y="0"
         xlink:href="#g18960"
         inkscape:transform-center-x="0.31260463"
         inkscape:transform-center-y="-6.3758463"
         id="use19142"
         transform="translate(29.863645)" /></g><g
       id="g945"
       inkscape:transform-center-x="-2.9999996e-06"
       inkscape:transform-center-y="4.1284435"
       transform="translate(203.19999,67.733332)" /><g
       id="g1026"><g
         id="g937"
         transform="matrix(1.2924509,0,0,1.2924509,193.07496,66.920006)"
         inkscape:transform-center-x="0.31260463"
         inkscape:transform-center-y="-6.3758463"
         style="display:inline"><use
           x="0"
           y="0"
           xlink:href="#g3577"
           id="use935"
           transform="translate(23.089837)" /></g><path
         id="path939"
         style="display:inline;fill:#ffffff;stroke-width:1.20874;stroke-linecap:square;stroke-linejoin:round;paint-order:markers stroke fill"
         d="m 11.698003,39.34884 c 4.371066,8.183067 12.891341,13.296028 22.168666,13.30327 9.277325,-0.0072 17.7976,-5.120203 22.168666,-13.30327 0,0 -22.168669,11.451159 -44.337332,0 z"
         sodipodi:nodetypes="cccc"
         inkscape:transform-center-x="0.31260066"
         inkscape:transform-center-y="12.193517"
         transform="translate(203.19999,67.733332)" /><path
         style="fill:#000000;fill-rule:nonzero;stroke:none;stroke-width:0.264583px;stroke-linecap:butt;stroke-linejoin:miter;stroke-opacity:1"
         d="m 12.068264,42.807645 c -0.03859,-0.549217 0.158615,-1.865119 0.313615,-2.411 0.01196,-0.04213 0.02369,-0.08316 0.03507,-0.122694 0.0728,-0.252777 0.140773,-0.477529 0.208999,-0.653613 0.05879,-0.151717 0.124715,-0.286687 0.2088,-0.401446 0.01233,-0.01683 0.02484,-0.03359 0.03758,-0.05031 0.09279,-0.121735 0.190537,-0.230833 0.304824,-0.333089 0.11241,-0.100576 0.226249,-0.181109 0.328826,-0.242439 0.04419,-0.02642 0.08566,-0.04887 0.122491,-0.06694 0.172408,-0.08455 0.267392,-0.128746 0.268638,-0.150759 0.0014,-0.02457 -0.05395,-0.08043 -0.308273,-0.110839 -0.04608,-0.0055 -0.09966,-0.01086 -0.15997,-0.01375 -0.137857,-0.0066 -0.314109,-6.1e-5 -0.508851,0.04679 -0.197732,0.04757 -0.403354,0.133932 -0.594593,0.271569 -0.02643,0.01903 -0.05234,0.03885 -0.07766,0.05946 -0.17286,0.140701 -0.339041,0.310972 -0.479427,0.524102 -0.168819,0.256296 -0.294353,0.566557 -0.340822,0.927603 -0.007,0.05455 -0.01222,0.110143 -0.01547,0.166729 -0.04899,0.851227 0.389649,1.86988 0.656215,2.560628 z"
         id="path941"
         inkscape:path-effect="#path-effect949"
         inkscape:original-d="m 12.068264,42.807645 c -1.02349,-4.593731 1.828848,-4.432289 1.828848,-4.432289"
         inkscape:transform-center-x="21.526566"
         inkscape:transform-center-y="6.7211619"
         sodipodi:nodetypes="cc"
         transform="translate(203.19999,67.733332)" /><use
         x="0"
         y="0"
         xlink:href="#path16681"
         inkscape:transform-center-x="-20.901365"
         inkscape:transform-center-y="6.7211618"
         id="use943"
         transform="matrix(-1,0,0,1,270.93334,67.733332)" /><g
         id="g3668-3-3"
         style="display:inline"
         transform="matrix(1.2924509,0,0,1.2924509,193.07497,66.920006)"><g
           id="g3795-6-6"
           transform="rotate(-45,22.532322,21.831124)"><rect
             style="opacity:1;fill:#000000;fill-opacity:1;stroke-width:1.21088;stroke-linecap:square;stroke-linejoin:round;paint-order:markers stroke fill"
             id="rect3737-7-7"
             width="2.2162876"
             height="4.6345892"
             x="21.380274"
             y="17.483656" /><rect
             style="opacity:1;fill:#000000;fill-opacity:1;stroke-width:1.21088;stroke-linecap:square;stroke-linejoin:round;paint-order:markers stroke fill"
             id="rect3791-5-5"
             width="2.2162876"
             height="5.4392581"
             x="20.710569"
             y="-23.592617"
             transform="rotate(90)" /></g></g></g></g></svg>
